<?xml version="1.0" encoding="utf-8"?>
<!-- Generator: Adobe Illustrator 16.0.0, SVG Export Plug-In . SVG Version: 6.00 Build 0)  -->
<!DOCTYPE svg PUBLIC "-//W3C//DTD SVG 1.1//EN" "http://www.w3.org/Graphics/SVG/1.1/DTD/svg11.dtd">
<svg version="1.1" id="Layer_1" xmlns="http://www.w3.org/2000/svg" xmlns:xlink="http://www.w3.org/1999/xlink" x="0px" y="0px"
	 width="275px" height="150px" viewBox="0 0 275 150" enable-background="new 0 0 275 150" xml:space="preserve">
<rect fill="#FFFFFF" width="275" height="150"/>
<g>
	<g>
		<path fill="#3DB29C" stroke="#3DB29C" stroke-width="0.5" stroke-miterlimit="10" d="M96.231,122.812
			c2.257,0,3.618,1.04,3.618,2.801c0,1.312-0.752,2.257-2.065,2.529c1.617,0.239,2.561,1.296,2.561,2.833
			c0,1.904-1.504,3.041-4.034,3.041h-4.802v-11.204H96.231z M92.79,127.646h3.377c1.505,0,2.385-0.656,2.385-1.825
			c0-1.137-0.88-1.776-2.385-1.776H92.79V127.646z M92.79,132.8h3.377c1.825,0,2.881-0.72,2.881-2.001
			c0-1.216-1.057-1.937-2.881-1.937H92.79V132.8z"/>
		<path fill="#3DB29C" stroke="#3DB29C" stroke-width="0.5" stroke-miterlimit="10" d="M102.965,134.017v-11.204h1.28v11.204
			H102.965z"/>
		<path fill="#3DB29C" stroke="#3DB29C" stroke-width="0.5" stroke-miterlimit="10" d="M112.359,122.812
			c2.257,0,3.618,1.04,3.618,2.801c0,1.312-0.752,2.257-2.065,2.529c1.617,0.239,2.561,1.296,2.561,2.833
			c0,1.904-1.504,3.041-4.034,3.041h-4.802v-11.204H112.359z M108.917,127.646h3.377c1.505,0,2.385-0.656,2.385-1.825
			c0-1.137-0.88-1.776-2.385-1.776h-3.377V127.646z M108.917,132.8h3.377c1.825,0,2.881-0.72,2.881-2.001
			c0-1.216-1.057-1.937-2.881-1.937h-3.377V132.8z"/>
		<path fill="#3DB29C" stroke="#3DB29C" stroke-width="0.5" stroke-miterlimit="10" d="M125.288,132.8v1.217h-6.195v-11.204h1.281
			v9.987H125.288z"/>
		<path fill="#3DB29C" stroke="#3DB29C" stroke-width="0.5" stroke-miterlimit="10" d="M127.364,134.017v-11.204h1.281v11.204
			H127.364z"/>
		<path fill="#3DB29C" stroke="#3DB29C" stroke-width="0.5" stroke-miterlimit="10" d="M142.713,128.414
			c0,3.153-2.593,5.667-5.858,5.667c-3.281,0-5.874-2.514-5.874-5.667c0-3.169,2.593-5.634,5.874-5.634
			C140.12,122.78,142.713,125.261,142.713,128.414z M132.276,128.414c0,2.465,2.081,4.434,4.578,4.434s4.546-1.969,4.546-4.434
			s-2.049-4.418-4.546-4.418S132.276,125.949,132.276,128.414z"/>
		<path fill="#3DB29C" stroke="#3DB29C" stroke-width="0.5" stroke-miterlimit="10" d="M148.311,124.045v9.972h-1.281v-9.972h-3.649
			v-1.232h8.596v1.232H148.311z"/>
		<path fill="#3DB29C" stroke="#3DB29C" stroke-width="0.5" stroke-miterlimit="10" d="M155.109,124.045v3.681h5.65v1.233h-5.65
			v3.841h6.53v1.217h-7.812v-11.204h7.604v1.232H155.109z"/>
		<path fill="#3DB29C" stroke="#3DB29C" stroke-width="0.5" stroke-miterlimit="10" d="M173.128,124.413l-0.769,0.976
			c-0.864-0.88-2.08-1.408-3.312-1.408c-2.529,0-4.562,1.953-4.562,4.418c0,2.449,2.033,4.418,4.562,4.418
			c1.232,0,2.433-0.513,3.312-1.345l0.785,0.88c-1.104,1.041-2.609,1.729-4.162,1.729c-3.233,0-5.794-2.514-5.794-5.683
			c0-3.138,2.593-5.618,5.842-5.618C170.567,122.78,172.056,123.404,173.128,124.413z"/>
		<path fill="#3DB29C" stroke="#3DB29C" stroke-width="0.5" stroke-miterlimit="10" d="M176.372,131.184l-1.248,2.833h-1.36
			l5.025-11.204h1.329l5.01,11.204h-1.393l-1.249-2.833H176.372z M179.413,124.269l-2.496,5.683h5.025L179.413,124.269z"/>
	</g>
</g>
<g>
	<path fill="none" stroke="#3DB29C" stroke-width="2" stroke-miterlimit="10" d="M170.702,102.246c0,1.555-1.26,2.814-2.814,2.814
		h-60.799c-1.555,0-2.814-1.26-2.814-2.814V21.932c0-1.554,1.26-2.814,2.814-2.814h60.799c1.555,0,2.814,1.261,2.814,2.814V102.246z
		"/>
	<rect x="104.579" y="41.564" fill="#3DB29C" width="66.146" height="1.689"/>
	<rect x="128.927" y="18.625" fill="#3DB29C" width="1.688" height="23.644"/>
	<rect x="145.814" y="88.289" fill="#3DB29C" width="1.689" height="17.592"/>
	<rect x="104.579" y="64.646" fill="#3DB29C" width="66.146" height="1.688"/>
	<rect x="104.579" y="87.727" fill="#3DB29C" width="66.146" height="1.689"/>
	<path fill="#3DB29C" d="M114.895,107.5c-0.143-1.42-0.202-2.533-1.66-2.533h-3.94c-1.459,0-1.518,1.113-1.66,2.533H114.895z"/>
	<path fill="#3DB29C" d="M167.812,107.5c-0.143-1.42-0.202-2.533-1.66-2.533h-3.94c-1.459,0-1.518,1.113-1.66,2.533H167.812z"/>
	<path fill="#3DB29C" d="M133.767,27.355h-2.035c-0.241,0-0.437,0.195-0.437,0.436v13.014c0,0.242,0.195,0.438,0.437,0.438h2.035
		c0.242,0,0.437-0.195,0.437-0.438V27.791C134.203,27.551,134.009,27.355,133.767,27.355z M133.804,30.245h-2.108v-0.454h2.108
		V30.245z M133.804,29.228h-2.108v-0.454h2.108V29.228z"/>
	<path fill="#3DB29C" d="M137.673,27.375h-2.035c-0.241,0-0.437,0.196-0.437,0.438v13.014c0,0.24,0.195,0.436,0.437,0.436h2.035
		c0.241,0,0.437-0.195,0.437-0.436V27.812C138.109,27.571,137.914,27.375,137.673,27.375z M137.709,30.266h-2.108v-0.454h2.108
		V30.266z M137.709,29.248h-2.108v-0.455h2.108V29.248z"/>
	<path fill="#3DB29C" d="M141.579,27.417h-2.035c-0.241,0-0.437,0.196-0.437,0.437v13.014c0,0.241,0.195,0.437,0.437,0.437h2.035
		c0.241,0,0.437-0.195,0.437-0.437V27.854C142.016,27.613,141.82,27.417,141.579,27.417z M141.615,30.307h-2.107v-0.453h2.107
		V30.307z M141.615,29.289h-2.107v-0.454h2.107V29.289z"/>
	<path fill="#3DB29C" d="M106.246,34.51v2.037c0,0.24,0.195,0.436,0.437,0.436h13.014c0.241,0,0.437-0.195,0.437-0.436V34.51
		c0-0.24-0.195-0.436-0.437-0.436h-13.014C106.441,34.074,106.246,34.27,106.246,34.51z M108.118,34.475v2.107h-0.454v-2.107
		H108.118z"/>
	<path fill="#3DB29C" d="M137.402,61.723v2.035c0,0.24,0.195,0.436,0.437,0.436h13.014c0.241,0,0.437-0.195,0.437-0.436v-2.035
		c0-0.242-0.195-0.438-0.437-0.438h-13.014C137.598,61.285,137.402,61.48,137.402,61.723z M141.311,61.686v2.107h-0.454v-2.107
		H141.311z M140.293,61.686v2.107h-0.455v-2.107H140.293z M139.274,61.686v2.107h-0.454v-2.107H139.274z"/>
	<path fill="#3DB29C" d="M112.539,50.249h-2.036c-0.24,0-0.437,0.194-0.437,0.437v13.014c0,0.24,0.196,0.436,0.437,0.436h2.036
		c0.24,0,0.436-0.195,0.436-0.436V50.686C112.975,50.443,112.779,50.249,112.539,50.249z M112.575,53.139h-2.108v-0.455h2.108
		V53.139z M112.575,52.121h-2.108v-0.455h2.108V52.121z"/>
	<path fill="#3DB29C" d="M116.174,50.249h-2.036c-0.24,0-0.437,0.194-0.437,0.437v13.014c0,0.24,0.196,0.436,0.437,0.436h2.036
		c0.241,0,0.437-0.195,0.437-0.436V50.686C116.61,50.443,116.415,50.249,116.174,50.249z M116.21,53.139h-2.108v-0.455h2.108V53.139
		z M116.21,52.121h-2.108v-0.455h2.108V52.121z"/>
	<path fill="#3DB29C" d="M109.607,93.867h-1.67c-0.241,0-0.436,0.195-0.436,0.436v9.074c0,0.24,0.194,0.436,0.436,0.436l1.67,0.01
		c0.241,0,0.437-0.195,0.437-0.436v-9.073C110.044,94.072,109.849,93.867,109.607,93.867z M109.644,95.749l-1.742-0.011v-0.453
		l1.742,0.01V95.749z"/>
	<path fill="#3DB29C" d="M125.898,93.867h-1.67c-0.241,0-0.436,0.195-0.436,0.436v9.074c0,0.24,0.194,0.436,0.436,0.436l1.67,0.01
		c0.241,0,0.437-0.195,0.437-0.436v-9.073C126.335,94.072,126.14,93.867,125.898,93.867z M125.935,95.749l-1.742-0.011v-0.453
		l1.742,0.01V95.749z"/>
	<path fill="#3DB29C" d="M127.635,85.112v1.71c0,0.203,0.195,0.367,0.437,0.367h9.073c0.241,0,0.437-0.164,0.437-0.367v-1.71
		c0-0.202-0.195-0.366-0.437-0.366h-9.073C127.83,84.746,127.635,84.91,127.635,85.112z M130.525,85.082v1.771h-0.455v-1.771
		H130.525z M129.507,85.082v1.771h-0.454v-1.771H129.507z"/>
	<path fill="#3DB29C" d="M127.635,82.057v1.711c0,0.203,0.195,0.367,0.437,0.367h9.073c0.241,0,0.437-0.164,0.437-0.367v-1.711
		c0-0.202-0.195-0.365-0.437-0.365h-9.073C127.83,81.691,127.635,81.854,127.635,82.057z M130.525,82.027v1.771h-0.455v-1.771
		H130.525z M129.507,82.027v1.771h-0.454v-1.771H129.507z"/>
	<path fill="#3DB29C" d="M127.635,79.002v1.711c0,0.203,0.195,0.367,0.437,0.367h9.073c0.241,0,0.437-0.164,0.437-0.367v-1.711
		c0-0.202-0.195-0.366-0.437-0.366h-9.073C127.83,78.636,127.635,78.8,127.635,79.002z M130.525,78.973v1.771h-0.455v-1.771H130.525
		z M129.507,78.973v1.771h-0.454v-1.771H129.507z"/>
	<path fill="#3DB29C" d="M155.332,101.045v2.035c0,0.242,0.195,0.438,0.437,0.438h11.014c0.241,0,0.437-0.195,0.437-0.438v-2.035
		c0-0.24-0.195-0.436-0.437-0.436h-11.014C155.527,100.609,155.332,100.805,155.332,101.045z M157.204,101.01v2.107h-0.454v-2.107
		H157.204z"/>
	<path fill="#3DB29C" d="M155.332,97.41v2.035c0,0.241,0.195,0.437,0.437,0.437h11.014c0.241,0,0.437-0.195,0.437-0.437V97.41
		c0-0.241-0.195-0.437-0.437-0.437h-11.014C155.527,96.974,155.332,97.169,155.332,97.41z M157.204,97.373v2.109h-0.454v-2.109
		H157.204z"/>
	<path fill="#3DB29C" d="M114.392,73.33h-2.035c-0.241,0-0.437,0.195-0.437,0.436v13.014c0,0.241,0.195,0.437,0.437,0.437h2.035
		c0.242,0,0.437-0.195,0.437-0.437V73.766C114.828,73.525,114.634,73.33,114.392,73.33z M114.429,76.22h-2.108v-0.454h2.108V76.22z
		 M114.429,75.201h-2.108v-0.453h2.108V75.201z"/>
	<path fill="#3DB29C" d="M118.34,73.33h-2.035c-0.241,0-0.437,0.195-0.437,0.436v13.014c0,0.241,0.195,0.437,0.437,0.437h2.035
		c0.241,0,0.437-0.195,0.437-0.437V73.766C118.776,73.525,118.581,73.33,118.34,73.33z M118.376,76.22h-2.107v-0.454h2.107V76.22z
		 M118.376,75.201h-2.107v-0.453h2.107V75.201z"/>
	<path fill="#3DB29C" d="M129.834,90.473h-2.035c-0.241,0-0.437,0.195-0.437,0.436v12.451c0,0.24,0.195,0.436,0.437,0.436h2.035
		c0.241,0,0.437-0.195,0.437-0.436V90.908C130.271,90.668,130.075,90.473,129.834,90.473z M129.87,93.362h-2.108v-0.454h2.108
		V93.362z M129.87,92.344h-2.108v-0.453h2.108V92.344z"/>
	<path fill="#3DB29C" d="M133.75,90.473h-2.035c-0.241,0-0.437,0.195-0.437,0.436v12.451c0,0.24,0.195,0.436,0.437,0.436h2.035
		c0.241,0,0.437-0.195,0.437-0.436V90.908C134.187,90.668,133.991,90.473,133.75,90.473z M133.786,93.362h-2.107v-0.454h2.107
		V93.362z M133.786,92.344h-2.107v-0.453h2.107V92.344z"/>
	<path fill="#3DB29C" d="M137.677,90.566h-2.035c-0.242,0-0.438,0.195-0.438,0.436v12.451c0,0.24,0.195,0.436,0.438,0.436h2.035
		c0.241,0,0.436-0.195,0.436-0.436V91.002C138.112,90.762,137.918,90.566,137.677,90.566z M137.713,93.456h-2.108v-0.454h2.108
		V93.456z M137.713,92.438h-2.108v-0.453h2.108V92.438z"/>
	<path fill="#3DB29C" d="M128.037,50.291h-2.035c-0.241,0-0.438,0.194-0.438,0.436V63.74c0,0.241,0.196,0.436,0.438,0.436h2.035
		c0.241,0,0.437-0.194,0.437-0.436V50.727C128.474,50.485,128.278,50.291,128.037,50.291z M128.073,52.162h-2.108v-0.454h2.108
		V52.162z"/>
	<path fill="#3DB29C" d="M132.037,50.291h-2.035c-0.241,0-0.438,0.194-0.438,0.436V63.74c0,0.241,0.196,0.436,0.438,0.436h2.035
		c0.241,0,0.437-0.194,0.437-0.436V50.727C132.474,50.485,132.278,50.291,132.037,50.291z M132.073,52.162h-2.108v-0.454h2.108
		V52.162z"/>
	<path fill="#3DB29C" d="M135.932,50.343h-2.036c-0.24,0-0.436,0.194-0.436,0.437v13.014c0,0.24,0.195,0.436,0.436,0.436h2.036
		c0.241,0,0.437-0.195,0.437-0.436V50.779C136.368,50.537,136.173,50.343,135.932,50.343z M135.968,54.25h-2.108v-0.454h2.108V54.25
		z M135.968,53.232h-2.108v-0.455h2.108V53.232z M135.968,52.215h-2.108V51.76h2.108V52.215z"/>
	<path fill="#3DB29C" d="M153.193,50.4l-1.966,0.532c-0.232,0.063-0.37,0.302-0.308,0.535l3.402,12.562
		c0.063,0.232,0.303,0.369,0.535,0.307l1.966-0.532c0.231-0.063,0.37-0.303,0.307-0.535l-3.402-12.562
		C153.665,50.475,153.425,50.338,153.193,50.4z M153.717,52.197l-2.035,0.552l-0.119-0.438l2.035-0.551L153.717,52.197z"/>
	<g>
		<path fill="#3DB29C" d="M119.717,37.98h-11.436v2.908h11.436c0.241,0,0.437-0.195,0.437-0.437v-2.035
			C120.153,38.176,119.958,37.98,119.717,37.98z"/>
		<path fill="#3DB29C" d="M107.688,37.98h-0.984c-0.241,0-0.437,0.195-0.437,0.437v2.035c0,0.241,0.195,0.437,0.437,0.437h0.984
			V37.98z"/>
	</g>
	<g>
		<path fill="#3DB29C" d="M150.8,57.314h-11.436v2.908H150.8c0.241,0,0.437-0.195,0.437-0.438V57.75
			C151.236,57.51,151.041,57.314,150.8,57.314z"/>
		<path fill="#3DB29C" d="M138.771,57.314h-0.984c-0.241,0-0.437,0.195-0.437,0.436v2.035c0,0.242,0.195,0.438,0.437,0.438h0.984
			V57.314z"/>
	</g>
	<g>
		<path fill="#3DB29C" d="M150.716,53.397H139.28v2.908h11.436c0.241,0,0.437-0.195,0.437-0.437v-2.035
			C151.152,53.593,150.957,53.397,150.716,53.397z"/>
		<path fill="#3DB29C" d="M138.687,53.397h-0.984c-0.241,0-0.437,0.195-0.437,0.437v2.035c0,0.241,0.195,0.437,0.437,0.437h0.984
			V53.397z"/>
	</g>
	<g>
		<path fill="#3DB29C" d="M119.707,30.157h-11.436v2.908h11.436c0.241,0,0.437-0.195,0.437-0.437v-2.035
			C120.144,30.353,119.948,30.157,119.707,30.157z"/>
		<path fill="#3DB29C" d="M107.678,30.157h-0.984c-0.241,0-0.437,0.195-0.437,0.437v2.035c0,0.241,0.195,0.437,0.437,0.437h0.984
			V30.157z"/>
	</g>
	<g>
		<path fill="#3DB29C" d="M148.763,40.076l-3.341-10.938l-2.781,0.85l3.341,10.938c0.07,0.23,0.314,0.359,0.545,0.289l1.946-0.594
			C148.703,40.551,148.833,40.307,148.763,40.076z"/>
		<path fill="#3DB29C" d="M145.249,28.571l-0.288-0.94c-0.07-0.231-0.315-0.361-0.545-0.291l-1.946,0.595
			c-0.231,0.07-0.36,0.313-0.291,0.545l0.289,0.941L145.249,28.571z"/>
	</g>
	<g>
		<path fill="#3DB29C" d="M106.432,51.82v11.902c0,0.229,0.195,0.414,0.437,0.414h2.035c0.241,0,0.437-0.186,0.437-0.414V51.82
			H106.432z"/>
		<path fill="#3DB29C" d="M109.34,51.326v-0.913c0-0.229-0.195-0.414-0.437-0.414h-2.035c-0.241,0-0.437,0.185-0.437,0.414v0.913
			H109.34z"/>
	</g>
	<g>
		<path fill="#3DB29C" d="M119.807,74.945v11.902c0,0.229,0.195,0.414,0.437,0.414h2.035c0.241,0,0.437-0.186,0.437-0.414V74.945
			H119.807z"/>
		<path fill="#3DB29C" d="M122.715,74.451v-0.913c0-0.229-0.195-0.414-0.437-0.414h-2.035c-0.241,0-0.437,0.185-0.437,0.414v0.913
			H122.715z"/>
	</g>
	<g>
		<path fill="#3DB29C" d="M123.744,74.945v11.902c0,0.229,0.195,0.414,0.437,0.414h2.035c0.241,0,0.437-0.186,0.437-0.414V74.945
			H123.744z"/>
		<path fill="#3DB29C" d="M126.652,74.451v-0.913c0-0.229-0.195-0.414-0.437-0.414h-2.035c-0.241,0-0.437,0.185-0.437,0.414v0.913
			H126.652z"/>
	</g>
	<g>
		<path fill="#3DB29C" d="M108.084,74.721l-2.358,11.666c-0.045,0.224,0.109,0.443,0.346,0.492l1.995,0.402
			c0.236,0.049,0.465-0.094,0.51-0.318l2.358-11.666L108.084,74.721z"/>
		<path fill="#3DB29C" d="M111.033,74.811l0.181-0.895c0.045-0.224-0.109-0.443-0.346-0.492l-1.995-0.402
			c-0.236-0.049-0.465,0.094-0.51,0.318l-0.181,0.895L111.033,74.811z"/>
	</g>
	<g>
		<path fill="#3DB29C" d="M117.64,51.859v11.903c0,0.229,0.195,0.413,0.437,0.413h2.035c0.241,0,0.437-0.185,0.437-0.413V51.859
			H117.64z"/>
		<path fill="#3DB29C" d="M120.548,51.365v-0.912c0-0.229-0.195-0.414-0.437-0.414h-2.035c-0.241,0-0.437,0.185-0.437,0.414v0.912
			H120.548z"/>
	</g>
	<g>
		<path fill="#3DB29C" d="M121.64,51.859v11.903c0,0.229,0.195,0.413,0.437,0.413h2.035c0.241,0,0.437-0.185,0.437-0.413V51.859
			H121.64z"/>
		<path fill="#3DB29C" d="M124.548,51.365v-0.912c0-0.229-0.195-0.414-0.437-0.414h-2.035c-0.241,0-0.437,0.185-0.437,0.414v0.912
			H124.548z"/>
	</g>
	<g>
		<path fill="#3DB29C" d="M111.031,95.374v8.043c0,0.241,0.195,0.437,0.437,0.437h1.306c0.241,0,0.437-0.227,0.437-0.467v-8.013
			H111.031z"/>
		<path fill="#3DB29C" d="M113.21,94.874v-0.561c0-0.241-0.195-0.406-0.437-0.406h-1.306c-0.241,0-0.437,0.195-0.437,0.437v0.53
			H113.21z"/>
	</g>
	<g>
		<path fill="#3DB29C" d="M114.219,95.354v8.043c0,0.24,0.195,0.436,0.437,0.436h1.306c0.241,0,0.437-0.226,0.437-0.467v-8.012
			H114.219z"/>
		<path fill="#3DB29C" d="M116.397,94.854v-0.561c0-0.242-0.195-0.406-0.437-0.406h-1.306c-0.241,0-0.437,0.195-0.437,0.436v0.531
			H116.397z"/>
	</g>
	<g>
		<path fill="#3DB29C" d="M152.937,95.061l-1.234,7.947c-0.037,0.238,0.126,0.461,0.364,0.498l1.29,0.201
			c0.239,0.037,0.466-0.156,0.504-0.395l1.23-7.917L152.937,95.061z"/>
		<path fill="#3DB29C" d="M155.167,94.901l0.086-0.554c0.037-0.238-0.13-0.432-0.369-0.469l-1.29-0.201
			c-0.238-0.037-0.461,0.127-0.498,0.365l-0.082,0.523L155.167,94.901z"/>
	</g>
	<g>
		<path fill="#3DB29C" d="M149.937,95.061l-1.234,7.947c-0.037,0.238,0.126,0.461,0.364,0.498l1.29,0.201
			c0.239,0.037,0.466-0.156,0.504-0.395l1.23-7.917L149.937,95.061z"/>
		<path fill="#3DB29C" d="M152.167,94.901l0.086-0.554c0.037-0.238-0.13-0.432-0.369-0.469l-1.29-0.201
			c-0.238-0.037-0.461,0.127-0.498,0.365l-0.082,0.523L152.167,94.901z"/>
	</g>
	<g>
		<path fill="#3DB29C" d="M117.406,95.354v8.043c0,0.24,0.195,0.436,0.437,0.436h1.306c0.241,0,0.437-0.226,0.437-0.467v-8.012
			H117.406z"/>
		<path fill="#3DB29C" d="M119.585,94.854v-0.561c0-0.242-0.195-0.406-0.437-0.406h-1.306c-0.241,0-0.437,0.195-0.437,0.436v0.531
			H119.585z"/>
	</g>
	<g>
		<path fill="#3DB29C" d="M120.635,95.354v8.043c0,0.24,0.195,0.436,0.437,0.436h1.306c0.241,0,0.437-0.226,0.437-0.467v-8.012
			H120.635z"/>
		<path fill="#3DB29C" d="M122.813,94.854v-0.561c0-0.242-0.195-0.406-0.437-0.406h-1.306c-0.241,0-0.437,0.195-0.437,0.436v0.531
			H122.813z"/>
	</g>
</g>
</svg>
