<?xml version="1.0" encoding="utf-8"?>
<!-- Generator: Adobe Illustrator 16.0.0, SVG Export Plug-In . SVG Version: 6.00 Build 0)  -->
<!DOCTYPE svg PUBLIC "-//W3C//DTD SVG 1.1//EN" "http://www.w3.org/Graphics/SVG/1.1/DTD/svg11.dtd">
<svg version="1.1" id="Layer_1" xmlns="http://www.w3.org/2000/svg" xmlns:xlink="http://www.w3.org/1999/xlink" x="0px" y="0px"
	 width="275px" height="150px" viewBox="0 0 275 150" enable-background="new 0 0 275 150" xml:space="preserve">
<rect fill="#FFFFFF" width="275" height="150"/>
<g>
	<g enable-background="new    ">
		<path fill="#FEA628" d="M92.34,130.397c2.729,0,4.308,1.356,4.308,3.707c0,2.446-1.578,3.85-4.308,3.85h-2.887v3.487H88.19
			v-11.044H92.34z M89.453,136.739h2.84c1.988,0,3.14-0.883,3.14-2.603c0-1.673-1.152-2.524-3.14-2.524h-2.84V136.739z"/>
		<path fill="#FEA628" d="M99.095,138.648l-1.23,2.793h-1.341l4.954-11.044h1.31l4.938,11.044h-1.373l-1.23-2.793H99.095z
			 M102.093,131.833l-2.461,5.601h4.954L102.093,131.833z"/>
		<path fill="#FEA628" d="M114.402,137.923c-0.237,0.016-0.489,0.031-0.742,0.031h-2.935v3.487h-1.262v-11.044h4.197
			c2.761,0,4.354,1.356,4.354,3.707c0,1.83-0.883,3.062-2.477,3.582l2.588,3.755h-1.436L114.402,137.923z M113.661,136.739
			c2.004,0,3.14-0.883,3.14-2.603c0-1.673-1.136-2.524-3.14-2.524h-2.935v5.127H113.661z"/>
		<path fill="#FEA628" d="M121.836,138.648l-1.23,2.793h-1.341l4.954-11.044h1.31l4.938,11.044h-1.373l-1.23-2.793H121.836z
			 M124.834,131.833l-2.461,5.601h4.954L124.834,131.833z"/>
		<path fill="#FEA628" d="M138.311,140.242v1.199h-6.105v-11.044h1.262v9.845H138.311z"/>
		<path fill="#FEA628" d="M140.363,141.441v-11.044h1.263v11.044H140.363z"/>
		<path fill="#FEA628" d="M149.627,130.397c2.225,0,3.565,1.025,3.565,2.761c0,1.294-0.741,2.225-2.035,2.493
			c1.593,0.236,2.524,1.277,2.524,2.792c0,1.878-1.483,2.998-3.977,2.998h-4.732v-11.044H149.627z M146.234,135.162h3.329
			c1.483,0,2.351-0.647,2.351-1.799c0-1.12-0.867-1.751-2.351-1.751h-3.329V135.162z M146.234,140.242h3.329
			c1.799,0,2.84-0.71,2.84-1.972c0-1.199-1.041-1.909-2.84-1.909h-3.329V140.242z"/>
		<path fill="#FEA628" d="M161.21,137.923c-0.237,0.016-0.489,0.031-0.741,0.031h-2.936v3.487h-1.262v-11.044h4.197
			c2.761,0,4.354,1.356,4.354,3.707c0,1.83-0.883,3.062-2.477,3.582l2.588,3.755h-1.436L161.21,137.923z M160.469,136.739
			c2.004,0,3.139-0.883,3.139-2.603c0-1.673-1.135-2.524-3.139-2.524h-2.936v5.127H160.469z"/>
		<path fill="#FEA628" d="M178.205,135.919c0,3.108-2.557,5.586-5.775,5.586c-3.234,0-5.789-2.478-5.789-5.586
			c0-3.124,2.555-5.554,5.789-5.554C175.648,130.365,178.205,132.812,178.205,135.919z M167.918,135.919
			c0,2.43,2.051,4.371,4.512,4.371c2.462,0,4.481-1.941,4.481-4.371s-2.02-4.354-4.481-4.354
			C169.969,131.564,167.918,133.489,167.918,135.919z"/>
		<path fill="#FEA628" d="M187.297,131.375l-0.537,1.184c-0.994-0.663-2.162-0.931-3.045-0.931c-1.42,0-2.352,0.536-2.352,1.467
			c0,2.84,6.217,1.357,6.201,5.364c0,1.847-1.625,3.029-3.992,3.029c-1.609,0-3.187-0.693-4.229-1.688l0.568-1.137
			c1.025,0.994,2.43,1.562,3.676,1.562c1.594,0,2.588-0.646,2.588-1.704c0.016-2.903-6.201-1.356-6.201-5.317
			c0-1.735,1.531-2.855,3.818-2.855C185.071,130.35,186.381,130.76,187.297,131.375z"/>
	</g>
	<g enable-background="new    ">
		<path fill="none" stroke="#FEA628" stroke-width="0.4932" stroke-miterlimit="10" d="M92.34,130.397
			c2.729,0,4.308,1.356,4.308,3.707c0,2.446-1.578,3.85-4.308,3.85h-2.887v3.487H88.19v-11.044H92.34z M89.453,136.739h2.84
			c1.988,0,3.14-0.883,3.14-2.603c0-1.673-1.152-2.524-3.14-2.524h-2.84V136.739z"/>
		<path fill="none" stroke="#FEA628" stroke-width="0.4932" stroke-miterlimit="10" d="M99.095,138.648l-1.23,2.793h-1.341
			l4.954-11.044h1.31l4.938,11.044h-1.373l-1.23-2.793H99.095z M102.093,131.833l-2.461,5.601h4.954L102.093,131.833z"/>
		<path fill="none" stroke="#FEA628" stroke-width="0.4932" stroke-miterlimit="10" d="M114.402,137.923
			c-0.237,0.016-0.489,0.031-0.742,0.031h-2.935v3.487h-1.262v-11.044h4.197c2.761,0,4.354,1.356,4.354,3.707
			c0,1.83-0.883,3.062-2.477,3.582l2.588,3.755h-1.436L114.402,137.923z M113.661,136.739c2.004,0,3.14-0.883,3.14-2.603
			c0-1.673-1.136-2.524-3.14-2.524h-2.935v5.127H113.661z"/>
		<path fill="none" stroke="#FEA628" stroke-width="0.4932" stroke-miterlimit="10" d="M121.836,138.648l-1.23,2.793h-1.341
			l4.954-11.044h1.31l4.938,11.044h-1.373l-1.23-2.793H121.836z M124.834,131.833l-2.461,5.601h4.954L124.834,131.833z"/>
		<path fill="none" stroke="#FEA628" stroke-width="0.4932" stroke-miterlimit="10" d="M138.311,140.242v1.199h-6.105v-11.044h1.262
			v9.845H138.311z"/>
		<path fill="none" stroke="#FEA628" stroke-width="0.4932" stroke-miterlimit="10" d="M140.363,141.441v-11.044h1.263v11.044
			H140.363z"/>
		<path fill="none" stroke="#FEA628" stroke-width="0.4932" stroke-miterlimit="10" d="M149.627,130.397
			c2.225,0,3.565,1.025,3.565,2.761c0,1.294-0.741,2.225-2.035,2.493c1.593,0.236,2.524,1.277,2.524,2.792
			c0,1.878-1.483,2.998-3.977,2.998h-4.732v-11.044H149.627z M146.234,135.162h3.329c1.483,0,2.351-0.647,2.351-1.799
			c0-1.12-0.867-1.751-2.351-1.751h-3.329V135.162z M146.234,140.242h3.329c1.799,0,2.84-0.71,2.84-1.972
			c0-1.199-1.041-1.909-2.84-1.909h-3.329V140.242z"/>
		<path fill="none" stroke="#FEA628" stroke-width="0.4932" stroke-miterlimit="10" d="M161.21,137.923
			c-0.237,0.016-0.489,0.031-0.741,0.031h-2.936v3.487h-1.262v-11.044h4.197c2.761,0,4.354,1.356,4.354,3.707
			c0,1.83-0.883,3.062-2.477,3.582l2.588,3.755h-1.436L161.21,137.923z M160.469,136.739c2.004,0,3.139-0.883,3.139-2.603
			c0-1.673-1.135-2.524-3.139-2.524h-2.936v5.127H160.469z"/>
		<path fill="none" stroke="#FEA628" stroke-width="0.4932" stroke-miterlimit="10" d="M178.205,135.919
			c0,3.108-2.557,5.586-5.775,5.586c-3.234,0-5.789-2.478-5.789-5.586c0-3.124,2.555-5.554,5.789-5.554
			C175.648,130.365,178.205,132.812,178.205,135.919z M167.918,135.919c0,2.43,2.051,4.371,4.512,4.371
			c2.462,0,4.481-1.941,4.481-4.371s-2.02-4.354-4.481-4.354C169.969,131.564,167.918,133.489,167.918,135.919z"/>
		<path fill="none" stroke="#FEA628" stroke-width="0.4932" stroke-miterlimit="10" d="M187.297,131.375l-0.537,1.184
			c-0.994-0.663-2.162-0.931-3.045-0.931c-1.42,0-2.352,0.536-2.352,1.467c0,2.84,6.217,1.357,6.201,5.364
			c0,1.847-1.625,3.029-3.992,3.029c-1.609,0-3.187-0.693-4.229-1.688l0.568-1.137c1.025,0.994,2.43,1.562,3.676,1.562
			c1.594,0,2.588-0.646,2.588-1.704c0.016-2.903-6.201-1.356-6.201-5.317c0-1.735,1.531-2.855,3.818-2.855
			C185.071,130.35,186.381,130.76,187.297,131.375z"/>
	</g>
</g>
<g>
	<g>
		<path fill="#FEA628" d="M119.269,12.135c-0.617-0.364-1.624-0.362-2.238,0.006L96.338,24.529
			c-0.614,0.368-1.117,1.255-1.117,1.971l0.001,2.566c0,0.716,0.586,1.302,1.303,1.302h43.351c0.716,0,1.302-0.586,1.302-1.302
			v-2.679c0-0.716-0.504-1.601-1.121-1.965L119.269,12.135z"/>
	</g>
	<path fill="#FEA628" d="M120.66,34.814c0,0.741-0.601,1.342-1.342,1.342h-2.238c-0.738,0-1.342-0.601-1.342-1.342V20.612
		c0-0.741,0.604-1.342,1.342-1.342h2.238c0.741,0,1.342,0.601,1.342,1.342V34.814z"/>
	<path fill="#FEA628" stroke="#FEA628" stroke-width="0.6709" stroke-miterlimit="10" d="M138.998,34.03H97.4
		c-0.74,0-1.341,0.6-1.341,1.341v74.023c0,0.741,0.601,1.342,1.341,1.342h41.598c0.74,0,1.342-0.601,1.342-1.342V35.371
		C140.34,34.63,139.738,34.03,138.998,34.03z M137.543,107.924c0,0.695-0.563,1.258-1.258,1.258h-36.172
		c-0.694,0-1.258-0.562-1.258-1.258V37.972c0-0.695,0.563-1.259,1.258-1.259h36.172c0.694,0,1.258,0.563,1.258,1.259V107.924z"/>
	<path fill="#FEA628" d="M95.523,115.32v1.342c0,0.742,0.51,1.344,1.137,1.344h84.273c0.631,0,1.139-0.602,1.139-1.344v-1.342
		c0-0.738-0.508-1.34-1.139-1.34H96.66C96.033,113.98,95.523,114.582,95.523,115.32z"/>
	<rect x="98.072" y="84.123" fill="#FEA628" width="40.479" height="2.014"/>
	<rect x="98.072" y="58.63" fill="#FEA628" width="40.479" height="2.013"/>
	<rect x="99.414" y="108.275" fill="#FEA628" width="40.479" height="2.014"/>
	<path fill="#FEA628" d="M104.561,46.106h-1.752c-0.208,0-0.375,0.168-0.375,0.376v11.201c0,0.208,0.167,0.375,0.375,0.375h1.752
		c0.208,0,0.375-0.167,0.375-0.375V46.482C104.936,46.274,104.769,46.106,104.561,46.106z M104.593,49.472h-1.815v-0.391h1.815
		V49.472z M104.593,48.595h-1.815v-0.391h1.815V48.595z M104.593,47.719h-1.815v-0.392h1.815V47.719z"/>
	<path fill="#FEA628" d="M110.373,46.106h-1.752c-0.207,0-0.375,0.168-0.375,0.376v11.201c0,0.208,0.168,0.375,0.375,0.375h1.752
		c0.208,0,0.375-0.167,0.375-0.375V46.482C110.748,46.274,110.581,46.106,110.373,46.106z M110.405,49.472h-1.815v-0.391h1.815
		V49.472z M110.405,48.595h-1.815v-0.391h1.815V48.595z M110.405,47.719h-1.815v-0.392h1.815V47.719z"/>
	<path fill="#FEA628" d="M116.187,46.106h-1.753c-0.207,0-0.374,0.168-0.374,0.376v11.201c0,0.208,0.167,0.375,0.374,0.375h1.753
		c0.208,0,0.374-0.167,0.374-0.375V46.482C116.561,46.274,116.395,46.106,116.187,46.106z M116.218,49.472h-1.815v-0.391h1.815
		V49.472z M116.218,48.595h-1.815v-0.391h1.815V48.595z M116.218,47.719h-1.815v-0.392h1.815V47.719z"/>
	<path fill="#FEA628" d="M104.561,71.602h-1.752c-0.208,0-0.375,0.168-0.375,0.377V83.18c0,0.207,0.167,0.375,0.375,0.375h1.752
		c0.208,0,0.375-0.168,0.375-0.375V71.979C104.936,71.77,104.769,71.602,104.561,71.602z M104.593,74.966h-1.815v-0.392h1.815
		V74.966z M104.593,74.091h-1.815v-0.393h1.815V74.091z M104.593,73.214h-1.815V72.82h1.815V73.214z"/>
	<path fill="#FEA628" d="M110.373,71.602h-1.752c-0.207,0-0.375,0.168-0.375,0.377V83.18c0,0.207,0.168,0.375,0.375,0.375h1.752
		c0.208,0,0.375-0.168,0.375-0.375V71.979C110.748,71.77,110.581,71.602,110.373,71.602z M110.405,74.966h-1.815v-0.392h1.815
		V74.966z M110.405,74.091h-1.815v-0.393h1.815V74.091z M110.405,73.214h-1.815V72.82h1.815V73.214z"/>
	<path fill="#FEA628" d="M116.187,71.602h-1.753c-0.207,0-0.374,0.168-0.374,0.377V83.18c0,0.207,0.167,0.375,0.374,0.375h1.753
		c0.208,0,0.374-0.168,0.374-0.375V71.979C116.561,71.77,116.395,71.602,116.187,71.602z M116.218,74.966h-1.815v-0.392h1.815
		V74.966z M116.218,74.091h-1.815v-0.393h1.815V74.091z M116.218,73.214h-1.815V72.82h1.815V73.214z"/>
	<path fill="#FEA628" d="M122.004,71.602h-1.752c-0.207,0-0.375,0.168-0.375,0.377V83.18c0,0.207,0.168,0.375,0.375,0.375h1.752
		c0.207,0,0.376-0.168,0.376-0.375V71.979C122.38,71.77,122.211,71.602,122.004,71.602z M122.035,74.966h-1.814v-0.392h1.814V74.966
		z M122.035,74.091h-1.814v-0.393h1.814V74.091z M122.035,73.214h-1.814V72.82h1.814V73.214z"/>
	<path fill="#FEA628" d="M127.818,71.602h-1.754c-0.207,0-0.375,0.168-0.375,0.377V83.18c0,0.207,0.168,0.375,0.375,0.375h1.754
		c0.206,0,0.374-0.168,0.374-0.375V71.979C128.192,71.77,128.024,71.602,127.818,71.602z M127.849,74.966h-1.815v-0.392h1.815
		V74.966z M127.849,74.091h-1.815v-0.393h1.815V74.091z M127.849,73.214h-1.815V72.82h1.815V73.214z"/>
	<path fill="#FEA628" d="M133.63,71.602h-1.753c-0.206,0-0.375,0.168-0.375,0.377V83.18c0,0.207,0.169,0.375,0.375,0.375h1.753
		c0.207,0,0.376-0.168,0.376-0.375V71.979C134.006,71.77,133.837,71.602,133.63,71.602z M133.661,74.966h-1.814v-0.392h1.814V74.966
		z M133.661,74.091h-1.814v-0.393h1.814V74.091z M133.661,73.214h-1.814V72.82h1.814V73.214z"/>
	<path fill="#FEA628" d="M114.133,95.451v-1.752c0-0.207-0.168-0.375-0.378-0.375h-11.2c-0.208,0-0.377,0.168-0.377,0.375v1.752
		c0,0.209,0.169,0.377,0.377,0.377h11.2C113.965,95.828,114.133,95.66,114.133,95.451z M110.768,95.484v-1.816h0.391v1.816H110.768z
		 M111.643,95.484v-1.816h0.393v1.816H111.643z M112.521,95.484v-1.816h0.391v1.816H112.521z"/>
	<path fill="#FEA628" d="M114.133,101.266v-1.754c0-0.207-0.168-0.375-0.378-0.375h-11.2c-0.208,0-0.377,0.168-0.377,0.375v1.754
		c0,0.207,0.169,0.375,0.377,0.375h11.2C113.965,101.641,114.133,101.473,114.133,101.266z M110.768,101.295V99.48h0.391v1.813
		L110.768,101.295L110.768,101.295z M111.643,101.295V99.48h0.393v1.813L111.643,101.295L111.643,101.295z M112.521,101.295V99.48
		h0.391v1.813L112.521,101.295L112.521,101.295z"/>
	<path fill="#FEA628" d="M114.133,107.076v-1.752c0-0.207-0.168-0.375-0.378-0.375h-11.2c-0.208,0-0.377,0.168-0.377,0.375v1.752
		c0,0.209,0.169,0.377,0.377,0.377h11.2C113.965,107.453,114.133,107.285,114.133,107.076z M110.768,107.109v-1.816h0.391v1.816
		H110.768z M111.643,107.109v-1.816h0.393v1.816H111.643z M112.521,107.109v-1.816h0.391v1.816H112.521z"/>
	<path fill="#FEA628" d="M121.615,46.271l-1.691,0.452c-0.201,0.053-0.321,0.259-0.268,0.458l2.893,10.823
		c0.051,0.2,0.258,0.318,0.459,0.266l1.692-0.452c0.2-0.053,0.32-0.261,0.265-0.459l-2.889-10.822
		C122.021,46.337,121.816,46.217,121.615,46.271z M122.513,49.514l-1.753,0.467l-0.1-0.378l1.752-0.468L122.513,49.514z
		 M122.288,48.667l-1.753,0.467l-0.103-0.379l1.753-0.467L122.288,48.667z M122.062,47.82l-1.754,0.468l-0.102-0.378l1.752-0.469
		L122.062,47.82z"/>
	<path fill="#FEA628" d="M118.934,95.918l-1.693,0.451c-0.201,0.055-0.32,0.26-0.268,0.459l2.892,10.824
		c0.052,0.201,0.259,0.317,0.46,0.266l1.693-0.453c0.199-0.053,0.319-0.26,0.264-0.457l-2.889-10.824
		C119.337,95.982,119.133,95.863,118.934,95.918z M119.829,99.16l-1.752,0.469l-0.1-0.379l1.751-0.469L119.829,99.16z
		 M119.604,98.312l-1.752,0.469l-0.104-0.379l1.754-0.467L119.604,98.312z M119.378,97.467l-1.752,0.469l-0.103-0.379l1.754-0.467
		L119.378,97.467z"/>
	<path fill="#FEA628" d="M154.083,60.639c0,3.022-2.454,5.475-5.478,5.475s-5.478-2.452-5.478-5.475
		c0-3.026,2.453-5.479,5.478-5.479C151.629,55.16,154.083,57.612,154.083,60.639z"/>
	<g>
		<path fill="#FEA628" d="M144.286,103.326c-0.571,0.248-1.138,0.475-1.536,0.332l0.01,3.713c-0.033,1.068,0.891,1.965,1.961,1.996
			c1.069,0.033,1.926-0.809,1.959-1.879l0.006-5.361C146.686,102.127,144.857,103.078,144.286,103.326z"/>
		<path fill="#FEA628" d="M146.686,96.006l-0.006-2.797l-0.904-2.096c0.031-0.359,0.064-0.639,0.101-0.881
			c-0.308-0.23-0.685-0.373-1.101-0.388c-1.067-0.032-1.229,0.091-2.016,1.675l0.006,6.108
			C142.795,97.617,146.686,96.006,146.686,96.006z"/>
	</g>
	<path fill="#FEA628" d="M152.479,96.887l-2.955-6.881c-0.355-1.01-1.463-1.539-2.476-1.184c-1.008,0.357-1.11,0.529-1.272,2.291
		l2.31,5.354l-6.11,2.611c-1.014,0.346-1.553,1.446-1.207,2.461c0.347,1.015,1.449,1.556,2.463,1.207l7.902-3.349
		c0.053-0.016,0.108-0.021,0.163-0.041C152.303,99.004,152.834,97.898,152.479,96.887z"/>
	<path fill="#FEA628" d="M164.335,66.589l-1.339,0.766l4.951,2.501h-6.992l-1.46,4.565c0.78,0.251,2.182,0.643,2.166,2.654
		c-0.017,2.126-1.685,2.756-2.757,2.756l-0.434,0.001l-0.783,2.064h9.797l3.258-12.008l0.062-0.033L164.335,66.589z"/>
	<path fill="#FEA628" d="M158.904,75.135h-6.43c-0.029,0-0.058,0.009-0.086,0.01l-0.016-4.134c0-0.535-2.27-4.217-5.402-4.015
		c-3.699,0.242-4.938,3.479-4.938,4.015v20.233c0,0.535,0.772,0.969,1.725,0.969h6.894c0.953,0,1.725-0.434,1.725-0.969V80.04
		c-0.414-0.021-0.958-0.072-1.354-0.185c-0.713-0.205-3.775-4.186-4.387-4.898c-0.613-0.714-0.941-2.52,1.701,0.638
		c2.707,3.229,4.053,3.444,4.053,3.444c0.006,0-0.019-0.18-0.019-0.18l0.03,0.18l6.473-0.204c1.07,0,1.973-0.688,1.973-1.76
		S159.977,75.135,158.904,75.135z"/>
	<g>
		<path fill="#FEA628" d="M119.208,5.706c-0.615-0.35-1.611-0.333-2.214,0.037L94.026,19.819c-0.603,0.37-1.096,1.25-1.096,1.958
			v1.452c0,0.707,0.169,1.182,0.377,1.054s0.377-0.578,0.377-1c0-0.422,0.498-1.064,1.105-1.425l22.361-13.28
			c0.608-0.361,1.602-0.359,2.209,0.003l22.03,13.162c0.605,0.362,1.104,1.014,1.104,1.447s0.507,1.068,1.125,1.41l28.695,15.854
			c0.619,0.342,1.129,1.2,1.131,1.907l0.016,3.07c0.003,0.707,0.584,1.286,1.291,1.286h0.543c0.707,0,1.285-0.579,1.285-1.286v-5.83
			c0-0.707-0.503-1.571-1.117-1.921L119.208,5.706z"/>
		<path fill="none" stroke="#FEA628" stroke-width="0.6709" stroke-miterlimit="10" d="M119.208,5.706
			c-0.615-0.35-1.611-0.333-2.214,0.037L94.026,19.819c-0.603,0.37-1.096,1.25-1.096,1.958v1.452c0,0.707,0.169,1.182,0.377,1.054
			s0.377-0.578,0.377-1c0-0.422,0.498-1.064,1.105-1.425l22.361-13.28c0.608-0.361,1.602-0.359,2.209,0.003l22.03,13.162
			c0.605,0.362,1.104,1.014,1.104,1.447s0.507,1.068,1.125,1.41l28.695,15.854c0.619,0.342,1.129,1.2,1.131,1.907l0.016,3.07
			c0.003,0.707,0.584,1.286,1.291,1.286h0.543c0.707,0,1.285-0.579,1.285-1.286v-5.83c0-0.707-0.503-1.571-1.117-1.921
			L119.208,5.706z"/>
	</g>
</g>
</svg>
