<?xml version="1.0" encoding="utf-8"?>
<!-- Generator: Adobe Illustrator 16.0.0, SVG Export Plug-In . SVG Version: 6.00 Build 0)  -->
<!DOCTYPE svg PUBLIC "-//W3C//DTD SVG 1.1//EN" "http://www.w3.org/Graphics/SVG/1.1/DTD/svg11.dtd">
<svg version="1.1" id="Layer_1" xmlns="http://www.w3.org/2000/svg" xmlns:xlink="http://www.w3.org/1999/xlink" x="0px" y="0px"
	 width="375px" height="227px" viewBox="0 0 375 227" enable-background="new 0 0 375 227" xml:space="preserve">
<rect x="0.5" y="0.5" fill="#FFFFFF" stroke="#DEDDDD" stroke-width="0.9965" stroke-miterlimit="10" width="374" height="226"/>
<g>
	<g>
		<path fill="#3DB29C" stroke="#3DB29C" stroke-width="0.7564" stroke-miterlimit="10" d="M135.912,177.065
			c2.821,0,4.521,1.3,4.521,3.501c0,1.64-0.94,2.82-2.581,3.16c2.021,0.301,3.201,1.62,3.201,3.541c0,2.381-1.88,3.801-5.041,3.801
			h-6.001v-14.003H135.912z M131.611,183.106h4.221c1.88,0,2.98-0.82,2.98-2.28c0-1.42-1.1-2.221-2.98-2.221h-4.221V183.106z
			 M131.611,189.548h4.221c2.28,0,3.601-0.9,3.601-2.5c0-1.521-1.32-2.421-3.601-2.421h-4.221V189.548z"/>
		<path fill="#3DB29C" stroke="#3DB29C" stroke-width="0.7564" stroke-miterlimit="10" d="M144.331,191.068v-14.003h1.6v14.003
			H144.331z"/>
		<path fill="#3DB29C" stroke="#3DB29C" stroke-width="0.7564" stroke-miterlimit="10" d="M156.072,177.065
			c2.821,0,4.521,1.3,4.521,3.501c0,1.64-0.94,2.82-2.581,3.16c2.021,0.301,3.201,1.62,3.201,3.541c0,2.381-1.88,3.801-5.041,3.801
			h-6.001v-14.003H156.072z M151.771,183.106h4.221c1.88,0,2.98-0.82,2.98-2.28c0-1.42-1.1-2.221-2.98-2.221h-4.221V183.106z
			 M151.771,189.548h4.221c2.28,0,3.601-0.9,3.601-2.5c0-1.521-1.32-2.421-3.601-2.421h-4.221V189.548z"/>
		<path fill="#3DB29C" stroke="#3DB29C" stroke-width="0.7564" stroke-miterlimit="10" d="M172.232,189.548v1.521h-7.742v-14.003
			h1.6v12.482H172.232z"/>
		<path fill="#3DB29C" stroke="#3DB29C" stroke-width="0.7564" stroke-miterlimit="10" d="M174.831,191.068v-14.003h1.6v14.003
			H174.831z"/>
		<path fill="#3DB29C" stroke="#3DB29C" stroke-width="0.7564" stroke-miterlimit="10" d="M194.013,184.066
			c0,3.941-3.24,7.082-7.321,7.082c-4.101,0-7.341-3.141-7.341-7.082c0-3.96,3.241-7.041,7.341-7.041
			C190.772,177.025,194.013,180.126,194.013,184.066z M180.971,184.066c0,3.081,2.601,5.542,5.721,5.542
			c3.121,0,5.682-2.461,5.682-5.542c0-3.08-2.561-5.521-5.682-5.521C183.571,178.546,180.971,180.986,180.971,184.066z"/>
		<path fill="#3DB29C" stroke="#3DB29C" stroke-width="0.7564" stroke-miterlimit="10" d="M201.012,178.605v12.463h-1.601v-12.463
			h-4.562v-1.54h10.742v1.54H201.012z"/>
		<path fill="#3DB29C" stroke="#3DB29C" stroke-width="0.7564" stroke-miterlimit="10" d="M209.511,178.605v4.602h7.062v1.54h-7.062
			v4.801h8.162v1.521h-9.763v-14.003h9.502v1.54H209.511z"/>
		<path fill="#3DB29C" stroke="#3DB29C" stroke-width="0.7564" stroke-miterlimit="10" d="M232.032,179.065l-0.96,1.221
			c-1.08-1.101-2.601-1.761-4.141-1.761c-3.161,0-5.701,2.44-5.701,5.521c0,3.061,2.54,5.521,5.701,5.521
			c1.54,0,3.04-0.641,4.141-1.681l0.98,1.101c-1.381,1.3-3.261,2.16-5.201,2.16c-4.041,0-7.242-3.141-7.242-7.102
			c0-3.921,3.241-7.021,7.302-7.021C228.832,177.025,230.692,177.806,232.032,179.065z"/>
		<path fill="#3DB29C" stroke="#3DB29C" stroke-width="0.7564" stroke-miterlimit="10" d="M236.091,187.527l-1.561,3.541h-1.7
			l6.281-14.003h1.66l6.262,14.003h-1.74l-1.561-3.541H236.091z M239.892,178.886l-3.121,7.102h6.281L239.892,178.886z"/>
	</g>
</g>
<g>
	<path fill="none" stroke="#3DB29C" stroke-width="3.0255" stroke-miterlimit="10" d="M237.726,156.008
		c0,2.352-1.905,4.258-4.257,4.258h-91.973c-2.352,0-4.258-1.906-4.258-4.258V34.515c0-2.351,1.906-4.258,4.258-4.258h91.973
		c2.352,0,4.257,1.907,4.257,4.258V156.008z"/>
	<rect x="137.699" y="64.214" fill="#3DB29C" width="100.062" height="2.555"/>
	<rect x="174.531" y="29.512" fill="#3DB29C" width="2.554" height="35.767"/>
	<rect x="200.077" y="134.896" fill="#3DB29C" width="2.556" height="26.612"/>
	<rect x="137.699" y="99.129" fill="#3DB29C" width="100.062" height="2.555"/>
	<rect x="137.699" y="134.044" fill="#3DB29C" width="100.062" height="2.556"/>
	<path fill="#3DB29C" d="M153.304,163.956c-0.216-2.148-0.306-3.832-2.511-3.832h-5.961c-2.207,0-2.296,1.684-2.512,3.832H153.304z"
		/>
	<path fill="#3DB29C" d="M233.354,163.956c-0.216-2.148-0.307-3.832-2.512-3.832h-5.961c-2.207,0-2.296,1.684-2.512,3.832H233.354z"
		/>
	<path fill="#3DB29C" d="M181.853,42.719h-3.079c-0.364,0-0.66,0.296-0.66,0.66v19.686c0,0.365,0.296,0.66,0.66,0.66h3.079
		c0.366,0,0.66-0.295,0.66-0.66V43.379C182.513,43.015,182.219,42.719,181.853,42.719z M181.908,47.09h-3.189v-0.687h3.189V47.09z
		 M181.908,45.551h-3.189v-0.688h3.189V45.551z"/>
	<path fill="#3DB29C" d="M187.762,42.75h-3.079c-0.364,0-0.66,0.296-0.66,0.66v19.687c0,0.365,0.296,0.66,0.66,0.66h3.079
		c0.364,0,0.66-0.295,0.66-0.66V43.41C188.422,43.046,188.126,42.75,187.762,42.75z M187.816,47.122h-3.189v-0.687h3.189V47.122z
		 M187.816,45.582h-3.189v-0.688h3.189V45.582z"/>
	<path fill="#3DB29C" d="M193.671,42.812h-3.079c-0.365,0-0.66,0.296-0.66,0.66v19.686c0,0.365,0.295,0.661,0.66,0.661h3.079
		c0.364,0,0.66-0.296,0.66-0.661V43.473C194.331,43.108,194.035,42.812,193.671,42.812z M193.726,47.184h-3.188v-0.687h3.188V47.184
		z M193.726,45.645h-3.188v-0.688h3.188V45.645z"/>
	<path fill="#3DB29C" d="M140.221,53.542v3.08c0,0.364,0.296,0.66,0.661,0.66h19.686c0.365,0,0.66-0.296,0.66-0.66v-3.08
		c0-0.364-0.295-0.659-0.66-0.659h-19.686C140.517,52.884,140.221,53.178,140.221,53.542z M143.053,53.488v3.189h-0.687v-3.189
		H143.053z"/>
	<path fill="#3DB29C" d="M187.353,94.707v3.079c0,0.365,0.295,0.661,0.66,0.661h19.687c0.364,0,0.66-0.295,0.66-0.661v-3.079
		c0-0.365-0.296-0.66-0.66-0.66h-19.687C187.647,94.046,187.353,94.342,187.353,94.707z M193.265,94.651v3.188h-0.688v-3.188
		H193.265z M191.725,94.651v3.188h-0.688v-3.188H191.725z M190.185,94.651v3.188h-0.688v-3.188H190.185z"/>
	<path fill="#3DB29C" d="M149.74,77.351h-3.08c-0.363,0-0.66,0.294-0.66,0.66v19.687c0,0.364,0.297,0.659,0.66,0.659h3.08
		c0.364,0,0.659-0.295,0.659-0.659V78.011C150.399,77.646,150.104,77.351,149.74,77.351z M149.795,81.722h-3.189v-0.688h3.189
		V81.722z M149.795,80.182h-3.189v-0.687h3.189V80.182z"/>
	<path fill="#3DB29C" d="M155.239,77.351h-3.08c-0.363,0-0.66,0.294-0.66,0.66v19.687c0,0.364,0.297,0.659,0.66,0.659h3.08
		c0.364,0,0.66-0.295,0.66-0.659V78.011C155.899,77.646,155.604,77.351,155.239,77.351z M155.294,81.722h-3.189v-0.688h3.189V81.722
		z M155.294,80.182h-3.189v-0.687h3.189V80.182z"/>
	<path fill="#3DB29C" d="M145.306,143.333h-2.526c-0.364,0-0.658,0.295-0.658,0.66v13.726c0,0.363,0.294,0.659,0.658,0.659
		l2.526,0.016c0.365,0,0.66-0.296,0.66-0.66v-13.725C145.966,143.644,145.671,143.333,145.306,143.333z M145.36,146.18l-2.635-0.016
		v-0.687l2.635,0.016V146.18z"/>
	<path fill="#3DB29C" d="M169.95,143.333h-2.526c-0.365,0-0.659,0.295-0.659,0.66v13.726c0,0.363,0.294,0.659,0.659,0.659
		l2.526,0.016c0.364,0,0.66-0.296,0.66-0.66v-13.725C170.61,143.644,170.314,143.333,169.95,143.333z M170.005,146.18l-2.636-0.016
		v-0.687l2.636,0.016V146.18z"/>
	<path fill="#3DB29C" d="M172.576,130.09v2.587c0,0.307,0.296,0.555,0.661,0.555h13.725c0.365,0,0.661-0.248,0.661-0.555v-2.587
		c0-0.307-0.296-0.555-0.661-0.555h-13.725C172.872,129.535,172.576,129.783,172.576,130.09z M176.949,130.044v2.679h-0.688v-2.679
		H176.949z M175.408,130.044v2.679h-0.687v-2.679H175.408z"/>
	<path fill="#3DB29C" d="M172.576,125.468v2.588c0,0.307,0.296,0.556,0.661,0.556h13.725c0.365,0,0.661-0.249,0.661-0.556v-2.588
		c0-0.307-0.296-0.554-0.661-0.554h-13.725C172.872,124.914,172.576,125.161,172.576,125.468z M176.949,125.422v2.68h-0.688v-2.68
		H176.949z M175.408,125.422v2.68h-0.687v-2.68H175.408z"/>
	<path fill="#3DB29C" d="M172.576,120.847v2.588c0,0.307,0.296,0.555,0.661,0.555h13.725c0.365,0,0.661-0.248,0.661-0.555v-2.588
		c0-0.307-0.296-0.555-0.661-0.555h-13.725C172.872,120.292,172.576,120.54,172.576,120.847z M176.949,120.801v2.681h-0.688v-2.681
		H176.949z M175.408,120.801v2.681h-0.687v-2.681H175.408z"/>
	<path fill="#3DB29C" d="M214.475,154.192v3.078c0,0.365,0.296,0.66,0.661,0.66h16.66c0.365,0,0.66-0.295,0.66-0.66v-3.078
		c0-0.365-0.295-0.661-0.66-0.661h-16.66C214.771,153.531,214.475,153.827,214.475,154.192z M217.307,154.138v3.188h-0.687v-3.188
		H217.307z"/>
	<path fill="#3DB29C" d="M214.475,148.692v3.079c0,0.365,0.296,0.66,0.661,0.66h16.66c0.365,0,0.66-0.295,0.66-0.66v-3.079
		c0-0.364-0.295-0.66-0.66-0.66h-16.66C214.771,148.032,214.475,148.328,214.475,148.692z M217.307,148.638v3.189h-0.687v-3.189
		H217.307z"/>
	<path fill="#3DB29C" d="M152.543,112.266h-3.078c-0.365,0-0.661,0.295-0.661,0.66v19.687c0,0.364,0.296,0.659,0.661,0.659h3.078
		c0.366,0,0.66-0.295,0.66-0.659v-19.687C153.203,112.561,152.909,112.266,152.543,112.266z M152.6,116.638h-3.189v-0.688h3.189
		V116.638z M152.6,115.098h-3.189v-0.688h3.189V115.098z"/>
	<path fill="#3DB29C" d="M158.516,112.266h-3.078c-0.365,0-0.661,0.295-0.661,0.66v19.687c0,0.364,0.296,0.659,0.661,0.659h3.078
		c0.365,0,0.66-0.295,0.66-0.659v-19.687C159.176,112.561,158.881,112.266,158.516,112.266z M158.57,116.638h-3.188v-0.688h3.188
		V116.638z M158.57,115.098h-3.188v-0.688h3.188V115.098z"/>
	<path fill="#3DB29C" d="M175.903,138.197h-3.078c-0.365,0-0.661,0.296-0.661,0.661v18.834c0,0.364,0.296,0.659,0.661,0.659h3.078
		c0.365,0,0.66-0.295,0.66-0.659v-18.834C176.563,138.493,176.269,138.197,175.903,138.197z M175.958,142.569h-3.189v-0.688h3.189
		V142.569z M175.958,141.029h-3.189v-0.687h3.189V141.029z"/>
	<path fill="#3DB29C" d="M181.827,138.197h-3.078c-0.365,0-0.661,0.296-0.661,0.661v18.834c0,0.364,0.296,0.659,0.661,0.659h3.078
		c0.365,0,0.66-0.295,0.66-0.659v-18.834C182.487,138.493,182.192,138.197,181.827,138.197z M181.882,142.569h-3.188v-0.688h3.188
		V142.569z M181.882,141.029h-3.188v-0.687h3.188V141.029z"/>
	<path fill="#3DB29C" d="M187.768,138.34h-3.079c-0.366,0-0.661,0.295-0.661,0.66v18.834c0,0.364,0.295,0.66,0.661,0.66h3.079
		c0.364,0,0.658-0.296,0.658-0.66V139C188.426,138.635,188.132,138.34,187.768,138.34z M187.822,142.711h-3.189v-0.688h3.189
		V142.711z M187.822,141.171h-3.189v-0.687h3.189V141.171z"/>
	<path fill="#3DB29C" d="M173.186,77.414h-3.079c-0.364,0-0.662,0.295-0.662,0.66V97.76c0,0.364,0.298,0.659,0.662,0.659h3.079
		c0.364,0,0.66-0.294,0.66-0.659V78.073C173.846,77.708,173.55,77.414,173.186,77.414z M173.24,80.245h-3.189v-0.687h3.189V80.245z"
		/>
	<path fill="#3DB29C" d="M179.236,77.414h-3.079c-0.364,0-0.661,0.295-0.661,0.66V97.76c0,0.364,0.297,0.659,0.661,0.659h3.079
		c0.364,0,0.66-0.294,0.66-0.659V78.073C179.896,77.708,179.601,77.414,179.236,77.414z M179.291,80.245h-3.189v-0.687h3.189V80.245
		z"/>
	<path fill="#3DB29C" d="M185.128,77.493h-3.08c-0.364,0-0.659,0.295-0.659,0.66v19.687c0,0.364,0.295,0.659,0.659,0.659h3.08
		c0.364,0,0.66-0.294,0.66-0.659V78.152C185.788,77.788,185.492,77.493,185.128,77.493z M185.183,83.403h-3.189v-0.687h3.189V83.403
		z M185.183,81.864h-3.189v-0.688h3.189V81.864z M185.183,80.324h-3.189v-0.687h3.189V80.324z"/>
	<path fill="#3DB29C" d="M211.24,77.58l-2.975,0.805c-0.352,0.095-0.56,0.457-0.465,0.81l5.146,19.001
		c0.097,0.352,0.458,0.56,0.81,0.464l2.974-0.804c0.351-0.095,0.561-0.458,0.464-0.81l-5.146-19.001
		C211.953,77.692,211.59,77.485,211.24,77.58z M212.031,80.299l-3.078,0.834l-0.181-0.663l3.079-0.834L212.031,80.299z"/>
	<g>
		<path fill="#3DB29C" d="M160.599,58.792H143.3v4.399h17.299c0.365,0,0.66-0.295,0.66-0.661v-3.079
			C161.259,59.087,160.964,58.792,160.599,58.792z"/>
		<path fill="#3DB29C" d="M142.401,58.792h-1.489c-0.364,0-0.66,0.295-0.66,0.66v3.079c0,0.365,0.296,0.661,0.66,0.661h1.489V58.792
			z"/>
	</g>
	<g>
		<path fill="#3DB29C" d="M207.619,88.038H190.32v4.399h17.299c0.364,0,0.66-0.295,0.66-0.66v-3.079
			C208.279,88.334,207.983,88.038,207.619,88.038z"/>
		<path fill="#3DB29C" d="M189.422,88.038h-1.489c-0.364,0-0.66,0.296-0.66,0.661v3.079c0,0.365,0.296,0.66,0.66,0.66h1.489V88.038z
			"/>
	</g>
	<g>
		<path fill="#3DB29C" d="M207.492,82.114h-17.299v4.399h17.299c0.364,0,0.66-0.295,0.66-0.661v-3.079
			C208.152,82.409,207.856,82.114,207.492,82.114z"/>
		<path fill="#3DB29C" d="M189.295,82.114h-1.489c-0.365,0-0.66,0.295-0.66,0.66v3.079c0,0.365,0.295,0.661,0.66,0.661h1.489V82.114
			z"/>
	</g>
	<g>
		<path fill="#3DB29C" d="M160.584,46.958h-17.299v4.399h17.299c0.365,0,0.66-0.295,0.66-0.661v-3.079
			C161.244,47.253,160.949,46.958,160.584,46.958z"/>
		<path fill="#3DB29C" d="M142.387,46.958h-1.489c-0.364,0-0.66,0.295-0.66,0.66v3.079c0,0.365,0.296,0.661,0.66,0.661h1.489V46.958
			z"/>
	</g>
	<g>
		<path fill="#3DB29C" d="M204.537,61.961l-5.054-16.544l-4.207,1.285l5.054,16.544c0.106,0.349,0.476,0.545,0.824,0.439l2.944-0.9
			C204.447,62.68,204.644,62.311,204.537,61.961z"/>
		<path fill="#3DB29C" d="M199.222,44.559l-0.436-1.423c-0.106-0.35-0.477-0.546-0.824-0.439l-2.944,0.899
			c-0.35,0.106-0.545,0.475-0.44,0.824l0.438,1.424L199.222,44.559z"/>
	</g>
	<g>
		<path fill="#3DB29C" d="M140.502,79.729v18.005c0,0.346,0.295,0.626,0.66,0.626h3.079c0.364,0,0.66-0.28,0.66-0.626V79.729
			H140.502z"/>
		<path fill="#3DB29C" d="M144.901,78.979v-1.38c0-0.346-0.296-0.626-0.66-0.626h-3.079c-0.365,0-0.66,0.28-0.66,0.626v1.38H144.901
			z"/>
	</g>
	<g>
		<path fill="#3DB29C" d="M160.734,114.711v18.005c0,0.346,0.296,0.625,0.66,0.625h3.079c0.365,0,0.66-0.279,0.66-0.625v-18.005
			H160.734z"/>
		<path fill="#3DB29C" d="M165.134,113.961v-1.38c0-0.347-0.295-0.626-0.66-0.626h-3.079c-0.364,0-0.66,0.28-0.66,0.626v1.38
			H165.134z"/>
	</g>
	<g>
		<path fill="#3DB29C" d="M166.69,114.711v18.005c0,0.346,0.296,0.625,0.661,0.625h3.078c0.365,0,0.661-0.279,0.661-0.625v-18.005
			H166.69z"/>
		<path fill="#3DB29C" d="M171.091,113.961v-1.38c0-0.347-0.296-0.626-0.661-0.626h-3.078c-0.365,0-0.661,0.28-0.661,0.626v1.38
			H171.091z"/>
	</g>
	<g>
		<path fill="#3DB29C" d="M143.001,114.369l-3.567,17.648c-0.067,0.338,0.166,0.671,0.523,0.744l3.018,0.609
			c0.357,0.072,0.703-0.143,0.771-0.482l3.567-17.647L143.001,114.369z"/>
		<path fill="#3DB29C" d="M147.463,114.506l0.273-1.353c0.067-0.339-0.166-0.672-0.523-0.745l-3.018-0.61
			c-0.357-0.072-0.703,0.143-0.771,0.483l-0.273,1.353L147.463,114.506z"/>
	</g>
	<g>
		<path fill="#3DB29C" d="M157.456,79.788v18.006c0,0.346,0.296,0.625,0.661,0.625h3.078c0.365,0,0.66-0.28,0.66-0.625V79.788
			H157.456z"/>
		<path fill="#3DB29C" d="M161.855,79.04v-1.38c0-0.347-0.295-0.626-0.66-0.626h-3.078c-0.365,0-0.661,0.28-0.661,0.626v1.38
			H161.855z"/>
	</g>
	<g>
		<path fill="#3DB29C" d="M163.508,79.788v18.006c0,0.346,0.295,0.625,0.66,0.625h3.078c0.365,0,0.661-0.28,0.661-0.625V79.788
			H163.508z"/>
		<path fill="#3DB29C" d="M167.907,79.04v-1.38c0-0.347-0.296-0.626-0.661-0.626h-3.078c-0.365,0-0.66,0.28-0.66,0.626v1.38H167.907
			z"/>
	</g>
	<g>
		<path fill="#3DB29C" d="M147.46,145.612v12.167c0,0.364,0.295,0.66,0.66,0.66h1.975c0.365,0,0.661-0.342,0.661-0.706v-12.121
			H147.46z"/>
		<path fill="#3DB29C" d="M150.756,144.856v-0.848c0-0.365-0.296-0.615-0.661-0.615h-1.975c-0.365,0-0.66,0.296-0.66,0.661v0.802
			H150.756z"/>
	</g>
	<g>
		<path fill="#3DB29C" d="M152.281,145.581v12.167c0,0.364,0.296,0.659,0.661,0.659h1.975c0.365,0,0.66-0.341,0.66-0.705v-12.121
			H152.281z"/>
		<path fill="#3DB29C" d="M155.577,144.824v-0.848c0-0.365-0.295-0.614-0.66-0.614h-1.975c-0.365,0-0.661,0.295-0.661,0.66v0.802
			H155.577z"/>
	</g>
	<g>
		<path fill="#3DB29C" d="M210.852,145.139l-1.867,12.021c-0.057,0.361,0.19,0.697,0.551,0.755l1.951,0.303
			c0.362,0.056,0.705-0.235,0.763-0.596l1.861-11.977L210.852,145.139z"/>
		<path fill="#3DB29C" d="M214.226,144.897l0.13-0.837c0.056-0.361-0.196-0.653-0.559-0.71l-1.951-0.303
			c-0.36-0.057-0.697,0.19-0.754,0.552l-0.124,0.791L214.226,144.897z"/>
	</g>
	<g>
		<path fill="#3DB29C" d="M206.313,145.139l-1.868,12.021c-0.056,0.361,0.191,0.697,0.552,0.755l1.951,0.303
			c0.362,0.056,0.705-0.235,0.763-0.596l1.861-11.977L206.313,145.139z"/>
		<path fill="#3DB29C" d="M209.688,144.897l0.13-0.837c0.056-0.361-0.196-0.653-0.559-0.71l-1.951-0.303
			c-0.36-0.057-0.697,0.19-0.754,0.552l-0.124,0.791L209.688,144.897z"/>
	</g>
	<g>
		<path fill="#3DB29C" d="M157.104,145.581v12.167c0,0.364,0.295,0.659,0.66,0.659h1.976c0.364,0,0.66-0.341,0.66-0.705v-12.121
			H157.104z"/>
		<path fill="#3DB29C" d="M160.399,144.824v-0.848c0-0.365-0.296-0.614-0.66-0.614h-1.976c-0.365,0-0.66,0.295-0.66,0.66v0.802
			H160.399z"/>
	</g>
	<g>
		<path fill="#3DB29C" d="M161.987,145.581v12.167c0,0.364,0.295,0.659,0.66,0.659h1.976c0.364,0,0.66-0.341,0.66-0.705v-12.121
			H161.987z"/>
		<path fill="#3DB29C" d="M165.283,144.824v-0.848c0-0.365-0.296-0.614-0.66-0.614h-1.976c-0.365,0-0.66,0.295-0.66,0.66v0.802
			H165.283z"/>
	</g>
</g>
</svg>
