<?xml version="1.0" encoding="utf-8"?>
<!-- Generator: Adobe Illustrator 16.0.0, SVG Export Plug-In . SVG Version: 6.00 Build 0)  -->
<!DOCTYPE svg PUBLIC "-//W3C//DTD SVG 1.1//EN" "http://www.w3.org/Graphics/SVG/1.1/DTD/svg11.dtd">
<svg version="1.1" id="Layer_1" xmlns="http://www.w3.org/2000/svg" xmlns:xlink="http://www.w3.org/1999/xlink" x="0px" y="0px"
	 width="375px" height="227px" viewBox="0 0 375 227" enable-background="new 0 0 375 227" xml:space="preserve">
<rect x="0.5" y="0.5" fill="#FFFFFF" stroke="#DEDDDD" stroke-width="0.9965" stroke-miterlimit="10" width="374" height="226"/>
<g>
	<circle fill="#76AA1A" cx="244.989" cy="61.949" r="11.911"/>
	<g>
		<path fill="#76AA1A" d="M101.877,36.173v-1.568c0-0.517-0.419-0.936-0.936-0.936h-2.904c-0.518,0-0.937,0.419-0.937,0.936v1.568
			H101.877z"/>
		<path fill="#76AA1A" d="M97.101,36.89v14.948c0,0.517,0.419,0.936,0.937,0.936h2.904c0.517,0,0.936-0.419,0.936-0.936V36.89
			H97.101z"/>
	</g>
	<g>
		<path fill="#76AA1A" d="M109.996,36.173v-1.568c0-0.517-0.42-0.936-0.937-0.936h-2.903c-0.517,0-0.937,0.419-0.937,0.936v1.568
			H109.996z"/>
		<path fill="#76AA1A" d="M105.22,36.89v14.948c0,0.517,0.42,0.936,0.937,0.936h2.903c0.517,0,0.937-0.419,0.937-0.936V36.89H105.22
			z"/>
	</g>
	<g>
		<path fill="#76AA1A" d="M135.623,61.006v-1.569c0-0.517-0.419-0.936-0.936-0.936h-2.903c-0.518,0-0.937,0.419-0.937,0.936v1.569
			H135.623z"/>
		<path fill="#76AA1A" d="M130.848,61.722v14.948c0,0.518,0.419,0.937,0.937,0.937h2.903c0.517,0,0.936-0.419,0.936-0.937V61.722
			H130.848z"/>
	</g>
	<g>
		<path fill="#76AA1A" d="M142.469,61.006v-1.569c0-0.517-0.42-0.936-0.937-0.936h-2.903c-0.518,0-0.937,0.419-0.937,0.936v1.569
			H142.469z"/>
		<path fill="#76AA1A" d="M137.692,61.722v14.948c0,0.518,0.419,0.937,0.937,0.937h2.903c0.517,0,0.937-0.419,0.937-0.937V61.722
			H137.692z"/>
	</g>
	<g>
		<rect x="127.212" y="60.366" fill="#76AA1A" width="2.229" height="1.568"/>
		<rect x="127.212" y="62.65" fill="#76AA1A" width="2.229" height="14.948"/>
	</g>
	<g>
		<rect x="123.71" y="60.366" fill="#76AA1A" width="2.229" height="1.568"/>
		<rect x="123.71" y="62.65" fill="#76AA1A" width="2.229" height="14.948"/>
	</g>
	<g>
		<path fill="#76AA1A" d="M160.936,28.214v-1.568c0-0.517-0.419-0.937-0.936-0.937h-2.904c-0.518,0-0.937,0.419-0.937,0.937v1.568
			H160.936z"/>
		<path fill="#76AA1A" d="M156.159,28.931v22.908c0,0.517,0.419,0.936,0.937,0.936H160c0.517,0,0.936-0.419,0.936-0.936V28.931
			H156.159z"/>
	</g>
	<g>
		<path fill="#76AA1A" d="M169.054,28.214v-1.568c0-0.517-0.419-0.937-0.937-0.937h-2.902c-0.518,0-0.938,0.419-0.938,0.937v1.568
			H169.054z"/>
		<path fill="#76AA1A" d="M164.277,28.931v22.908c0,0.517,0.42,0.936,0.938,0.936h2.902c0.518,0,0.937-0.419,0.937-0.936V28.931
			H164.277z"/>
	</g>
	<g>
		<path fill="#76AA1A" d="M118.114,36.173v-1.568c0-0.517-0.419-0.936-0.937-0.936h-2.903c-0.518,0-0.937,0.419-0.937,0.936v1.568
			H118.114z"/>
		<path fill="#76AA1A" d="M113.338,36.89v14.948c0,0.517,0.419,0.936,0.937,0.936h2.903c0.518,0,0.937-0.419,0.937-0.936V36.89
			H113.338z"/>
	</g>
	<g>
		<path fill="#76AA1A" d="M149.409,35.878l-0.257-1.547c-0.084-0.51-0.566-0.856-1.076-0.771l-2.864,0.474
			c-0.511,0.084-0.855,0.566-0.771,1.076l0.255,1.548L149.409,35.878z"/>
		<path fill="#76AA1A" d="M144.814,37.364l2.44,14.748c0.083,0.51,0.565,0.855,1.076,0.771l2.864-0.474
			c0.511-0.084,0.855-0.567,0.771-1.077l-2.44-14.748L144.814,37.364z"/>
	</g>
	<g>
		<path fill="#76AA1A" d="M124.197,48.235h-1.567c-0.518,0-0.938,0.42-0.938,0.938v2.903c0,0.517,0.42,0.936,0.938,0.936h1.567
			V48.235z"/>
		<path fill="#76AA1A" d="M124.914,53.011h14.948c0.517,0,0.937-0.419,0.937-0.936v-2.903c0-0.518-0.42-0.938-0.937-0.938h-14.948
			V53.011z"/>
	</g>
	<g>
		<path fill="#76AA1A" d="M124.197,42.027h-1.567c-0.518,0-0.938,0.419-0.938,0.937v2.904c0,0.517,0.42,0.936,0.938,0.936h1.567
			V42.027z"/>
		<path fill="#76AA1A" d="M124.914,46.803h14.948c0.517,0,0.937-0.419,0.937-0.936v-2.904c0-0.518-0.42-0.937-0.937-0.937h-14.948
			V46.803z"/>
	</g>
	<g>
		<path fill="#76AA1A" d="M124.197,35.819h-1.567c-0.518,0-0.938,0.419-0.938,0.936v2.904c0,0.517,0.42,0.936,0.938,0.936h1.567
			V35.819z"/>
		<path fill="#76AA1A" d="M124.914,40.595h14.948c0.517,0,0.937-0.419,0.937-0.936v-2.904c0-0.517-0.42-0.936-0.937-0.936h-14.948
			V40.595z"/>
	</g>
	<path fill="#76AA1A" d="M278.078,109.655h-67.337c-0.879,0-1.592,0.712-1.592,1.59v7.165h-53.542c-0.741,0-1.342,0.602-1.342,1.343
		v44.591c0,0.742,0.601,1.344,1.342,1.344h55.134h1.681h65.656c0.878,0,1.59-0.712,1.59-1.592v-52.851
		C279.668,110.367,278.956,109.655,278.078,109.655z"/>
	<path fill="#76AA1A" d="M169.648,168.186c0,0.263-0.213,0.477-0.478,0.477h-9.312c-0.264,0-0.478-0.214-0.478-0.477v-3.104
		c0-0.264,0.214-0.478,0.478-0.478h9.312c0.265,0,0.478,0.214,0.478,0.478V168.186z"/>
	<path fill="#76AA1A" d="M274.871,168.186c0,0.263-0.214,0.477-0.478,0.477h-9.312c-0.264,0-0.478-0.214-0.478-0.477v-3.104
		c0-0.264,0.214-0.478,0.478-0.478h9.312c0.264,0,0.478,0.214,0.478,0.478V168.186z"/>
	<rect x="95.332" y="54.735" fill="#76AA1A" width="115.25" height="2.547"/>
	<rect x="95.332" y="78.772" fill="#76AA1A" width="115.25" height="2.547"/>
	<path fill="#76AA1A" d="M171.798,113.149c0,0-2.183,2.396-2.706,2.387c-0.523-0.007-1.042,0.036-1.433,0
		c-0.295-0.026-1.116-1.367-1.504-2.026c0.021-0.158,0.031-0.317,0.031-0.48c0-2.11-1.71-3.82-3.82-3.82
		c-2.109,0-3.82,1.71-3.82,3.82c0,0.096,0.005,0.194,0.013,0.288c-0.008,0.022-0.013,0.046-0.013,0.07v3.94
		c0,0.132,0.107,0.239,0.239,0.239h13.013c0.132,0,0.238-0.107,0.238-0.239v-3.94C172.036,113.256,171.93,113.149,171.798,113.149z
		 M162.128,113.984c-0.527,0-0.955-0.427-0.955-0.955c0-0.526,0.428-0.955,0.955-0.955s0.955,0.428,0.955,0.955
		C163.083,113.557,162.655,113.984,162.128,113.984z"/>
	<rect x="166.027" y="113.387" fill="#76AA1A" width="5.771" height="0.239"/>
	<g>
		<path fill="#76AA1A" d="M239.713,84.025h10.029v-7.833c-1.512-0.19-3.188-0.226-5.215-0.26c-1.644-0.028-3.274-0.026-4.814,0.102
			V84.025z"/>
		<path fill="#76AA1A" d="M237.484,108.66V85.976v-1.951v-7.694c-2.348,0.455-4.356,1.375-5.697,3.193
			c-2.805,3.806-9.75,29.337-9.75,29.337h6.818l5.777-19.717l-1.609,19.517H237.484z"/>
		<path fill="#76AA1A" d="M267.638,108.861c0,0-7.349-27.184-11.422-30.124c-1.47-1.06-2.819-1.707-4.246-2.108v7.396v1.951v22.685
			h5.034l-1.856-19.904l6.179,20.142L267.638,108.861z"/>
	</g>
	<g>
		<path fill="#76AA1A" d="M97.47,67.059c0,0.167-0.135,0.302-0.302,0.302H96.21c-0.167,0-0.303-0.135-0.303-0.302l0,0
			c0-0.167,0.136-0.303,0.303-0.303h0.958C97.335,66.756,97.47,66.892,97.47,67.059L97.47,67.059z"/>
		<path fill="#76AA1A" d="M97.47,65.623c0,0.167-0.135,0.302-0.302,0.302H96.21c-0.167,0-0.303-0.135-0.303-0.302l0,0
			c0-0.167,0.136-0.302,0.303-0.302h0.958C97.335,65.32,97.47,65.455,97.47,65.623L97.47,65.623z"/>
		<path fill="#76AA1A" d="M97.47,68.646c0,0.167-0.135,0.302-0.302,0.302H96.21c-0.167,0-0.303-0.135-0.303-0.302l0,0
			c0-0.167,0.136-0.302,0.303-0.302h0.958C97.335,68.345,97.47,68.479,97.47,68.646L97.47,68.646z"/>
		<path fill="#76AA1A" d="M97.47,70.158c0,0.167-0.135,0.302-0.302,0.302H96.21c-0.167,0-0.303-0.135-0.303-0.302l0,0
			c0-0.167,0.136-0.302,0.303-0.302h0.958C97.335,69.856,97.47,69.991,97.47,70.158L97.47,70.158z"/>
		<path fill="#76AA1A" d="M97.47,71.821c0,0.167-0.135,0.302-0.302,0.302H96.21c-0.167,0-0.303-0.135-0.303-0.302l0,0
			c0-0.167,0.136-0.303,0.303-0.303h0.958C97.335,71.519,97.47,71.654,97.47,71.821L97.47,71.821z"/>
		<path fill="#76AA1A" d="M97.47,73.409c0,0.167-0.135,0.302-0.302,0.302H96.21c-0.167,0-0.303-0.135-0.303-0.302l0,0
			c0-0.167,0.136-0.303,0.303-0.303h0.958C97.335,73.106,97.47,73.242,97.47,73.409L97.47,73.409z"/>
		<path fill="#76AA1A" d="M97.47,74.921c0,0.167-0.135,0.302-0.302,0.302H96.21c-0.167,0-0.303-0.136-0.303-0.302l0,0
			c0-0.167,0.136-0.303,0.303-0.303h0.958C97.335,74.618,97.47,74.753,97.47,74.921L97.47,74.921z"/>
		<path fill="#76AA1A" d="M106.037,63.809H97.42c-0.418,0-0.756,0.338-0.756,0.756v12.02c0,0.417,0.338,0.755,0.756,0.755h8.617
			c0.417,0,0.756-0.338,0.756-0.755v-12.02C106.793,64.146,106.454,63.809,106.037,63.809z M97.495,70.662
			c-0.236,0-0.428-0.192-0.428-0.428s0.191-0.429,0.428-0.429s0.429,0.192,0.429,0.429S97.731,70.662,97.495,70.662z M97.924,71.821
			c0,0.237-0.192,0.428-0.429,0.428s-0.428-0.191-0.428-0.428s0.191-0.429,0.428-0.429S97.924,71.584,97.924,71.821z M97.495,69.074
			c-0.236,0-0.428-0.191-0.428-0.428s0.191-0.429,0.428-0.429s0.429,0.192,0.429,0.429S97.731,69.074,97.495,69.074z M97.495,67.487
			c-0.236,0-0.428-0.191-0.428-0.428c0-0.236,0.191-0.428,0.428-0.428s0.429,0.192,0.429,0.428
			C97.924,67.296,97.731,67.487,97.495,67.487z M97.486,65.188c0.234,0,0.425,0.19,0.425,0.425s-0.19,0.425-0.425,0.425
			c-0.235,0-0.426-0.19-0.426-0.425S97.251,65.188,97.486,65.188z M97.495,72.98c0.236,0,0.429,0.193,0.429,0.429
			s-0.192,0.428-0.429,0.428s-0.428-0.191-0.428-0.428S97.259,72.98,97.495,72.98z M97.562,75.336c-0.235,0-0.426-0.19-0.426-0.425
			c0-0.235,0.19-0.425,0.426-0.425c0.234,0,0.425,0.19,0.425,0.425C97.986,75.146,97.796,75.336,97.562,75.336z"/>
	</g>
	<path fill="#76AA1A" d="M204.946,71.237l-3.247-5.625l-3.247,5.625l-3.247,5.625h6.494h6.495L204.946,71.237z M201.604,74.762
		h-3.292l1.646-2.85l1.646-2.85l1.645,2.85l1.646,2.85H201.604z"/>
	<g>
		<path fill="#76AA1A" d="M119.448,75.827v-7.845c0-0.371-0.301-0.671-0.672-0.671h-9.003c-0.371,0-0.673,0.301-0.673,0.671v7.845
			H119.448z M110.176,69.394c0-0.371,0.302-0.671,0.672-0.671h6.585c0.371,0,0.672,0.3,0.672,0.671v1.478
			c0,0.371-0.301,0.672-0.672,0.672h-6.585c-0.37,0-0.672-0.301-0.672-0.672V69.394z"/>
		<path fill="#76AA1A" d="M109.101,76.464v0.522c0,0.371,0.302,0.671,0.673,0.671h9.003c0.371,0,0.672-0.301,0.672-0.671v-0.522
			H109.101z"/>
	</g>
	<g>
		<polygon fill="#76AA1A" points="111.567,71.31 111.567,69.967 111.242,69.315 110.896,69.967 110.896,71.31 		"/>
		<rect x="110.896" y="72.404" fill="#76AA1A" width="0.672" height="3.296"/>
	</g>
	<g>
		<polygon fill="#76AA1A" points="112.521,71.31 112.521,69.967 112.198,69.315 111.851,69.967 111.851,71.31 		"/>
		<rect x="111.851" y="72.404" fill="#76AA1A" width="0.671" height="3.296"/>
	</g>
	<g>
		<polygon fill="#76AA1A" points="113.478,71.31 113.478,69.967 113.152,69.315 112.805,69.967 112.805,71.31 		"/>
		<rect x="112.805" y="72.404" fill="#76AA1A" width="0.673" height="3.296"/>
	</g>
	<g>
		<polygon fill="#76AA1A" points="114.433,71.31 114.433,69.967 114.107,69.315 113.761,69.967 113.761,71.31 		"/>
		<rect x="113.761" y="72.404" fill="#76AA1A" width="0.672" height="3.296"/>
	</g>
	<g>
		<polygon fill="#76AA1A" points="115.388,71.31 115.388,69.967 115.062,69.315 114.715,69.967 114.715,71.31 		"/>
		<rect x="114.715" y="72.404" fill="#76AA1A" width="0.673" height="3.296"/>
	</g>
	<g>
		<polygon fill="#76AA1A" points="116.343,71.31 116.343,69.967 116.018,69.315 115.671,69.967 115.671,71.31 		"/>
		<rect x="115.671" y="72.404" fill="#76AA1A" width="0.672" height="3.296"/>
	</g>
	<g>
		<polygon fill="#76AA1A" points="117.298,71.31 117.298,69.967 116.973,69.315 116.626,69.967 116.626,71.31 		"/>
		<rect x="116.626" y="72.404" fill="#76AA1A" width="0.672" height="3.296"/>
	</g>
	<g>
		<path fill="#76AA1A" d="M170.86,73.809h-10.196h-5.035h-10.275v4.091h10.275h5.035h10.211
			C170.875,77.899,170.194,76.041,170.86,73.809z"/>
	</g>
	<path fill="#76AA1A" d="M145.352,77.899c0,0-0.691-1.863,0-4.092l3.201,2.046L145.352,77.899z"/>
	<path fill="#76AA1A" d="M145.804,71.627c0.65,0.998-0.45,1.697-0.45,1.697h25.523c0,0,1.102-0.699,0.45-1.697
		c0,0-0.65-0.648-0.488-1.341h-25.523C145.152,70.979,145.804,71.627,145.804,71.627z"/>
	<path fill="#76AA1A" d="M200.218,116.435c0,0.559-0.454,1.013-1.013,1.013h-2.938c-0.559,0-1.013-0.454-1.013-1.013l-1.014-6.333
		c0-0.559,0.454-1.013,1.014-1.013h4.963c0.56,0,1.014,0.454,1.014,1.013L200.218,116.435z"/>
	<path fill="#76AA1A" d="M195.904,104.985c0,0-0.373,0.349-0.95,0.234l0.201-1.231L195.904,104.985z"/>
	<g>
		<path fill="#76AA1A" d="M194.994,105.335l0.876,3.549l0.432,1.754l0.882,3.576l0.939-0.231l-0.882-3.578l-0.433-1.752
			l-0.876-3.556C195.933,105.099,195.563,105.441,194.994,105.335z"/>
		<polygon fill="#76AA1A" points="195.933,105.099 195.926,105.077 195.917,105.078 		"/>
	</g>
	<path fill="#76AA1A" d="M198.92,104.264c0,0-0.443,0.252-0.979,0.01l0.478-1.153L198.92,104.264z"/>
	<g>
		<path fill="#76AA1A" d="M197.953,104.395l0.037,3.655l0.018,1.807l0.038,3.685l0.966-0.011l-0.037-3.683l-0.018-1.807l-0.036-3.66
			C198.921,104.381,198.483,104.629,197.953,104.395z"/>
		<polygon fill="#76AA1A" points="198.921,104.381 198.92,104.357 198.91,104.357 		"/>
	</g>
</g>
<g>
	<g>
		<path fill="#76AA1A" d="M133.583,185.664c3.862,0,6.094,1.92,6.094,5.246c0,3.461-2.232,5.447-6.094,5.447h-4.085v4.934h-1.786
			v-15.627H133.583z M129.498,194.639h4.018c2.813,0,4.442-1.25,4.442-3.684c0-2.366-1.629-3.571-4.442-3.571h-4.018V194.639z"/>
		<path fill="#76AA1A" d="M143.137,197.34l-1.741,3.951h-1.897l7.01-15.627h1.853l6.987,15.627h-1.942l-1.741-3.951H143.137z
			 M147.378,187.696l-3.482,7.925h7.01L147.378,187.696z"/>
		<path fill="#76AA1A" d="M163.673,185.664c3.862,0,6.095,1.92,6.095,5.246c0,3.461-2.232,5.447-6.095,5.447h-4.085v4.934h-1.786
			v-15.627H163.673z M159.588,194.639h4.019c2.812,0,4.442-1.25,4.442-3.684c0-2.366-1.63-3.571-4.442-3.571h-4.019V194.639z"/>
		<path fill="#76AA1A" d="M174.521,187.384v5.134h7.88v1.719h-7.88v5.358h9.107v1.696h-10.894v-15.627h10.604v1.72H174.521z"/>
		<path fill="#76AA1A" d="M195.905,199.595v1.696h-8.64v-15.627h1.786v13.931H195.905z"/>
		<path fill="#76AA1A" d="M200.593,187.384v5.134h7.88v1.719h-7.88v5.358h9.107v1.696h-10.894v-15.627h10.604v1.72H200.593z"/>
		<path fill="#76AA1A" d="M220.324,196.312c-0.335,0.022-0.692,0.045-1.049,0.045h-4.152v4.934h-1.786v-15.627h5.938
			c3.906,0,6.161,1.92,6.161,5.246c0,2.59-1.25,4.331-3.505,5.067l3.661,5.313h-2.031L220.324,196.312z M219.275,194.639
			c2.835,0,4.442-1.25,4.442-3.684c0-2.366-1.607-3.571-4.442-3.571h-4.152v7.255H219.275z"/>
		<path fill="#76AA1A" d="M230.838,183.723h-1.675l2.679-3.036l1.764,0.848L230.838,183.723z M229.476,201.291v-15.627h1.786v15.627
			H229.476z"/>
		<path fill="#76AA1A" d="M237.355,197.34l-1.742,3.951h-1.897l7.01-15.627h1.854l6.987,15.627h-1.942l-1.741-3.951H237.355z
			 M241.597,187.696l-3.482,7.925h7.01L241.597,187.696z"/>
	</g>
	<g enable-background="new    ">
		<path fill="none" stroke="#76AA1A" stroke-width="0.6976" stroke-miterlimit="10" d="M133.583,185.664
			c3.862,0,6.094,1.92,6.094,5.246c0,3.461-2.232,5.447-6.094,5.447h-4.085v4.934h-1.786v-15.627H133.583z M129.498,194.639h4.018
			c2.813,0,4.442-1.25,4.442-3.684c0-2.366-1.629-3.571-4.442-3.571h-4.018V194.639z"/>
		<path fill="none" stroke="#76AA1A" stroke-width="0.6976" stroke-miterlimit="10" d="M143.137,197.34l-1.741,3.951h-1.897
			l7.01-15.627h1.853l6.987,15.627h-1.942l-1.741-3.951H143.137z M147.378,187.696l-3.482,7.925h7.01L147.378,187.696z"/>
		<path fill="none" stroke="#76AA1A" stroke-width="0.6976" stroke-miterlimit="10" d="M163.673,185.664
			c3.862,0,6.095,1.92,6.095,5.246c0,3.461-2.232,5.447-6.095,5.447h-4.085v4.934h-1.786v-15.627H163.673z M159.588,194.639h4.019
			c2.812,0,4.442-1.25,4.442-3.684c0-2.366-1.63-3.571-4.442-3.571h-4.019V194.639z"/>
		<path fill="none" stroke="#76AA1A" stroke-width="0.6976" stroke-miterlimit="10" d="M174.521,187.384v5.134h7.88v1.719h-7.88
			v5.358h9.107v1.696h-10.894v-15.627h10.604v1.72H174.521z"/>
		<path fill="none" stroke="#76AA1A" stroke-width="0.6976" stroke-miterlimit="10" d="M195.905,199.595v1.696h-8.64v-15.627h1.786
			v13.931H195.905z"/>
		<path fill="none" stroke="#76AA1A" stroke-width="0.6976" stroke-miterlimit="10" d="M200.593,187.384v5.134h7.88v1.719h-7.88
			v5.358h9.107v1.696h-10.894v-15.627h10.604v1.72H200.593z"/>
		<path fill="none" stroke="#76AA1A" stroke-width="0.6976" stroke-miterlimit="10" d="M220.324,196.312
			c-0.335,0.022-0.692,0.045-1.049,0.045h-4.152v4.934h-1.786v-15.627h5.938c3.906,0,6.161,1.92,6.161,5.246
			c0,2.59-1.25,4.331-3.505,5.067l3.661,5.313h-2.031L220.324,196.312z M219.275,194.639c2.835,0,4.442-1.25,4.442-3.684
			c0-2.366-1.607-3.571-4.442-3.571h-4.152v7.255H219.275z"/>
		<path fill="none" stroke="#76AA1A" stroke-width="0.6976" stroke-miterlimit="10" d="M230.838,183.723h-1.675l2.679-3.036
			l1.764,0.848L230.838,183.723z M229.476,201.291v-15.627h1.786v15.627H229.476z"/>
		<path fill="none" stroke="#76AA1A" stroke-width="0.6976" stroke-miterlimit="10" d="M237.355,197.34l-1.742,3.951h-1.897
			l7.01-15.627h1.854l6.987,15.627h-1.942l-1.741-3.951H237.355z M241.597,187.696l-3.482,7.925h7.01L241.597,187.696z"/>
	</g>
</g>
</svg>
