<?xml version="1.0" encoding="utf-8"?>
<!-- Generator: Adobe Illustrator 16.0.0, SVG Export Plug-In . SVG Version: 6.00 Build 0)  -->
<!DOCTYPE svg PUBLIC "-//W3C//DTD SVG 1.1//EN" "http://www.w3.org/Graphics/SVG/1.1/DTD/svg11.dtd">
<svg version="1.1" id="Layer_1" xmlns="http://www.w3.org/2000/svg" xmlns:xlink="http://www.w3.org/1999/xlink" x="0px" y="0px"
	 width="375px" height="227px" viewBox="0 0 375 227" enable-background="new 0 0 375 227" xml:space="preserve">
<rect x="0.5" y="0.5" fill="#FFFFFF" stroke="#DEDDDD" stroke-width="0.9965" stroke-miterlimit="10" width="374" height="226"/>
<g>
	<g enable-background="new    ">
		<path fill="#EFC84E" d="M166.452,194.771c0,4.227-3.476,7.595-7.852,7.595c-4.398,0-7.874-3.368-7.874-7.595
			c0-4.248,3.475-7.553,7.874-7.553C162.977,187.219,166.452,190.544,166.452,194.771z M152.464,194.771
			c0,3.304,2.789,5.941,6.136,5.941c3.347,0,6.093-2.639,6.093-5.941c0-3.304-2.746-5.922-6.093-5.922
			C155.253,188.85,152.464,191.467,152.464,194.771z"/>
		<path fill="#EFC84E" d="M173.957,188.913v13.366h-1.716v-13.366h-4.892v-1.651h11.521v1.651H173.957z"/>
		<path fill="#EFC84E" d="M188.07,197.495c-0.321,0.021-0.664,0.043-1.007,0.043h-3.991v4.741h-1.716v-15.019h5.707
			c3.753,0,5.921,1.845,5.921,5.042c0,2.488-1.201,4.161-3.369,4.869l3.52,5.105h-1.953L188.07,197.495z M187.063,195.886
			c2.724,0,4.269-1.2,4.269-3.54c0-2.272-1.545-3.433-4.269-3.433h-3.991v6.973H187.063z"/>
		<path fill="#EFC84E" d="M211.174,194.771c0,4.227-3.476,7.595-7.852,7.595c-4.398,0-7.874-3.368-7.874-7.595
			c0-4.248,3.476-7.553,7.874-7.553C207.698,187.219,211.174,190.544,211.174,194.771z M197.186,194.771
			c0,3.304,2.789,5.941,6.138,5.941c3.346,0,6.092-2.639,6.092-5.941c0-3.304-2.746-5.922-6.092-5.922
			C199.975,188.85,197.186,191.467,197.186,194.771z"/>
		<path fill="#EFC84E" d="M223.527,188.592l-0.729,1.609c-1.353-0.901-2.938-1.268-4.141-1.268c-1.931,0-3.196,0.729-3.196,1.996
			c0,3.861,8.452,1.846,8.432,7.295c0,2.51-2.211,4.118-5.429,4.118c-2.188,0-4.333-0.944-5.749-2.296l0.771-1.544
			c1.395,1.353,3.305,2.123,4.998,2.123c2.168,0,3.52-0.879,3.52-2.315c0.021-3.947-8.432-1.847-8.432-7.23
			c0-2.359,2.08-3.883,5.191-3.883C220.502,187.197,222.283,187.755,223.527,188.592z"/>
	</g>
	<g enable-background="new    ">
		<path fill="none" stroke="#EFC84E" stroke-width="0.6703" stroke-miterlimit="10" d="M166.452,194.771
			c0,4.227-3.476,7.595-7.852,7.595c-4.398,0-7.874-3.368-7.874-7.595c0-4.248,3.475-7.553,7.874-7.553
			C162.977,187.219,166.452,190.544,166.452,194.771z M152.464,194.771c0,3.304,2.789,5.941,6.136,5.941
			c3.347,0,6.093-2.639,6.093-5.941c0-3.304-2.746-5.922-6.093-5.922C155.253,188.85,152.464,191.467,152.464,194.771z"/>
		<path fill="none" stroke="#EFC84E" stroke-width="0.6703" stroke-miterlimit="10" d="M173.957,188.913v13.366h-1.716v-13.366
			h-4.892v-1.651h11.521v1.651H173.957z"/>
		<path fill="none" stroke="#EFC84E" stroke-width="0.6703" stroke-miterlimit="10" d="M188.07,197.495
			c-0.321,0.021-0.664,0.043-1.007,0.043h-3.991v4.741h-1.716v-15.019h5.707c3.753,0,5.921,1.845,5.921,5.042
			c0,2.488-1.201,4.161-3.369,4.869l3.52,5.105h-1.953L188.07,197.495z M187.063,195.886c2.724,0,4.269-1.2,4.269-3.54
			c0-2.272-1.545-3.433-4.269-3.433h-3.991v6.973H187.063z"/>
		<path fill="none" stroke="#EFC84E" stroke-width="0.6703" stroke-miterlimit="10" d="M211.174,194.771
			c0,4.227-3.476,7.595-7.852,7.595c-4.398,0-7.874-3.368-7.874-7.595c0-4.248,3.476-7.553,7.874-7.553
			C207.698,187.219,211.174,190.544,211.174,194.771z M197.186,194.771c0,3.304,2.789,5.941,6.138,5.941
			c3.346,0,6.092-2.639,6.092-5.941c0-3.304-2.746-5.922-6.092-5.922C199.975,188.85,197.186,191.467,197.186,194.771z"/>
		<path fill="none" stroke="#EFC84E" stroke-width="0.6703" stroke-miterlimit="10" d="M223.527,188.592l-0.729,1.609
			c-1.353-0.901-2.938-1.268-4.141-1.268c-1.931,0-3.196,0.729-3.196,1.996c0,3.861,8.452,1.846,8.432,7.295
			c0,2.51-2.211,4.118-5.429,4.118c-2.188,0-4.333-0.944-5.749-2.296l0.771-1.544c1.395,1.353,3.305,2.123,4.998,2.123
			c2.168,0,3.52-0.879,3.52-2.315c0.021-3.947-8.432-1.847-8.432-7.23c0-2.359,2.08-3.883,5.191-3.883
			C220.502,187.197,222.283,187.755,223.527,188.592z"/>
	</g>
</g>
<path fill="#EFC84E" d="M208.902,66.531c6.197,0,11.229,5.029,11.229,11.229c0,6.2-5.031,11.229-11.229,11.229
	c-6.204,0-11.229-5.03-11.229-11.229C197.674,71.56,202.698,66.531,208.902,66.531z"/>
<path fill="#EFC84E" d="M265.325,47.434c0,6.26-5.075,11.334-11.335,11.334H121.009c-6.26,0-11.334-5.074-11.334-11.334V31.316
	c0-6.26,5.074-11.335,11.334-11.335H253.99c6.26,0,11.335,5.075,11.335,11.335V47.434z"/>
<circle fill="#EFC84E" cx="143.424" cy="56.753" r="6.045"/>
<circle fill="#EFC84E" cx="158.536" cy="56.753" r="6.044"/>
<circle fill="#EFC84E" cx="173.647" cy="56.753" r="6.044"/>
<circle fill="#EFC84E" cx="188.758" cy="56.753" r="6.045"/>
<circle fill="#EFC84E" cx="203.871" cy="56.753" r="6.045"/>
<circle fill="#EFC84E" cx="218.982" cy="56.753" r="6.045"/>
<circle fill="#EFC84E" cx="234.094" cy="56.753" r="6.045"/>
<circle fill="#EFC84E" cx="249.961" cy="56.753" r="6.045"/>
<circle fill="#EFC84E" cx="127.961" cy="56.753" r="6.045"/>
<rect x="125.794" y="58.768" fill="#EFC84E" width="4.784" height="67.751"/>
<rect x="247.443" y="58.768" fill="#EFC84E" width="4.783" height="67.751"/>
<rect x="118.742" y="122.238" fill="#EFC84E" width="136.76" height="52.891"/>
<rect x="158.27" y="98.646" fill="#EFC84E" width="1.244" height="5.287"/>
<path fill="#EFC84E" d="M162.935,98.957c0,0.343-0.279,0.622-0.622,0.622h-7.153c-0.342,0-0.621-0.279-0.621-0.622v-3.109
	c0-0.344,0.279-0.623,0.621-0.623h7.153c0.343,0,0.622,0.279,0.622,0.623V98.957z"/>
<path fill="#EFC84E" d="M167.288,110.774h-32.497c-0.344,0-0.624,0.278-0.624,0.622v8.708c0,0.346,0.28,0.623,0.624,0.623h4.974
	v-0.934c0-0.344,0.28-0.621,0.624-0.621h21.146c0.343,0,0.621,0.277,0.621,0.621v0.934h5.132c0.344,0,0.623-0.277,0.623-0.623
	v-8.708C167.911,111.052,167.632,110.774,167.288,110.774z"/>
<path fill="#EFC84E" d="M164.665,109.77l-1.575-6.304c0-0.688-0.558-1.244-1.244-1.244h-21.303c-0.687,0-1.244,0.556-1.244,1.244
	l-1.576,6.304H164.665z"/>
<g>
	<path fill="#EFC84E" d="M202.818,98.243h11.468v-6.91c-1.659-0.303-3.494-0.352-5.818-0.391c-1.952-0.033-3.88-0.018-5.649,0.219
		V98.243L202.818,98.243z"/>
	<path fill="#EFC84E" d="M200.848,121.797V99.935v-1.692v-6.698c-1.791,0.484-3.315,1.328-4.391,2.782
		c-2.646,3.59-9.192,27.659-9.192,27.659h6.428l5.445-18.589l-1.517,18.399L200.848,121.797L200.848,121.797z"/>
	<path fill="#EFC84E" d="M230.253,121.986c0,0-6.927-25.627-10.767-28.399c-1.103-0.792-2.129-1.321-3.178-1.703v8.051h-0.006
		v21.862h3.926l-1.75-18.765l5.824,18.989L230.253,121.986z"/>
</g>
</svg>
