<?xml version="1.0" encoding="utf-8"?>
<!-- Generator: Adobe Illustrator 16.0.0, SVG Export Plug-In . SVG Version: 6.00 Build 0)  -->
<!DOCTYPE svg PUBLIC "-//W3C//DTD SVG 1.1//EN" "http://www.w3.org/Graphics/SVG/1.1/DTD/svg11.dtd">
<svg version="1.1" id="Layer_1" xmlns="http://www.w3.org/2000/svg" xmlns:xlink="http://www.w3.org/1999/xlink" x="0px" y="0px"
	 width="100px" height="100px" viewBox="0 0 100 100" enable-background="new 0 0 100 100" xml:space="preserve">
<rect x="0.5" y="0.5" fill="#FFFFFF" stroke="#DEDDDD" stroke-miterlimit="10" width="99" height="99"/>
<g>
	<g>
		<g enable-background="new    ">
			<path fill="#FEA628" d="M22.467,83.772c1.666,0,2.628,0.828,2.628,2.263c0,1.493-0.962,2.35-2.628,2.35h-1.762v2.128h-0.771
				v-6.74H22.467z M20.705,87.644h1.733c1.213,0,1.916-0.539,1.916-1.589c0-1.021-0.703-1.54-1.916-1.54h-1.733V87.644z"/>
			<path fill="#FEA628" d="M26.584,88.809l-0.751,1.704h-0.818l3.023-6.74h0.799l3.014,6.74h-0.837l-0.751-1.704H26.584z
				 M28.414,84.649l-1.502,3.418h3.023L28.414,84.649z"/>
			<path fill="#FEA628" d="M35.92,88.365c-0.145,0.01-0.298,0.02-0.453,0.02h-1.791v2.128h-0.771v-6.74h2.561
				c1.685,0,2.658,0.828,2.658,2.263c0,1.117-0.539,1.868-1.512,2.186l1.579,2.292h-0.876L35.92,88.365z M35.467,87.644
				c1.223,0,1.916-0.539,1.916-1.589c0-1.021-0.693-1.54-1.916-1.54h-1.791v3.129H35.467z"/>
			<path fill="#FEA628" d="M40.451,88.809L39.7,90.513h-0.818l3.023-6.74h0.799l3.014,6.74H44.88l-0.751-1.704H40.451z
				 M42.28,84.649l-1.502,3.418h3.023L42.28,84.649z"/>
			<path fill="#FEA628" d="M50.499,89.781v0.731h-3.726v-6.74h0.771v6.009H50.499z"/>
			<path fill="#FEA628" d="M51.747,90.513v-6.74h0.771v6.74H51.747z"/>
			<path fill="#FEA628" d="M57.397,83.772c1.358,0,2.177,0.626,2.177,1.686c0,0.789-0.453,1.357-1.242,1.521
				c0.973,0.145,1.54,0.779,1.54,1.704c0,1.146-0.905,1.829-2.427,1.829h-2.889v-6.74H57.397z M55.328,86.681h2.031
				c0.904,0,1.434-0.395,1.434-1.098c0-0.684-0.529-1.068-1.434-1.068h-2.031V86.681z M55.328,89.781h2.031
				c1.098,0,1.732-0.434,1.732-1.204c0-0.731-0.635-1.165-1.732-1.165h-2.031V89.781z"/>
			<path fill="#FEA628" d="M64.461,88.365c-0.145,0.01-0.299,0.02-0.453,0.02h-1.791v2.128h-0.77v-6.74h2.561
				c1.686,0,2.658,0.828,2.658,2.263c0,1.117-0.54,1.868-1.512,2.186l1.578,2.292h-0.876L64.461,88.365z M64.008,87.644
				c1.223,0,1.916-0.539,1.916-1.589c0-1.021-0.693-1.54-1.916-1.54h-1.791v3.129H64.008z"/>
			<path fill="#FEA628" d="M74.826,87.143c0,1.897-1.561,3.408-3.523,3.408c-1.975,0-3.534-1.511-3.534-3.408
				c0-1.906,1.56-3.389,3.534-3.389C73.266,83.754,74.826,85.246,74.826,87.143z M68.549,87.143c0,1.483,1.251,2.667,2.754,2.667
				c1.502,0,2.734-1.184,2.734-2.667c0-1.482-1.232-2.657-2.734-2.657C69.8,84.485,68.549,85.66,68.549,87.143z"/>
			<path fill="#FEA628" d="M80.367,84.37l-0.327,0.722c-0.606-0.404-1.319-0.568-1.858-0.568c-0.867,0-1.435,0.328-1.435,0.896
				c0,1.733,3.794,0.828,3.784,3.274c0,1.126-0.992,1.849-2.436,1.849c-0.982,0-1.945-0.424-2.581-1.03l0.347-0.693
				c0.626,0.606,1.482,0.953,2.243,0.953c0.973,0,1.579-0.395,1.579-1.04c0.01-1.771-3.783-0.828-3.783-3.245
				c0-1.059,0.934-1.742,2.33-1.742C79.01,83.744,79.809,83.994,80.367,84.37z"/>
		</g>
		<g enable-background="new    ">
			<path fill="none" stroke="#FEA628" stroke-width="0.3007" stroke-miterlimit="10" d="M22.467,83.772
				c1.666,0,2.628,0.828,2.628,2.263c0,1.493-0.962,2.35-2.628,2.35h-1.762v2.128h-0.771v-6.74H22.467z M20.705,87.644h1.733
				c1.213,0,1.916-0.539,1.916-1.589c0-1.021-0.703-1.54-1.916-1.54h-1.733V87.644z"/>
			<path fill="none" stroke="#FEA628" stroke-width="0.3007" stroke-miterlimit="10" d="M26.584,88.809l-0.751,1.704h-0.818
				l3.023-6.74h0.799l3.014,6.74h-0.837l-0.751-1.704H26.584z M28.414,84.649l-1.502,3.418h3.023L28.414,84.649z"/>
			<path fill="none" stroke="#FEA628" stroke-width="0.3007" stroke-miterlimit="10" d="M35.92,88.365
				c-0.145,0.01-0.298,0.02-0.453,0.02h-1.791v2.128h-0.771v-6.74h2.561c1.685,0,2.658,0.828,2.658,2.263
				c0,1.117-0.539,1.868-1.512,2.186l1.579,2.292h-0.876L35.92,88.365z M35.467,87.644c1.223,0,1.916-0.539,1.916-1.589
				c0-1.021-0.693-1.54-1.916-1.54h-1.791v3.129H35.467z"/>
			<path fill="none" stroke="#FEA628" stroke-width="0.3007" stroke-miterlimit="10" d="M40.451,88.809L39.7,90.513h-0.818
				l3.023-6.74h0.799l3.014,6.74H44.88l-0.751-1.704H40.451z M42.28,84.649l-1.502,3.418h3.023L42.28,84.649z"/>
			<path fill="none" stroke="#FEA628" stroke-width="0.3007" stroke-miterlimit="10" d="M50.499,89.781v0.731h-3.726v-6.74h0.771
				v6.009H50.499z"/>
			<path fill="none" stroke="#FEA628" stroke-width="0.3007" stroke-miterlimit="10" d="M51.747,90.513v-6.74h0.771v6.74H51.747z"/>
			<path fill="none" stroke="#FEA628" stroke-width="0.3007" stroke-miterlimit="10" d="M57.397,83.772
				c1.358,0,2.177,0.626,2.177,1.686c0,0.789-0.453,1.357-1.242,1.521c0.973,0.145,1.54,0.779,1.54,1.704
				c0,1.146-0.905,1.829-2.427,1.829h-2.889v-6.74H57.397z M55.328,86.681h2.031c0.904,0,1.434-0.395,1.434-1.098
				c0-0.684-0.529-1.068-1.434-1.068h-2.031V86.681z M55.328,89.781h2.031c1.098,0,1.732-0.434,1.732-1.204
				c0-0.731-0.635-1.165-1.732-1.165h-2.031V89.781z"/>
			<path fill="none" stroke="#FEA628" stroke-width="0.3007" stroke-miterlimit="10" d="M64.461,88.365
				c-0.145,0.01-0.299,0.02-0.453,0.02h-1.791v2.128h-0.77v-6.74h2.561c1.686,0,2.658,0.828,2.658,2.263
				c0,1.117-0.54,1.868-1.512,2.186l1.578,2.292h-0.876L64.461,88.365z M64.008,87.644c1.223,0,1.916-0.539,1.916-1.589
				c0-1.021-0.693-1.54-1.916-1.54h-1.791v3.129H64.008z"/>
			<path fill="none" stroke="#FEA628" stroke-width="0.3007" stroke-miterlimit="10" d="M74.826,87.143
				c0,1.897-1.561,3.408-3.523,3.408c-1.975,0-3.534-1.511-3.534-3.408c0-1.906,1.56-3.389,3.534-3.389
				C73.266,83.754,74.826,85.246,74.826,87.143z M68.549,87.143c0,1.483,1.251,2.667,2.754,2.667c1.502,0,2.734-1.184,2.734-2.667
				c0-1.482-1.232-2.657-2.734-2.657C69.8,84.485,68.549,85.66,68.549,87.143z"/>
			<path fill="none" stroke="#FEA628" stroke-width="0.3007" stroke-miterlimit="10" d="M80.367,84.37l-0.327,0.722
				c-0.606-0.404-1.319-0.568-1.858-0.568c-0.867,0-1.435,0.328-1.435,0.896c0,1.733,3.794,0.828,3.784,3.274
				c0,1.126-0.992,1.849-2.436,1.849c-0.982,0-1.945-0.424-2.581-1.03l0.347-0.693c0.626,0.606,1.482,0.953,2.243,0.953
				c0.973,0,1.579-0.395,1.579-1.04c0.01-1.771-3.783-0.828-3.783-3.245c0-1.059,0.934-1.742,2.33-1.742
				C79.01,83.744,79.809,83.994,80.367,84.37z"/>
		</g>
	</g>
	<g>
		<g>
			<path fill="#FEA628" d="M38.885,11.668c-0.376-0.222-0.99-0.22-1.365,0.004l-12.617,7.554c-0.375,0.224-0.681,0.765-0.681,1.202
				v1.565c0,0.437,0.358,0.794,0.794,0.794H51.45c0.437,0,0.794-0.357,0.794-0.794V20.36c0-0.437-0.309-0.976-0.684-1.198
				L38.885,11.668z"/>
		</g>
		<path fill="#FEA628" d="M39.734,25.497c0,0.452-0.367,0.817-0.818,0.817H37.55c-0.45,0-0.818-0.365-0.818-0.817v-8.66
			c0-0.452,0.368-0.818,0.818-0.818h1.365c0.452,0,0.818,0.366,0.818,0.818L39.734,25.497L39.734,25.497z"/>
		<path fill="#FEA628" stroke="#FEA628" stroke-width="0.4091" stroke-miterlimit="10" d="M50.915,25.019H25.551
			c-0.451,0-0.817,0.366-0.817,0.818v45.136c0,0.451,0.366,0.817,0.817,0.817h25.364c0.452,0,0.817-0.366,0.817-0.817V25.836
			C51.732,25.384,51.367,25.019,50.915,25.019z M50.027,70.075c0,0.424-0.343,0.768-0.766,0.768H27.205
			c-0.423,0-0.767-0.344-0.767-0.768V27.422c0-0.424,0.344-0.768,0.767-0.768h22.056c0.423,0,0.766,0.343,0.766,0.768V70.075z"/>
		<path fill="#FEA628" d="M24.407,74.585v0.817c0,0.453,0.311,0.82,0.693,0.82h51.386c0.385,0,0.695-0.367,0.695-0.82v-0.817
			c0-0.45-0.312-0.817-0.695-0.817H25.1C24.717,73.768,24.407,74.135,24.407,74.585z"/>
		<rect x="25.96" y="55.562" fill="#FEA628" width="24.683" height="1.229"/>
		<rect x="25.96" y="40.018" fill="#FEA628" width="24.683" height="1.228"/>
		<rect x="26.779" y="70.289" fill="#FEA628" width="24.682" height="1.229"/>
		<path fill="#FEA628" d="M29.917,32.382h-1.068c-0.126,0-0.229,0.102-0.229,0.229v6.831c0,0.126,0.102,0.229,0.229,0.229h1.068
			c0.127,0,0.229-0.102,0.229-0.229v-6.831C30.146,32.484,30.043,32.382,29.917,32.382z M29.937,34.434H28.83v-0.238h1.106
			L29.937,34.434L29.937,34.434z M29.937,33.899H28.83v-0.238h1.106L29.937,33.899L29.937,33.899z M29.937,33.365H28.83v-0.239
			h1.106L29.937,33.365L29.937,33.365z"/>
		<path fill="#FEA628" d="M33.461,32.382h-1.068c-0.126,0-0.229,0.102-0.229,0.229v6.831c0,0.126,0.103,0.229,0.229,0.229h1.068
			c0.127,0,0.229-0.102,0.229-0.229v-6.831C33.69,32.484,33.588,32.382,33.461,32.382z M33.48,34.434h-1.107v-0.238h1.107V34.434z
			 M33.48,33.899h-1.107v-0.238h1.107V33.899z M33.48,33.365h-1.107v-0.239h1.107V33.365z"/>
		<path fill="#FEA628" d="M37.006,32.382h-1.069c-0.126,0-0.229,0.102-0.229,0.229v6.831c0,0.126,0.103,0.229,0.229,0.229h1.069
			c0.126,0,0.228-0.102,0.228-0.229v-6.831C37.234,32.484,37.132,32.382,37.006,32.382z M37.025,34.434h-1.107v-0.238h1.107V34.434z
			 M37.025,33.899h-1.107v-0.238h1.107V33.899z M37.025,33.365h-1.107v-0.239h1.107V33.365z"/>
		<path fill="#FEA628" d="M29.917,47.927h-1.068c-0.126,0-0.229,0.104-0.229,0.23v6.829c0,0.127,0.102,0.229,0.229,0.229h1.068
			c0.127,0,0.229-0.102,0.229-0.229v-6.829C30.146,48.03,30.043,47.927,29.917,47.927z M29.937,49.979H28.83V49.74h1.106
			L29.937,49.979L29.937,49.979z M29.937,49.446H28.83v-0.24h1.106L29.937,49.446L29.937,49.446z M29.937,48.911H28.83v-0.24h1.106
			L29.937,48.911L29.937,48.911z"/>
		<path fill="#FEA628" d="M33.461,47.927h-1.068c-0.126,0-0.229,0.104-0.229,0.23v6.829c0,0.127,0.103,0.229,0.229,0.229h1.068
			c0.127,0,0.229-0.102,0.229-0.229v-6.829C33.69,48.03,33.588,47.927,33.461,47.927z M33.48,49.979h-1.107V49.74h1.107V49.979z
			 M33.48,49.446h-1.107v-0.24h1.107V49.446z M33.48,48.911h-1.107v-0.24h1.107V48.911z"/>
		<path fill="#FEA628" d="M37.006,47.927h-1.069c-0.126,0-0.229,0.104-0.229,0.23v6.829c0,0.127,0.103,0.229,0.229,0.229h1.069
			c0.126,0,0.228-0.102,0.228-0.229v-6.829C37.234,48.03,37.132,47.927,37.006,47.927z M37.025,49.979h-1.107V49.74h1.107V49.979z
			 M37.025,49.446h-1.107v-0.24h1.107V49.446z M37.025,48.911h-1.107v-0.24h1.107V48.911z"/>
		<path fill="#FEA628" d="M40.553,47.927h-1.068c-0.126,0-0.229,0.104-0.229,0.23v6.829c0,0.127,0.103,0.229,0.229,0.229h1.068
			c0.126,0,0.229-0.102,0.229-0.229v-6.829C40.782,48.03,40.679,47.927,40.553,47.927z M40.572,49.979h-1.106V49.74h1.106V49.979z
			 M40.572,49.446h-1.106v-0.24h1.106V49.446z M40.572,48.911h-1.106v-0.24h1.106V48.911z"/>
		<path fill="#FEA628" d="M44.098,47.927h-1.069c-0.126,0-0.229,0.104-0.229,0.23v6.829c0,0.127,0.103,0.229,0.229,0.229h1.069
			c0.125,0,0.228-0.102,0.228-0.229v-6.829C44.326,48.03,44.224,47.927,44.098,47.927z M44.117,49.979H43.01V49.74h1.107V49.979z
			 M44.117,49.446H43.01v-0.24h1.107V49.446z M44.117,48.911H43.01v-0.24h1.107V48.911z"/>
		<path fill="#FEA628" d="M47.642,47.927h-1.069c-0.126,0-0.229,0.104-0.229,0.23v6.829c0,0.127,0.103,0.229,0.229,0.229h1.069
			c0.126,0,0.229-0.102,0.229-0.229v-6.829C47.871,48.03,47.768,47.927,47.642,47.927z M47.661,49.979h-1.106V49.74h1.106V49.979z
			 M47.661,49.446h-1.106v-0.24h1.106V49.446z M47.661,48.911h-1.106v-0.24h1.106V48.911z"/>
		<path fill="#FEA628" d="M35.754,62.47v-1.067c0-0.127-0.103-0.229-0.23-0.229h-6.83c-0.127,0-0.229,0.104-0.229,0.229v1.067
			c0,0.128,0.103,0.23,0.229,0.23h6.83C35.651,62.7,35.754,62.598,35.754,62.47z M33.702,62.49v-1.107h0.238v1.107H33.702z
			 M34.235,62.49v-1.107h0.24v1.107H34.235z M34.771,62.49v-1.107h0.238v1.107H34.771z"/>
		<path fill="#FEA628" d="M35.754,66.016v-1.068c0-0.127-0.103-0.229-0.23-0.229h-6.83c-0.127,0-0.229,0.103-0.229,0.229v1.068
			c0,0.127,0.103,0.229,0.229,0.229h6.83C35.651,66.243,35.754,66.143,35.754,66.016z M33.702,66.032v-1.105h0.238v1.105H33.702z
			 M34.235,66.032v-1.105h0.24v1.105H34.235z M34.771,66.032v-1.105h0.238v1.105H34.771z"/>
		<path fill="#FEA628" d="M35.754,69.559V68.49c0-0.126-0.103-0.229-0.23-0.229h-6.83c-0.127,0-0.229,0.104-0.229,0.229v1.068
			c0,0.129,0.103,0.229,0.229,0.229h6.83C35.651,69.788,35.754,69.688,35.754,69.559z M33.702,69.579v-1.108h0.238v1.108H33.702z
			 M34.235,69.579v-1.108h0.24v1.108H34.235z M34.771,69.579v-1.108h0.238v1.108H34.771z"/>
		<path fill="#FEA628" d="M40.316,32.482l-1.031,0.276c-0.123,0.032-0.196,0.158-0.163,0.28l1.764,6.599
			c0.031,0.122,0.157,0.194,0.28,0.162l1.032-0.276c0.122-0.032,0.195-0.159,0.161-0.28l-1.761-6.599
			C40.564,32.522,40.438,32.449,40.316,32.482z M40.863,34.46l-1.069,0.285l-0.06-0.23l1.067-0.286L40.863,34.46z M40.727,33.943
			l-1.069,0.284l-0.063-0.23l1.069-0.285L40.727,33.943z M40.588,33.427l-1.069,0.285l-0.062-0.23l1.068-0.286L40.588,33.427z"/>
		<path fill="#FEA628" d="M38.681,62.754l-1.032,0.275c-0.123,0.033-0.195,0.158-0.163,0.279l1.763,6.602
			c0.032,0.122,0.158,0.193,0.28,0.16l1.033-0.275c0.121-0.031,0.194-0.158,0.16-0.277l-1.761-6.601
			C38.927,62.793,38.802,62.721,38.681,62.754z M39.227,64.73l-1.068,0.285l-0.061-0.229l1.067-0.286L39.227,64.73z M39.089,64.215
			L38.021,64.5l-0.063-0.23l1.07-0.285L39.089,64.215z M38.951,63.699l-1.067,0.285l-0.063-0.23l1.07-0.285L38.951,63.699z"/>
		<circle fill="#FEA628" cx="56.773" cy="41.243" r="3.34"/>
		<g>
			<path fill="#FEA628" d="M54.139,67.271c-0.348,0.15-0.691,0.289-0.936,0.201l0.006,2.264c-0.02,0.652,0.542,1.199,1.195,1.218
				c0.652,0.021,1.174-0.492,1.195-1.146l0.002-3.269C55.602,66.541,54.488,67.12,54.139,67.271z"/>
			<path fill="#FEA628" d="M55.602,62.809L55.6,61.104l-0.553-1.277c0.02-0.219,0.04-0.389,0.062-0.537
				c-0.188-0.141-0.418-0.229-0.672-0.234c-0.649-0.021-0.748,0.055-1.229,1.02l0.003,3.726
				C53.229,63.791,55.602,62.809,55.602,62.809z"/>
		</g>
		<path fill="#FEA628" d="M59.135,63.345l-1.803-4.194c-0.217-0.615-0.893-0.938-1.509-0.723c-0.615,0.219-0.677,0.322-0.776,1.397
			l1.408,3.266l-3.727,1.593c-0.617,0.211-0.945,0.883-0.736,1.5c0.212,0.618,0.885,0.948,1.502,0.735l4.818-2.041
			c0.033-0.009,0.066-0.013,0.101-0.024C59.027,64.636,59.352,63.963,59.135,63.345z"/>
		<path fill="#FEA628" d="M66.363,44.872l-0.815,0.467l3.021,1.524h-4.266l-0.891,2.784c0.477,0.153,1.331,0.393,1.322,1.619
			c-0.012,1.295-1.027,1.68-1.683,1.68l-0.265,0.002l-0.477,1.259h5.974l1.985-7.322l0.037-0.021L66.363,44.872z"/>
		<path fill="#FEA628" d="M63.053,50.082h-3.92c-0.02,0-0.035,0.006-0.053,0.006l-0.01-2.521c0-0.327-1.383-2.571-3.295-2.448
			c-2.254,0.147-3.01,2.121-3.01,2.448v12.338c0,0.325,0.471,0.591,1.051,0.591h4.203c0.582,0,1.051-0.266,1.051-0.591v-6.833
			c-0.252-0.012-0.584-0.043-0.824-0.111c-0.436-0.125-2.303-2.552-2.676-2.987c-0.373-0.436-0.574-1.537,1.039,0.389
			c1.649,1.967,2.471,2.1,2.471,2.1c0.004,0-0.012-0.109-0.012-0.109l0.02,0.109l3.946-0.125c0.651,0,1.202-0.42,1.202-1.072
			C64.236,50.614,63.707,50.082,63.053,50.082z"/>
		<g>
			<path fill="#FEA628" d="M38.849,7.748c-0.375-0.213-0.982-0.203-1.35,0.022l-14.005,8.583c-0.368,0.225-0.668,0.762-0.668,1.193
				v0.886c0,0.431,0.104,0.72,0.229,0.643c0.126-0.077,0.23-0.352,0.23-0.609c0-0.258,0.303-0.649,0.674-0.87L37.594,9.5
				c0.371-0.22,0.977-0.219,1.347,0.001l13.433,8.026c0.37,0.221,0.673,0.618,0.673,0.882c0,0.264,0.309,0.651,0.688,0.859
				l17.496,9.667c0.377,0.208,0.688,0.731,0.689,1.163l0.008,1.872c0.002,0.431,0.356,0.784,0.788,0.784h0.331
				c0.432,0,0.784-0.353,0.784-0.784v-3.555c0-0.431-0.308-0.958-0.683-1.171L38.849,7.748z"/>
			<path fill="none" stroke="#FEA628" stroke-width="0.4091" stroke-miterlimit="10" d="M38.849,7.748
				c-0.375-0.213-0.982-0.203-1.35,0.022l-14.005,8.583c-0.368,0.225-0.668,0.762-0.668,1.193v0.886c0,0.431,0.104,0.72,0.229,0.643
				c0.126-0.077,0.23-0.352,0.23-0.609c0-0.258,0.303-0.649,0.674-0.87L37.594,9.5c0.371-0.22,0.977-0.219,1.347,0.001l13.433,8.026
				c0.37,0.221,0.673,0.618,0.673,0.882c0,0.264,0.309,0.651,0.688,0.859l17.496,9.667c0.377,0.208,0.688,0.731,0.689,1.163
				l0.008,1.872c0.002,0.431,0.356,0.784,0.788,0.784h0.331c0.432,0,0.784-0.353,0.784-0.784v-3.555
				c0-0.431-0.308-0.958-0.683-1.171L38.849,7.748z"/>
		</g>
	</g>
</g>
</svg>
