<?xml version="1.0" encoding="utf-8"?>
<!-- Generator: Adobe Illustrator 16.0.0, SVG Export Plug-In . SVG Version: 6.00 Build 0)  -->
<!DOCTYPE svg PUBLIC "-//W3C//DTD SVG 1.1//EN" "http://www.w3.org/Graphics/SVG/1.1/DTD/svg11.dtd">
<svg version="1.1" id="Layer_1" xmlns="http://www.w3.org/2000/svg" xmlns:xlink="http://www.w3.org/1999/xlink" x="0px" y="0px"
	 width="7.062px" height="11px" viewBox="0 0 7.062 11" enable-background="new 0 0 7.062 11" xml:space="preserve">
<g>
	<path fill="#1F3F50" d="M1.38,10.801c-0.249,0-0.482-0.098-0.658-0.273c-0.388-0.389-0.388-0.98-0.023-1.346l3.594-3.783
		L0.697,1.805c-0.36-0.361-0.36-0.948,0-1.31C0.896,0.296,1.13,0.199,1.379,0.199s0.483,0.097,0.659,0.273l4.327,4.327
		c0.184,0.183,0.282,0.437,0.271,0.696c0.012,0.27-0.088,0.524-0.271,0.708l-4.327,4.326C1.863,10.704,1.629,10.801,1.38,10.801z"/>
	<path fill="#FFFFFF" d="M1.38,0.299c0.223,0,0.432,0.086,0.588,0.243L6.295,4.87c0.164,0.163,0.252,0.389,0.241,0.638
		c0.011,0.233-0.077,0.46-0.241,0.624l-4.327,4.325C1.811,10.613,1.602,10.7,1.38,10.7c-0.222,0-0.432-0.087-0.611-0.271
		c-0.324-0.324-0.324-0.854,0.003-1.184l3.525-3.71l0.135-0.141L4.294,5.259L0.768,1.734C0.447,1.412,0.447,0.888,0.792,0.542
		C0.949,0.386,1.157,0.299,1.38,0.299 M1.379,0.1c-0.263,0-0.526,0.1-0.729,0.301L0.627,0.425c-0.401,0.403-0.401,1.048,0,1.45
		L4.153,5.4L0.627,9.109c-0.401,0.404-0.401,1.061,0,1.463l0.023,0.025C0.852,10.8,1.116,10.9,1.38,10.9
		c0.265,0,0.527-0.102,0.729-0.301l4.327-4.326c0.213-0.213,0.312-0.496,0.3-0.774c0.013-0.277-0.087-0.559-0.3-0.771L2.109,0.401
		C1.907,0.2,1.644,0.1,1.379,0.1L1.379,0.1z"/>
</g>
</svg>
