<?xml version="1.0" encoding="utf-8"?>
<!-- Generator: Adobe Illustrator 16.0.0, SVG Export Plug-In . SVG Version: 6.00 Build 0)  -->
<!DOCTYPE svg PUBLIC "-//W3C//DTD SVG 1.1//EN" "http://www.w3.org/Graphics/SVG/1.1/DTD/svg11.dtd">
<svg version="1.1" id="Layer_1" xmlns="http://www.w3.org/2000/svg" xmlns:xlink="http://www.w3.org/1999/xlink" x="0px" y="0px"
	 width="42.062px" height="40px" viewBox="0 0 42.062 40" enable-background="new 0 0 42.062 40" xml:space="preserve">
<polygon fill="#DEDDDD" points="21.073,0.035 26.056,15.216 42.033,15.263 29.135,24.693 34.026,39.903 21.073,30.551 8.119,39.903 
	13.012,24.693 0.113,15.263 16.091,15.216 "/>
</svg>
