<?xml version="1.0" encoding="utf-8"?>
<!-- Generator: Adobe Illustrator 16.0.0, SVG Export Plug-In . SVG Version: 6.00 Build 0)  -->
<!DOCTYPE svg PUBLIC "-//W3C//DTD SVG 1.1//EN" "http://www.w3.org/Graphics/SVG/1.1/DTD/svg11.dtd">
<svg version="1.1" id="Layer_1" xmlns="http://www.w3.org/2000/svg" xmlns:xlink="http://www.w3.org/1999/xlink" x="0px" y="0px"
	 width="24.333px" height="24.333px" viewBox="0 0 24.333 24.333" enable-background="new 0 0 24.333 24.333" xml:space="preserve">
<path fill="#3C5B9A" d="M12.208,0.208c-6.627,0-12,5.373-12,12c0,6.627,5.373,12,12,12c6.627,0,12-5.373,12-12
	C24.208,5.581,18.835,0.208,12.208,0.208z M17.208,6.208h-1.82c-1.427,0-2.18,0.26-2.18,1.25v1.75h3.869l-0.439,4h-3.43v9h-3v-9h-3
	v-4h3V7.122c0-2.931,1.768-4.526,4.379-4.526c1.253,0,2.621,0.093,2.621,0.133V6.208z"/>
</svg>
