<?xml version="1.0" encoding="utf-8"?>
<!-- Generator: Adobe Illustrator 16.0.0, SVG Export Plug-In . SVG Version: 6.00 Build 0)  -->
<!DOCTYPE svg PUBLIC "-//W3C//DTD SVG 1.1//EN" "http://www.w3.org/Graphics/SVG/1.1/DTD/svg11.dtd">
<svg version="1.1" id="Layer_1" xmlns="http://www.w3.org/2000/svg" xmlns:xlink="http://www.w3.org/1999/xlink" x="0px" y="0px"
	 width="350px" height="350px" viewBox="0 0 350 350" enable-background="new 0 0 350 350" xml:space="preserve">
<circle fill="#354F5E" stroke="#233B48" stroke-width="4" stroke-miterlimit="10" cx="34.969" cy="34.958" r="32.295"/>
<circle fill="#EFC84E" stroke="#C9A43D" stroke-width="4" stroke-miterlimit="10" cx="104.969" cy="34.958" r="32.295"/>
<circle fill="#3DB29C" stroke="#359685" stroke-width="4" stroke-miterlimit="10" cx="174.969" cy="34.958" r="32.295"/>
<circle fill="#F27E30" stroke="#DD5F19" stroke-width="4" stroke-miterlimit="10" cx="244.969" cy="34.958" r="32.295"/>
<circle fill="#CC4242" stroke="#AD3B3B" stroke-width="4" stroke-miterlimit="10" cx="314.969" cy="34.958" r="32.295"/>
<circle fill="#354F5E" stroke="#233B48" stroke-width="4" stroke-miterlimit="10" cx="34.969" cy="104.958" r="32.295"/>
<circle fill="#EFC84E" stroke="#C9A43D" stroke-width="4" stroke-miterlimit="10" cx="104.969" cy="104.958" r="32.295"/>
<circle fill="#3DB29C" stroke="#359685" stroke-width="4" stroke-miterlimit="10" cx="174.969" cy="104.958" r="32.295"/>
<circle fill="#F27E30" stroke="#DD5F19" stroke-width="4" stroke-miterlimit="10" cx="244.969" cy="104.958" r="32.295"/>
<circle fill="#CC4242" stroke="#AD3B3B" stroke-width="4" stroke-miterlimit="10" cx="314.969" cy="104.958" r="32.295"/>
<circle fill="#354F5E" stroke="#233B48" stroke-width="4" stroke-miterlimit="10" cx="34.969" cy="174.958" r="32.295"/>
<circle fill="#EFC84E" stroke="#C9A43D" stroke-width="4" stroke-miterlimit="10" cx="104.969" cy="174.958" r="32.295"/>
<circle fill="#3DB29C" stroke="#359685" stroke-width="4" stroke-miterlimit="10" cx="174.969" cy="174.958" r="32.295"/>
<circle fill="#F27E30" stroke="#DD5F19" stroke-width="4" stroke-miterlimit="10" cx="244.969" cy="174.958" r="32.295"/>
<circle fill="#CC4242" stroke="#AD3B3B" stroke-width="4" stroke-miterlimit="10" cx="314.969" cy="174.958" r="32.295"/>
<circle fill="#354F5E" stroke="#233B48" stroke-width="4" stroke-miterlimit="10" cx="34.969" cy="244.958" r="32.295"/>
<circle fill="#EFC84E" stroke="#C9A43D" stroke-width="4" stroke-miterlimit="10" cx="104.969" cy="244.958" r="32.295"/>
<circle fill="#3DB29C" stroke="#359685" stroke-width="4" stroke-miterlimit="10" cx="174.969" cy="244.958" r="32.295"/>
<circle fill="#F27E30" stroke="#DD5F19" stroke-width="4" stroke-miterlimit="10" cx="244.969" cy="244.958" r="32.295"/>
<circle fill="#CC4242" stroke="#AD3B3B" stroke-width="4" stroke-miterlimit="10" cx="314.969" cy="244.958" r="32.295"/>
<circle fill="#354F5E" stroke="#233B48" stroke-width="4" stroke-miterlimit="10" cx="34.969" cy="314.958" r="32.295"/>
<circle fill="#EFC84E" stroke="#C9A43D" stroke-width="4" stroke-miterlimit="10" cx="104.969" cy="314.958" r="32.295"/>
<circle fill="#3DB29C" stroke="#359685" stroke-width="4" stroke-miterlimit="10" cx="174.969" cy="314.958" r="32.295"/>
<circle fill="#F27E30" stroke="#DD5F19" stroke-width="4" stroke-miterlimit="10" cx="244.969" cy="314.958" r="32.295"/>
<circle fill="#CC4242" stroke="#AD3B3B" stroke-width="4" stroke-miterlimit="10" cx="314.969" cy="314.958" r="32.295"/>
<g>
	<path fill="#233B48" d="M49.658,49.079c0,0.329-0.268,0.594-0.594,0.594H22.146c-0.327,0-0.593-0.265-0.593-0.594v-2.137
		c0-0.329,0.266-0.594,0.593-0.594h26.918c0.327,0,0.593,0.265,0.593,0.594L49.658,49.079L49.658,49.079z"/>
	<path fill="#233B48" d="M46.094,44.33c0,0.327-0.266,0.594-0.593,0.594H24.521c-0.328,0-0.594-0.267-0.594-0.594v-4.156
		c0-0.33,0.266-0.594,0.594-0.594H45.5c0.328,0,0.593,0.264,0.593,0.594V44.33L46.094,44.33z"/>
	<path fill="#233B48" d="M20.643,52.444c-1.357,0-2.455-1.099-2.455-2.454V37.085c0-1.356,1.098-2.455,2.455-2.455l0,0
		c1.354,0,2.454,1.098,2.454,2.455V49.99C23.097,51.346,21.997,52.444,20.643,52.444L20.643,52.444z"/>
	<path fill="#233B48" d="M23.097,37.045c0,1.355-1.1,2.256-2.454,2.256h-3.009c-1.356,0-2.455-0.901-2.455-2.256l0,0
		c0-1.355,1.099-2.454,2.455-2.454h3.009C21.997,34.591,23.097,35.69,23.097,37.045L23.097,37.045z"/>
	<path fill="#233B48" d="M54.843,37.045c0,1.355-1.099,2.256-2.455,2.256H49.38c-1.355,0-2.454-0.901-2.454-2.256l0,0
		c0-1.355,1.099-2.454,2.454-2.454h3.008C53.744,34.591,54.843,35.69,54.843,37.045L54.843,37.045z"/>
	<path fill="#233B48" d="M49.38,52.444c-1.355,0-2.454-1.099-2.454-2.454V37.085c0-1.356,1.099-2.455,2.454-2.455l0,0
		c1.355,0,2.454,1.098,2.454,2.455V49.99C51.834,51.346,50.735,52.444,49.38,52.444L49.38,52.444z"/>
	<path fill="#233B48" d="M46.292,37.961V21.647c0-2.186-1.772-3.958-3.958-3.958H27.688c-2.187,0-3.959,1.771-3.959,3.958v16.125
		c0,0,0.092,0.481,0.7,0.5c0.564,0.019,19.019,0.042,21.572,0C46.327,38.268,46.292,37.961,46.292,37.961z"/>
</g>
<g>
	<path fill="#C9A43D" d="M119.658,49.079c0,0.329-0.268,0.594-0.594,0.594H92.146c-0.327,0-0.593-0.265-0.593-0.594v-2.137
		c0-0.329,0.266-0.594,0.593-0.594h26.918c0.327,0,0.593,0.265,0.593,0.594L119.658,49.079L119.658,49.079z"/>
	<path fill="#C9A43D" d="M116.094,44.33c0,0.327-0.266,0.594-0.593,0.594H94.521c-0.328,0-0.594-0.267-0.594-0.594v-4.156
		c0-0.33,0.266-0.594,0.594-0.594H115.5c0.328,0,0.593,0.264,0.593,0.594V44.33L116.094,44.33z"/>
	<path fill="#C9A43D" d="M90.643,52.444c-1.357,0-2.455-1.099-2.455-2.454V37.085c0-1.356,1.098-2.455,2.455-2.455l0,0
		c1.354,0,2.454,1.098,2.454,2.455V49.99C93.097,51.346,91.997,52.444,90.643,52.444L90.643,52.444z"/>
	<path fill="#C9A43D" d="M93.097,37.045c0,1.355-1.1,2.256-2.454,2.256h-3.009c-1.356,0-2.455-0.901-2.455-2.256l0,0
		c0-1.355,1.099-2.454,2.455-2.454h3.009C91.997,34.591,93.097,35.69,93.097,37.045L93.097,37.045z"/>
	<path fill="#C9A43D" d="M124.843,37.045c0,1.355-1.099,2.256-2.455,2.256h-3.008c-1.355,0-2.454-0.901-2.454-2.256l0,0
		c0-1.355,1.099-2.454,2.454-2.454h3.008C123.744,34.591,124.843,35.69,124.843,37.045L124.843,37.045z"/>
	<path fill="#C9A43D" d="M119.38,52.444c-1.355,0-2.454-1.099-2.454-2.454V37.085c0-1.356,1.099-2.455,2.454-2.455l0,0
		c1.355,0,2.454,1.098,2.454,2.455V49.99C121.834,51.346,120.735,52.444,119.38,52.444L119.38,52.444z"/>
	<path fill="#C9A43D" d="M116.292,37.961V21.647c0-2.186-1.772-3.958-3.958-3.958H97.688c-2.187,0-3.959,1.771-3.959,3.958v16.125
		c0,0,0.092,0.481,0.7,0.5c0.564,0.019,19.019,0.042,21.572,0C116.327,38.268,116.292,37.961,116.292,37.961z"/>
</g>
<g>
	<path fill="#359685" d="M189.658,49.079c0,0.329-0.268,0.594-0.594,0.594h-26.919c-0.327,0-0.593-0.265-0.593-0.594v-2.137
		c0-0.329,0.266-0.594,0.593-0.594h26.919c0.326,0,0.593,0.265,0.593,0.594L189.658,49.079L189.658,49.079z"/>
	<path fill="#359685" d="M186.094,44.33c0,0.327-0.266,0.594-0.594,0.594h-20.979c-0.328,0-0.594-0.267-0.594-0.594v-4.156
		c0-0.33,0.266-0.594,0.594-0.594H185.5c0.328,0,0.594,0.264,0.594,0.594V44.33L186.094,44.33z"/>
	<path fill="#359685" d="M160.643,52.444c-1.357,0-2.455-1.099-2.455-2.454V37.085c0-1.356,1.098-2.455,2.455-2.455l0,0
		c1.354,0,2.454,1.098,2.454,2.455V49.99C163.097,51.346,161.997,52.444,160.643,52.444L160.643,52.444z"/>
	<path fill="#359685" d="M163.097,37.045c0,1.355-1.1,2.256-2.454,2.256h-3.009c-1.356,0-2.455-0.901-2.455-2.256l0,0
		c0-1.355,1.099-2.454,2.455-2.454h3.009C161.997,34.591,163.097,35.69,163.097,37.045L163.097,37.045z"/>
	<path fill="#359685" d="M194.843,37.045c0,1.355-1.099,2.256-2.454,2.256h-3.009c-1.355,0-2.454-0.901-2.454-2.256l0,0
		c0-1.355,1.1-2.454,2.454-2.454h3.009C193.744,34.591,194.843,35.69,194.843,37.045L194.843,37.045z"/>
	<path fill="#359685" d="M189.38,52.444c-1.355,0-2.454-1.099-2.454-2.454V37.085c0-1.356,1.1-2.455,2.454-2.455l0,0
		c1.355,0,2.454,1.098,2.454,2.455V49.99C191.834,51.346,190.735,52.444,189.38,52.444L189.38,52.444z"/>
	<path fill="#359685" d="M186.292,37.961V21.647c0-2.186-1.772-3.958-3.958-3.958h-14.646c-2.187,0-3.959,1.771-3.959,3.958v16.125
		c0,0,0.092,0.481,0.7,0.5c0.564,0.019,19.019,0.042,21.571,0C186.327,38.268,186.292,37.961,186.292,37.961z"/>
</g>
<g>
	<path fill="#DD5F19" d="M259.658,49.079c0,0.329-0.268,0.594-0.594,0.594h-26.919c-0.327,0-0.593-0.265-0.593-0.594v-2.137
		c0-0.329,0.266-0.594,0.593-0.594h26.919c0.326,0,0.593,0.265,0.593,0.594L259.658,49.079L259.658,49.079z"/>
	<path fill="#DD5F19" d="M256.094,44.33c0,0.327-0.266,0.594-0.594,0.594h-20.979c-0.328,0-0.594-0.267-0.594-0.594v-4.156
		c0-0.33,0.266-0.594,0.594-0.594H255.5c0.328,0,0.594,0.264,0.594,0.594V44.33L256.094,44.33z"/>
	<path fill="#DD5F19" d="M230.643,52.444c-1.356,0-2.455-1.099-2.455-2.454V37.085c0-1.356,1.099-2.455,2.455-2.455l0,0
		c1.354,0,2.454,1.098,2.454,2.455V49.99C233.097,51.346,231.997,52.444,230.643,52.444L230.643,52.444z"/>
	<path fill="#DD5F19" d="M233.097,37.045c0,1.355-1.1,2.256-2.454,2.256h-3.008c-1.356,0-2.455-0.901-2.455-2.256l0,0
		c0-1.355,1.099-2.454,2.455-2.454h3.008C231.997,34.591,233.097,35.69,233.097,37.045L233.097,37.045z"/>
	<path fill="#DD5F19" d="M264.843,37.045c0,1.355-1.099,2.256-2.454,2.256h-3.009c-1.355,0-2.454-0.901-2.454-2.256l0,0
		c0-1.355,1.1-2.454,2.454-2.454h3.009C263.744,34.591,264.843,35.69,264.843,37.045L264.843,37.045z"/>
	<path fill="#DD5F19" d="M259.38,52.444c-1.355,0-2.454-1.099-2.454-2.454V37.085c0-1.356,1.1-2.455,2.454-2.455l0,0
		c1.355,0,2.454,1.098,2.454,2.455V49.99C261.834,51.346,260.735,52.444,259.38,52.444L259.38,52.444z"/>
	<path fill="#DD5F19" d="M256.292,37.961V21.647c0-2.186-1.772-3.958-3.958-3.958h-14.646c-2.187,0-3.96,1.771-3.96,3.958v16.125
		c0,0,0.093,0.481,0.7,0.5c0.564,0.019,19.019,0.042,21.571,0C256.327,38.268,256.292,37.961,256.292,37.961z"/>
</g>
<g>
	<path fill="#AD3B3B" d="M329.658,49.079c0,0.329-0.268,0.594-0.594,0.594h-26.919c-0.327,0-0.593-0.265-0.593-0.594v-2.137
		c0-0.329,0.266-0.594,0.593-0.594h26.919c0.326,0,0.593,0.265,0.593,0.594L329.658,49.079L329.658,49.079z"/>
	<path fill="#AD3B3B" d="M326.094,44.33c0,0.327-0.266,0.594-0.594,0.594h-20.979c-0.328,0-0.594-0.267-0.594-0.594v-4.156
		c0-0.33,0.266-0.594,0.594-0.594H325.5c0.328,0,0.594,0.264,0.594,0.594V44.33L326.094,44.33z"/>
	<path fill="#AD3B3B" d="M300.643,52.444c-1.356,0-2.455-1.099-2.455-2.454V37.085c0-1.356,1.099-2.455,2.455-2.455l0,0
		c1.354,0,2.454,1.098,2.454,2.455V49.99C303.097,51.346,301.997,52.444,300.643,52.444L300.643,52.444z"/>
	<path fill="#AD3B3B" d="M303.097,37.045c0,1.355-1.1,2.256-2.454,2.256h-3.008c-1.356,0-2.455-0.901-2.455-2.256l0,0
		c0-1.355,1.099-2.454,2.455-2.454h3.008C301.997,34.591,303.097,35.69,303.097,37.045L303.097,37.045z"/>
	<path fill="#AD3B3B" d="M334.843,37.045c0,1.355-1.099,2.256-2.454,2.256h-3.009c-1.355,0-2.454-0.901-2.454-2.256l0,0
		c0-1.355,1.1-2.454,2.454-2.454h3.009C333.744,34.591,334.843,35.69,334.843,37.045L334.843,37.045z"/>
	<path fill="#AD3B3B" d="M329.38,52.444c-1.355,0-2.454-1.099-2.454-2.454V37.085c0-1.356,1.1-2.455,2.454-2.455l0,0
		c1.355,0,2.454,1.098,2.454,2.455V49.99C331.834,51.346,330.735,52.444,329.38,52.444L329.38,52.444z"/>
	<path fill="#AD3B3B" d="M326.292,37.961V21.647c0-2.186-1.772-3.958-3.958-3.958h-14.646c-2.187,0-3.96,1.771-3.96,3.958v16.125
		c0,0,0.093,0.481,0.7,0.5c0.564,0.019,19.019,0.042,21.571,0C326.327,38.268,326.292,37.961,326.292,37.961z"/>
</g>
<g>
	<g>
		<path fill="#233B48" d="M17.855,101.331c-0.072,0-0.132,0.059-0.133,0.132c0,0,0,0.386,0,0.646c0,0.792,0.04,2.359,0.151,3.121
			c1.128,7.707,5.514,14.073,15.128,14.021c9.178-0.05,14.001-6.315,15.129-14.022c0.112-0.761,0.144-2.328,0.144-3.12
			c0-0.26,0.005-0.646,0.005-0.646c0.001-0.073-0.058-0.132-0.13-0.132H17.855L17.855,101.331z"/>
	</g>
	<g>
		<path fill="#233B48" d="M44.026,101.588c-1.507,0.247-2.854,0.842-3.943,1.669l6.147-1.007c0.047,0.213,0.064,0.435,0.1,0.652
			c0.015,0.087,0.03,0.189,0.047,0.296c2.415,0.362,4.36,1.991,4.724,4.215c0.469,2.865-1.861,5.632-5.205,6.181
			c-0.544,0.089-1.082,0.113-1.603,0.079c-0.316,0.471-0.666,0.923-1.05,1.354c0.95,0.161,1.958,0.171,2.985,0.002
			c4.33-0.709,7.349-4.293,6.74-8.005C52.362,103.312,48.358,100.878,44.026,101.588z"/>
	</g>
	<path fill="#233B48" d="M37.93,96.814c0,0,1.341-0.092,1.288-0.145c-1.605-1.601-0.813-3.162,0.104-4.99
		c0.967-1.927,2.063-4.104-0.104-6.263c-0.213-0.214-0.56-0.208-0.772,0.005c-0.214,0.214-0.213,0.562,0.001,0.775
		c1.606,1.601,0.813,3.146-0.104,4.974C37.466,92.921,36.481,94.985,37.93,96.814z"/>
	<path fill="#233B48" d="M32.665,96.814c0,0,1.341-0.079,1.288-0.124c-1.606-1.372-0.814-2.71,0.104-4.277
		c0.967-1.652,2.062-3.518-0.104-5.368c-0.213-0.183-0.56-0.178-0.772,0.004c-0.214,0.184-0.213,0.482,0.001,0.666
		c1.606,1.371,0.815,2.696-0.103,4.262C32.201,93.478,31.216,95.246,32.665,96.814z"/>
	<path fill="#233B48" d="M27.4,96.814c0,0,1.341-0.092,1.288-0.145c-1.606-1.601-0.814-3.162,0.103-4.99
		c0.967-1.927,2.063-4.104-0.103-6.263c-0.214-0.213-0.56-0.208-0.773,0.005c-0.213,0.214-0.213,0.562,0.001,0.775
		c1.606,1.601,0.814,3.146-0.103,4.974C26.936,92.921,25.952,94.985,27.4,96.814z"/>
	<g>
		<path fill="#233B48" d="M17.679,99.899c0,0.072,0.061,0.131,0.133,0.131h30.251c0.073,0,0.133-0.059,0.133-0.131
			c0,0,0.001-0.279,0.001-0.449c0-0.369,0.006-0.972,0.006-0.972c0.001-0.072-0.058-0.132-0.13-0.132H17.81
			c-0.072,0-0.132,0.06-0.132,0.132c0,0-0.001,0.603-0.001,0.972C17.677,99.619,17.679,99.899,17.679,99.899z"/>
	</g>
	<g>
		<path fill="#233B48" d="M16.982,123.916c0.001,0.097,0.08,0.175,0.176,0.175h32.333c0.096,0,0.176-0.079,0.176-0.175
			c0,0,0.002-0.501,0.002-0.781c0-0.608,0.006-1.644,0.006-1.644c0.001-0.096-0.077-0.175-0.174-0.175H17.156
			c-0.097,0-0.175,0.079-0.175,0.175c0,0-0.001,1.036-0.001,1.644C16.98,123.415,16.982,123.916,16.982,123.916z"/>
	</g>
</g>
<g>
	<g>
		<path fill="#C9A43D" d="M87.855,101.331c-0.072,0-0.132,0.059-0.133,0.132c0,0,0,0.386,0,0.646c0,0.792,0.04,2.359,0.151,3.121
			c1.128,7.707,5.514,14.073,15.128,14.021c9.178-0.05,14.001-6.315,15.129-14.022c0.112-0.761,0.144-2.328,0.144-3.12
			c0-0.26,0.005-0.646,0.005-0.646c0.001-0.073-0.058-0.132-0.13-0.132H87.855L87.855,101.331z"/>
	</g>
	<g>
		<path fill="#C9A43D" d="M114.026,101.588c-1.507,0.247-2.854,0.842-3.943,1.669l6.147-1.007c0.047,0.213,0.064,0.435,0.1,0.652
			c0.015,0.087,0.03,0.189,0.047,0.296c2.415,0.362,4.36,1.991,4.724,4.215c0.469,2.865-1.861,5.632-5.205,6.181
			c-0.544,0.089-1.082,0.113-1.603,0.079c-0.316,0.471-0.666,0.923-1.05,1.354c0.95,0.161,1.958,0.171,2.985,0.002
			c4.33-0.709,7.349-4.293,6.74-8.005C122.362,103.312,118.358,100.878,114.026,101.588z"/>
	</g>
	<path fill="#C9A43D" d="M107.93,96.814c0,0,1.341-0.092,1.288-0.145c-1.605-1.601-0.813-3.162,0.104-4.99
		c0.967-1.927,2.063-4.104-0.104-6.263c-0.213-0.214-0.56-0.208-0.772,0.005c-0.214,0.214-0.213,0.562,0.001,0.775
		c1.606,1.601,0.813,3.146-0.104,4.974C107.466,92.921,106.481,94.985,107.93,96.814z"/>
	<path fill="#C9A43D" d="M102.665,96.814c0,0,1.341-0.079,1.288-0.124c-1.606-1.372-0.814-2.71,0.104-4.277
		c0.967-1.652,2.062-3.518-0.104-5.368c-0.213-0.183-0.56-0.178-0.772,0.004c-0.214,0.184-0.213,0.482,0.001,0.666
		c1.606,1.371,0.815,2.696-0.103,4.262C102.201,93.478,101.216,95.246,102.665,96.814z"/>
	<path fill="#C9A43D" d="M97.4,96.814c0,0,1.341-0.092,1.288-0.145c-1.606-1.601-0.814-3.162,0.103-4.99
		c0.967-1.927,2.063-4.104-0.103-6.263c-0.214-0.213-0.56-0.208-0.773,0.005c-0.213,0.214-0.213,0.562,0.001,0.775
		c1.606,1.601,0.814,3.146-0.103,4.974C96.936,92.921,95.952,94.985,97.4,96.814z"/>
	<g>
		<path fill="#C9A43D" d="M87.679,99.899c0,0.072,0.061,0.131,0.133,0.131h30.251c0.073,0,0.133-0.059,0.133-0.131
			c0,0,0.001-0.279,0.001-0.449c0-0.369,0.006-0.972,0.006-0.972c0.001-0.072-0.058-0.132-0.13-0.132H87.81
			c-0.072,0-0.132,0.06-0.132,0.132c0,0-0.001,0.603-0.001,0.972C87.677,99.619,87.679,99.899,87.679,99.899z"/>
	</g>
	<g>
		<path fill="#C9A43D" d="M86.982,123.916c0.001,0.097,0.08,0.175,0.176,0.175h32.333c0.096,0,0.176-0.079,0.176-0.175
			c0,0,0.002-0.501,0.002-0.781c0-0.608,0.006-1.644,0.006-1.644c0.001-0.096-0.077-0.175-0.174-0.175H87.156
			c-0.097,0-0.175,0.079-0.175,0.175c0,0-0.001,1.036-0.001,1.644C86.98,123.415,86.982,123.916,86.982,123.916z"/>
	</g>
</g>
<g>
	<g>
		<path fill="#359685" d="M157.855,101.331c-0.072,0-0.132,0.059-0.133,0.132c0,0,0,0.386,0,0.646c0,0.792,0.04,2.359,0.151,3.121
			c1.128,7.707,5.514,14.073,15.128,14.021c9.178-0.05,14.001-6.315,15.129-14.022c0.112-0.761,0.144-2.328,0.144-3.12
			c0-0.26,0.006-0.646,0.006-0.646c0-0.073-0.059-0.132-0.131-0.132H157.855L157.855,101.331z"/>
	</g>
	<g>
		<path fill="#359685" d="M184.026,101.588c-1.507,0.247-2.854,0.842-3.943,1.669l6.147-1.007c0.047,0.213,0.064,0.435,0.1,0.652
			c0.015,0.087,0.03,0.189,0.047,0.296c2.415,0.362,4.359,1.991,4.725,4.215c0.469,2.865-1.861,5.632-5.205,6.181
			c-0.544,0.089-1.082,0.113-1.603,0.079c-0.315,0.471-0.666,0.923-1.05,1.354c0.949,0.161,1.958,0.171,2.985,0.002
			c4.33-0.709,7.349-4.293,6.739-8.005C192.361,103.312,188.358,100.878,184.026,101.588z"/>
	</g>
	<path fill="#359685" d="M177.93,96.814c0,0,1.342-0.092,1.288-0.145c-1.605-1.601-0.813-3.162,0.104-4.99
		c0.967-1.927,2.063-4.104-0.104-6.263c-0.213-0.214-0.56-0.208-0.772,0.005c-0.214,0.214-0.213,0.562,0.002,0.775
		c1.605,1.601,0.812,3.146-0.104,4.974C177.466,92.921,176.48,94.985,177.93,96.814z"/>
	<path fill="#359685" d="M172.665,96.814c0,0,1.341-0.079,1.288-0.124c-1.606-1.372-0.814-2.71,0.104-4.277
		c0.967-1.652,2.062-3.518-0.104-5.368c-0.213-0.183-0.56-0.178-0.772,0.004c-0.214,0.184-0.213,0.482,0.001,0.666
		c1.606,1.371,0.815,2.696-0.103,4.262C172.201,93.478,171.216,95.246,172.665,96.814z"/>
	<path fill="#359685" d="M167.4,96.814c0,0,1.341-0.092,1.288-0.145c-1.606-1.601-0.814-3.162,0.103-4.99
		c0.967-1.927,2.063-4.104-0.103-6.263c-0.214-0.213-0.56-0.208-0.773,0.005c-0.213,0.214-0.213,0.562,0.001,0.775
		c1.606,1.601,0.814,3.146-0.103,4.974C166.936,92.921,165.952,94.985,167.4,96.814z"/>
	<g>
		<path fill="#359685" d="M157.679,99.899c0,0.072,0.061,0.131,0.133,0.131h30.251c0.073,0,0.133-0.059,0.134-0.131
			c0,0,0-0.279,0-0.449c0-0.369,0.006-0.972,0.006-0.972c0.002-0.072-0.058-0.132-0.13-0.132H157.81
			c-0.072,0-0.132,0.06-0.132,0.132c0,0-0.001,0.603-0.001,0.972C157.677,99.619,157.679,99.899,157.679,99.899z"/>
	</g>
	<g>
		<path fill="#359685" d="M156.982,123.916c0.001,0.097,0.08,0.175,0.176,0.175h32.333c0.096,0,0.176-0.079,0.176-0.175
			c0,0,0.002-0.501,0.002-0.781c0-0.608,0.006-1.644,0.006-1.644c0.001-0.096-0.077-0.175-0.174-0.175h-32.345
			c-0.097,0-0.175,0.079-0.175,0.175c0,0-0.001,1.036-0.001,1.644C156.98,123.415,156.982,123.916,156.982,123.916z"/>
	</g>
</g>
<g>
	<g>
		<path fill="#DD5F19" d="M227.855,101.331c-0.072,0-0.132,0.059-0.133,0.132c0,0,0,0.386,0,0.646c0,0.792,0.04,2.359,0.151,3.121
			c1.128,7.707,5.514,14.073,15.128,14.021c9.179-0.05,14.002-6.315,15.13-14.022c0.112-0.761,0.144-2.328,0.144-3.12
			c0-0.26,0.006-0.646,0.006-0.646c0-0.073-0.059-0.132-0.131-0.132H227.855L227.855,101.331z"/>
	</g>
	<g>
		<path fill="#DD5F19" d="M254.026,101.588c-1.507,0.247-2.854,0.842-3.943,1.669l6.147-1.007c0.047,0.213,0.064,0.435,0.1,0.652
			c0.015,0.087,0.03,0.189,0.047,0.296c2.415,0.362,4.359,1.991,4.725,4.215c0.469,2.865-1.861,5.632-5.205,6.181
			c-0.544,0.089-1.082,0.113-1.603,0.079c-0.315,0.471-0.666,0.923-1.05,1.354c0.949,0.161,1.958,0.171,2.985,0.002
			c4.33-0.709,7.349-4.293,6.739-8.005C262.361,103.312,258.358,100.878,254.026,101.588z"/>
	</g>
	<path fill="#DD5F19" d="M247.93,96.814c0,0,1.342-0.092,1.288-0.145c-1.605-1.601-0.813-3.162,0.104-4.99
		c0.967-1.927,2.063-4.104-0.104-6.263c-0.213-0.214-0.56-0.208-0.772,0.005c-0.214,0.214-0.213,0.562,0.002,0.775
		c1.605,1.601,0.812,3.146-0.104,4.974C247.466,92.921,246.48,94.985,247.93,96.814z"/>
	<path fill="#DD5F19" d="M242.665,96.814c0,0,1.341-0.079,1.288-0.124c-1.605-1.372-0.814-2.71,0.104-4.277
		c0.967-1.652,2.062-3.518-0.104-5.368c-0.213-0.183-0.56-0.178-0.772,0.004c-0.214,0.184-0.214,0.482,0.001,0.666
		c1.605,1.371,0.814,2.696-0.104,4.262C242.201,93.478,241.217,95.246,242.665,96.814z"/>
	<path fill="#DD5F19" d="M237.4,96.814c0,0,1.341-0.092,1.288-0.145c-1.606-1.601-0.814-3.162,0.103-4.99
		c0.968-1.927,2.064-4.104-0.103-6.263c-0.214-0.213-0.56-0.208-0.773,0.005c-0.213,0.214-0.213,0.562,0.001,0.775
		c1.606,1.601,0.814,3.146-0.103,4.974C236.936,92.921,235.951,94.985,237.4,96.814z"/>
	<g>
		<path fill="#DD5F19" d="M227.679,99.899c0.001,0.072,0.061,0.131,0.134,0.131h30.251c0.073,0,0.133-0.059,0.134-0.131
			c0,0,0-0.279,0-0.449c0-0.369,0.006-0.972,0.006-0.972c0.002-0.072-0.058-0.132-0.13-0.132H227.81
			c-0.072,0-0.132,0.06-0.132,0.132c0,0-0.001,0.603-0.001,0.972C227.677,99.619,227.679,99.899,227.679,99.899z"/>
	</g>
	<g>
		<path fill="#DD5F19" d="M226.982,123.916c0.001,0.097,0.08,0.175,0.176,0.175h32.333c0.096,0,0.176-0.079,0.176-0.175
			c0,0,0.002-0.501,0.002-0.781c0-0.608,0.006-1.644,0.006-1.644c0.001-0.096-0.077-0.175-0.174-0.175h-32.345
			c-0.097,0-0.175,0.079-0.175,0.175c0,0-0.001,1.036-0.001,1.644C226.98,123.415,226.982,123.916,226.982,123.916z"/>
	</g>
</g>
<g>
	<g>
		<path fill="#AD3B3B" d="M297.855,101.331c-0.072,0-0.132,0.059-0.133,0.132c0,0,0,0.386,0,0.646c0,0.792,0.04,2.359,0.151,3.121
			c1.128,7.707,5.514,14.073,15.128,14.021c9.179-0.05,14.002-6.315,15.13-14.022c0.112-0.761,0.144-2.328,0.144-3.12
			c0-0.26,0.006-0.646,0.006-0.646c0-0.073-0.059-0.132-0.131-0.132H297.855L297.855,101.331z"/>
	</g>
	<g>
		<path fill="#AD3B3B" d="M324.026,101.588c-1.507,0.247-2.854,0.842-3.943,1.669l6.147-1.007c0.047,0.213,0.064,0.435,0.1,0.652
			c0.015,0.087,0.03,0.189,0.047,0.296c2.415,0.362,4.359,1.991,4.725,4.215c0.469,2.865-1.861,5.632-5.205,6.181
			c-0.544,0.089-1.082,0.113-1.603,0.079c-0.315,0.471-0.666,0.923-1.05,1.354c0.949,0.161,1.958,0.171,2.985,0.002
			c4.33-0.709,7.349-4.293,6.739-8.005C332.361,103.312,328.358,100.878,324.026,101.588z"/>
	</g>
	<path fill="#AD3B3B" d="M317.93,96.814c0,0,1.342-0.092,1.288-0.145c-1.605-1.601-0.813-3.162,0.104-4.99
		c0.967-1.927,2.063-4.104-0.104-6.263c-0.213-0.214-0.56-0.208-0.772,0.005c-0.214,0.214-0.213,0.562,0.002,0.775
		c1.605,1.601,0.812,3.146-0.104,4.974C317.466,92.921,316.48,94.985,317.93,96.814z"/>
	<path fill="#AD3B3B" d="M312.665,96.814c0,0,1.341-0.079,1.288-0.124c-1.605-1.372-0.814-2.71,0.104-4.277
		c0.967-1.652,2.062-3.518-0.104-5.368c-0.213-0.183-0.56-0.178-0.772,0.004c-0.214,0.184-0.214,0.482,0.001,0.666
		c1.605,1.371,0.814,2.696-0.104,4.262C312.201,93.478,311.217,95.246,312.665,96.814z"/>
	<path fill="#AD3B3B" d="M307.4,96.814c0,0,1.341-0.092,1.288-0.145c-1.606-1.601-0.814-3.162,0.103-4.99
		c0.968-1.927,2.064-4.104-0.103-6.263c-0.214-0.213-0.56-0.208-0.773,0.005c-0.213,0.214-0.213,0.562,0.001,0.775
		c1.606,1.601,0.814,3.146-0.103,4.974C306.936,92.921,305.951,94.985,307.4,96.814z"/>
	<g>
		<path fill="#AD3B3B" d="M297.679,99.899c0.001,0.072,0.061,0.131,0.134,0.131h30.251c0.073,0,0.133-0.059,0.134-0.131
			c0,0,0-0.279,0-0.449c0-0.369,0.006-0.972,0.006-0.972c0.002-0.072-0.058-0.132-0.13-0.132H297.81
			c-0.072,0-0.132,0.06-0.132,0.132c0,0-0.001,0.603-0.001,0.972C297.677,99.619,297.679,99.899,297.679,99.899z"/>
	</g>
	<g>
		<path fill="#AD3B3B" d="M296.982,123.916c0.001,0.097,0.08,0.175,0.176,0.175h32.333c0.096,0,0.176-0.079,0.176-0.175
			c0,0,0.002-0.501,0.002-0.781c0-0.608,0.006-1.644,0.006-1.644c0.001-0.096-0.077-0.175-0.174-0.175h-32.345
			c-0.097,0-0.175,0.079-0.175,0.175c0,0-0.001,1.036-0.001,1.644C296.98,123.415,296.982,123.916,296.982,123.916z"/>
	</g>
</g>
<g>
	<g>
		<path fill="#233B48" d="M31.184,188.6c-0.039,0.076-0.144,0.103-0.233,0.059l-4.124-2.067c-0.09-0.046-0.131-0.146-0.092-0.223
			c0,0,8.343-17.444,8.168-17.1c-0.175,0.345,8.346-16.64,8.346-16.64c0.039-0.078,0.144-0.104,0.233-0.059
			c0,0,1.052,0.137,2.496,0.845c1.499,0.735,2.278,1.55,2.278,1.55c0.09,0.045,0.131,0.144,0.092,0.222
			c0,0-8.205,16.374-8.346,16.641C39.863,172.093,31.184,188.6,31.184,188.6z"/>
		<g>
			<path fill="#233B48" d="M26.825,191.783c-1.485-0.745-1.673-1.346-1.764-1.479l-0.474,5.536c0.035,0.137,0.17,0.203,0.302,0.147
				l4.163-3.674C28.87,192.317,28.274,192.509,26.825,191.783z"/>
		</g>
		<path fill="#233B48" d="M46.149,153.075c0.664,0.325,1.186,0.667,1.562,0.946l1.072-2.137c0.136-0.27,0.026-0.598-0.243-0.733
			l-2.171-1.088c-0.27-0.136-0.598-0.026-0.733,0.243l-1.074,2.141C44.985,152.574,45.531,152.772,46.149,153.075z"/>
		<path fill="#233B48" d="M46.674,166.175c0.692-1.379,0.708-2.867,0.158-3.902l2.837-5.658c0.057-0.113-0.265-0.401-0.412-0.474
			c-0.146-0.074-0.386-0.067-0.443,0.045l-2.693,5.371l-0.153,0.306l-0.102,0.202c0.723,0.882,0.808,2.386,0.117,3.765
			c-0.691,1.377-1.948,2.208-3.087,2.157l-0.123,0.246l-0.131,0.262l-2.715,5.414c-0.057,0.113,0.082,0.36,0.228,0.433
			c0.146,0.074,0.57,0.108,0.626-0.005l2.846-5.676c0.004-0.008,0.006-0.017,0.009-0.025
			C44.798,168.459,45.982,167.556,46.674,166.175z"/>
		<path fill="#233B48" d="M30.681,189.583c-0.044,0.091-0.154,0.128-0.244,0.082l-4.121-2.066c-0.089-0.046-0.126-0.153-0.081-0.244
			l0.165-0.33c0.045-0.09,0.155-0.126,0.245-0.081l4.121,2.068c0.09,0.044,0.126,0.153,0.081,0.243L30.681,189.583z"/>
		<path fill="#233B48" d="M30.191,190.561c-0.045,0.089-0.154,0.126-0.245,0.08l-4.12-2.065c-0.09-0.045-0.126-0.154-0.081-0.245
			l0.165-0.328c0.045-0.09,0.154-0.126,0.244-0.082l4.12,2.067c0.09,0.045,0.126,0.154,0.081,0.244L30.191,190.561z"/>
		<path fill="#233B48" d="M29.162,192.198c-0.045,0.09-0.309,0.338-0.398,0.293c0,0-2.898,0.085-2.494,0.294
			c0.405,0.21-1.159-1.992-1.159-1.992c-0.09-0.044-0.111-0.57-0.066-0.659l0.365-1.135c0.046-0.09,0.155-0.126,0.245-0.081
			l4.117,2.064c0.09,0.045,0.126,0.155,0.082,0.245L29.162,192.198z"/>
	</g>
	<path fill="#233B48" d="M37.414,197.35c0,0.545-0.258,0.988-0.577,0.988H20.803c-0.319,0-0.577-0.443-0.577-0.988l0,0
		c0-0.546,0.258-0.989,0.577-0.989h16.035C37.156,196.36,37.414,196.804,37.414,197.35L37.414,197.35z"/>
</g>
<g>
	<g>
		<path fill="#C9A43D" d="M101.184,188.6c-0.039,0.076-0.144,0.103-0.233,0.059l-4.124-2.067c-0.09-0.046-0.131-0.146-0.092-0.223
			c0,0,8.343-17.444,8.168-17.1c-0.175,0.345,8.346-16.64,8.346-16.64c0.039-0.078,0.144-0.104,0.233-0.059
			c0,0,1.052,0.137,2.496,0.845c1.499,0.735,2.278,1.55,2.278,1.55c0.09,0.045,0.131,0.144,0.092,0.222
			c0,0-8.205,16.374-8.346,16.641C109.863,172.093,101.184,188.6,101.184,188.6z"/>
		<g>
			<path fill="#C9A43D" d="M96.825,191.783c-1.485-0.745-1.673-1.346-1.764-1.479l-0.474,5.536c0.035,0.137,0.17,0.203,0.302,0.147
				l4.163-3.674C98.87,192.317,98.274,192.509,96.825,191.783z"/>
		</g>
		<path fill="#C9A43D" d="M116.149,153.075c0.664,0.325,1.186,0.667,1.562,0.946l1.072-2.137c0.136-0.27,0.026-0.598-0.243-0.733
			l-2.171-1.088c-0.27-0.136-0.598-0.026-0.733,0.243l-1.074,2.141C114.985,152.574,115.531,152.772,116.149,153.075z"/>
		<path fill="#C9A43D" d="M116.674,166.175c0.692-1.379,0.708-2.867,0.158-3.902l2.837-5.658c0.057-0.113-0.265-0.401-0.412-0.474
			c-0.146-0.074-0.386-0.067-0.443,0.045l-2.693,5.371l-0.153,0.306l-0.102,0.202c0.723,0.882,0.808,2.386,0.117,3.765
			c-0.691,1.377-1.948,2.208-3.087,2.157l-0.123,0.246l-0.131,0.262l-2.715,5.414c-0.057,0.113,0.082,0.36,0.228,0.433
			c0.146,0.074,0.57,0.108,0.626-0.005l2.846-5.676c0.004-0.008,0.006-0.017,0.009-0.025
			C114.798,168.459,115.982,167.556,116.674,166.175z"/>
		<path fill="#C9A43D" d="M100.681,189.583c-0.044,0.091-0.154,0.128-0.244,0.082l-4.121-2.066
			c-0.089-0.046-0.126-0.153-0.081-0.244l0.165-0.33c0.045-0.09,0.155-0.126,0.245-0.081l4.121,2.068
			c0.09,0.044,0.126,0.153,0.081,0.243L100.681,189.583z"/>
		<path fill="#C9A43D" d="M100.191,190.561c-0.045,0.089-0.154,0.126-0.245,0.08l-4.12-2.065c-0.09-0.045-0.126-0.154-0.081-0.245
			l0.165-0.328c0.045-0.09,0.154-0.126,0.244-0.082l4.12,2.067c0.09,0.045,0.126,0.154,0.081,0.244L100.191,190.561z"/>
		<path fill="#C9A43D" d="M99.162,192.198c-0.045,0.09-0.309,0.338-0.398,0.293c0,0-2.898,0.085-2.494,0.294
			c0.405,0.21-1.159-1.992-1.159-1.992c-0.09-0.044-0.111-0.57-0.066-0.659l0.365-1.135c0.046-0.09,0.155-0.126,0.245-0.081
			l4.117,2.064c0.09,0.045,0.126,0.155,0.082,0.245L99.162,192.198z"/>
	</g>
	<path fill="#C9A43D" d="M107.414,197.35c0,0.545-0.258,0.988-0.577,0.988H90.803c-0.319,0-0.577-0.443-0.577-0.988l0,0
		c0-0.546,0.258-0.989,0.577-0.989h16.035C107.156,196.36,107.414,196.804,107.414,197.35L107.414,197.35z"/>
</g>
<g>
	<g>
		<path fill="#359685" d="M171.184,188.6c-0.039,0.076-0.144,0.103-0.233,0.059l-4.124-2.067c-0.09-0.046-0.131-0.146-0.092-0.223
			c0,0,8.343-17.444,8.168-17.1c-0.175,0.345,8.346-16.64,8.346-16.64c0.038-0.078,0.144-0.104,0.233-0.059
			c0,0,1.052,0.137,2.496,0.845c1.499,0.735,2.278,1.55,2.278,1.55c0.091,0.045,0.132,0.144,0.092,0.222
			c0,0-8.204,16.374-8.346,16.641C179.863,172.093,171.184,188.6,171.184,188.6z"/>
		<g>
			<path fill="#359685" d="M166.825,191.783c-1.485-0.745-1.673-1.346-1.764-1.479l-0.474,5.536c0.035,0.137,0.17,0.203,0.302,0.147
				l4.163-3.674C168.87,192.317,168.274,192.509,166.825,191.783z"/>
		</g>
		<path fill="#359685" d="M186.148,153.075c0.664,0.325,1.187,0.667,1.562,0.946l1.072-2.137c0.137-0.27,0.026-0.598-0.242-0.733
			l-2.171-1.088c-0.271-0.136-0.599-0.026-0.733,0.243l-1.074,2.141C184.985,152.574,185.531,152.772,186.148,153.075z"/>
		<path fill="#359685" d="M186.674,166.175c0.692-1.379,0.708-2.867,0.158-3.902l2.838-5.658c0.057-0.113-0.266-0.401-0.412-0.474
			c-0.146-0.074-0.387-0.067-0.443,0.045l-2.693,5.371l-0.152,0.306l-0.102,0.202c0.723,0.882,0.809,2.386,0.117,3.765
			c-0.691,1.377-1.948,2.208-3.088,2.157l-0.123,0.246l-0.131,0.262l-2.715,5.414c-0.057,0.113,0.082,0.36,0.228,0.433
			c0.146,0.074,0.569,0.108,0.626-0.005l2.847-5.676c0.005-0.008,0.007-0.017,0.009-0.025
			C184.798,168.459,185.982,167.556,186.674,166.175z"/>
		<path fill="#359685" d="M170.681,189.583c-0.044,0.091-0.154,0.128-0.244,0.082l-4.121-2.066
			c-0.089-0.046-0.126-0.153-0.081-0.244l0.165-0.33c0.045-0.09,0.155-0.126,0.245-0.081l4.121,2.068
			c0.09,0.044,0.126,0.153,0.081,0.243L170.681,189.583z"/>
		<path fill="#359685" d="M170.191,190.561c-0.045,0.089-0.154,0.126-0.245,0.08l-4.12-2.065c-0.09-0.045-0.126-0.154-0.081-0.245
			l0.165-0.328c0.045-0.09,0.154-0.126,0.244-0.082l4.12,2.067c0.09,0.045,0.126,0.154,0.081,0.244L170.191,190.561z"/>
		<path fill="#359685" d="M169.162,192.198c-0.045,0.09-0.309,0.338-0.398,0.293c0,0-2.898,0.085-2.494,0.294
			c0.405,0.21-1.159-1.992-1.159-1.992c-0.09-0.044-0.111-0.57-0.066-0.659l0.365-1.135c0.046-0.09,0.155-0.126,0.245-0.081
			l4.117,2.064c0.09,0.045,0.126,0.155,0.082,0.245L169.162,192.198z"/>
	</g>
	<path fill="#359685" d="M177.414,197.35c0,0.545-0.258,0.988-0.576,0.988h-16.035c-0.319,0-0.577-0.443-0.577-0.988l0,0
		c0-0.546,0.258-0.989,0.577-0.989h16.035C177.156,196.36,177.414,196.804,177.414,197.35L177.414,197.35z"/>
</g>
<g>
	<g>
		<path fill="#DD5F19" d="M241.184,188.6c-0.039,0.076-0.143,0.103-0.232,0.059l-4.124-2.067c-0.091-0.046-0.132-0.146-0.093-0.223
			c0,0,8.344-17.444,8.168-17.1c-0.175,0.345,8.347-16.64,8.347-16.64c0.038-0.078,0.144-0.104,0.233-0.059
			c0,0,1.052,0.137,2.496,0.845c1.499,0.735,2.278,1.55,2.278,1.55c0.091,0.045,0.132,0.144,0.092,0.222
			c0,0-8.204,16.374-8.346,16.641C249.863,172.093,241.184,188.6,241.184,188.6z"/>
		<g>
			<path fill="#DD5F19" d="M236.824,191.783c-1.484-0.745-1.672-1.346-1.764-1.479l-0.474,5.536c0.034,0.137,0.17,0.203,0.302,0.147
				l4.163-3.674C238.87,192.317,238.273,192.509,236.824,191.783z"/>
		</g>
		<path fill="#DD5F19" d="M256.148,153.075c0.664,0.325,1.187,0.667,1.562,0.946l1.072-2.137c0.137-0.27,0.026-0.598-0.242-0.733
			l-2.171-1.088c-0.271-0.136-0.599-0.026-0.733,0.243l-1.074,2.141C254.985,152.574,255.531,152.772,256.148,153.075z"/>
		<path fill="#DD5F19" d="M256.674,166.175c0.692-1.379,0.708-2.867,0.158-3.902l2.838-5.658c0.057-0.113-0.266-0.401-0.412-0.474
			c-0.146-0.074-0.387-0.067-0.443,0.045l-2.693,5.371l-0.152,0.306l-0.102,0.202c0.723,0.882,0.809,2.386,0.117,3.765
			c-0.691,1.377-1.948,2.208-3.088,2.157l-0.123,0.246l-0.131,0.262l-2.715,5.414c-0.057,0.113,0.082,0.36,0.228,0.433
			c0.146,0.074,0.569,0.108,0.626-0.005l2.847-5.676c0.005-0.008,0.007-0.017,0.009-0.025
			C254.798,168.459,255.982,167.556,256.674,166.175z"/>
		<path fill="#DD5F19" d="M240.682,189.583c-0.045,0.091-0.154,0.128-0.244,0.082l-4.121-2.066c-0.09-0.046-0.126-0.153-0.08-0.244
			l0.164-0.33c0.045-0.09,0.154-0.126,0.244-0.081l4.121,2.068c0.09,0.044,0.126,0.153,0.081,0.243L240.682,189.583z"/>
		<path fill="#DD5F19" d="M240.191,190.561c-0.045,0.089-0.154,0.126-0.244,0.08l-4.12-2.065c-0.091-0.045-0.126-0.154-0.081-0.245
			l0.165-0.328c0.046-0.09,0.154-0.126,0.244-0.082l4.12,2.067c0.09,0.045,0.127,0.154,0.081,0.244L240.191,190.561z"/>
		<path fill="#DD5F19" d="M239.162,192.198c-0.045,0.09-0.309,0.338-0.398,0.293c0,0-2.898,0.085-2.494,0.294
			c0.405,0.21-1.158-1.992-1.158-1.992c-0.09-0.044-0.111-0.57-0.066-0.659l0.365-1.135c0.045-0.09,0.154-0.126,0.244-0.081
			l4.117,2.064c0.09,0.045,0.127,0.155,0.082,0.245L239.162,192.198z"/>
	</g>
	<path fill="#DD5F19" d="M247.414,197.35c0,0.545-0.258,0.988-0.576,0.988h-16.035c-0.318,0-0.577-0.443-0.577-0.988l0,0
		c0-0.546,0.259-0.989,0.577-0.989h16.035C247.156,196.36,247.414,196.804,247.414,197.35L247.414,197.35z"/>
</g>
<g>
	<g>
		<path fill="#AD3B3B" d="M311.184,188.6c-0.039,0.076-0.143,0.103-0.232,0.059l-4.124-2.067c-0.091-0.046-0.132-0.146-0.093-0.223
			c0,0,8.344-17.444,8.168-17.1c-0.175,0.345,8.347-16.64,8.347-16.64c0.038-0.078,0.144-0.104,0.233-0.059
			c0,0,1.052,0.137,2.496,0.845c1.499,0.735,2.278,1.55,2.278,1.55c0.091,0.045,0.132,0.144,0.092,0.222
			c0,0-8.204,16.374-8.346,16.641C319.863,172.093,311.184,188.6,311.184,188.6z"/>
		<g>
			<path fill="#AD3B3B" d="M306.824,191.783c-1.484-0.745-1.672-1.346-1.764-1.479l-0.474,5.536c0.034,0.137,0.17,0.203,0.302,0.147
				l4.163-3.674C308.87,192.317,308.273,192.509,306.824,191.783z"/>
		</g>
		<path fill="#AD3B3B" d="M326.148,153.075c0.664,0.325,1.187,0.667,1.562,0.946l1.072-2.137c0.137-0.27,0.026-0.598-0.242-0.733
			l-2.171-1.088c-0.271-0.136-0.599-0.026-0.733,0.243l-1.074,2.141C324.985,152.574,325.531,152.772,326.148,153.075z"/>
		<path fill="#AD3B3B" d="M326.674,166.175c0.692-1.379,0.708-2.867,0.158-3.902l2.838-5.658c0.057-0.113-0.266-0.401-0.412-0.474
			c-0.146-0.074-0.387-0.067-0.443,0.045l-2.693,5.371l-0.152,0.306l-0.102,0.202c0.723,0.882,0.809,2.386,0.117,3.765
			c-0.691,1.377-1.948,2.208-3.088,2.157l-0.123,0.246l-0.131,0.262l-2.715,5.414c-0.057,0.113,0.082,0.36,0.228,0.433
			c0.146,0.074,0.569,0.108,0.626-0.005l2.847-5.676c0.005-0.008,0.007-0.017,0.009-0.025
			C324.798,168.459,325.982,167.556,326.674,166.175z"/>
		<path fill="#AD3B3B" d="M310.682,189.583c-0.045,0.091-0.154,0.128-0.244,0.082l-4.121-2.066c-0.09-0.046-0.126-0.153-0.08-0.244
			l0.164-0.33c0.045-0.09,0.154-0.126,0.244-0.081l4.121,2.068c0.09,0.044,0.126,0.153,0.081,0.243L310.682,189.583z"/>
		<path fill="#AD3B3B" d="M310.191,190.561c-0.045,0.089-0.154,0.126-0.244,0.08l-4.12-2.065c-0.091-0.045-0.126-0.154-0.081-0.245
			l0.165-0.328c0.046-0.09,0.154-0.126,0.244-0.082l4.12,2.067c0.09,0.045,0.127,0.154,0.081,0.244L310.191,190.561z"/>
		<path fill="#AD3B3B" d="M309.162,192.198c-0.045,0.09-0.309,0.338-0.398,0.293c0,0-2.898,0.085-2.494,0.294
			c0.405,0.21-1.158-1.992-1.158-1.992c-0.09-0.044-0.111-0.57-0.066-0.659l0.365-1.135c0.045-0.09,0.154-0.126,0.244-0.081
			l4.117,2.064c0.09,0.045,0.127,0.155,0.082,0.245L309.162,192.198z"/>
	</g>
	<path fill="#AD3B3B" d="M317.414,197.35c0,0.545-0.258,0.988-0.576,0.988h-16.035c-0.318,0-0.577-0.443-0.577-0.988l0,0
		c0-0.546,0.259-0.989,0.577-0.989h16.035C317.156,196.36,317.414,196.804,317.414,197.35L317.414,197.35z"/>
</g>
<g>
	<path fill="#233B48" d="M15.165,232.052v26.819c0,0,8.619-3.719,19.393,0v-26.819C34.558,232.052,25.305,228.221,15.165,232.052z"
		/>
	<path fill="#233B48" d="M54.458,232.052v26.819c0,0-8.874-3.719-18.759,0v-26.819C35.699,232.052,44.444,228.221,54.458,232.052z"
		/>
</g>
<g>
	<path fill="#C9A43D" d="M85.165,232.052v26.819c0,0,8.619-3.719,19.393,0v-26.819C104.558,232.052,95.305,228.221,85.165,232.052z"
		/>
	<path fill="#C9A43D" d="M124.458,232.052v26.819c0,0-8.874-3.719-18.759,0v-26.819
		C105.699,232.052,114.444,228.221,124.458,232.052z"/>
</g>
<g>
	<path fill="#359685" d="M155.165,232.052v26.819c0,0,8.619-3.719,19.393,0v-26.819
		C174.558,232.052,165.305,228.221,155.165,232.052z"/>
	<path fill="#359685" d="M194.458,232.052v26.819c0,0-8.874-3.719-18.759,0v-26.819
		C175.699,232.052,184.443,228.221,194.458,232.052z"/>
</g>
<g>
	<path fill="#DD5F19" d="M225.165,232.052v26.819c0,0,8.618-3.719,19.394,0v-26.819
		C244.559,232.052,235.305,228.221,225.165,232.052z"/>
	<path fill="#DD5F19" d="M264.458,232.052v26.819c0,0-8.874-3.719-18.759,0v-26.819
		C245.699,232.052,254.443,228.221,264.458,232.052z"/>
</g>
<g>
	<path fill="#AD3B3B" d="M295.165,232.052v26.819c0,0,8.618-3.719,19.394,0v-26.819
		C314.559,232.052,305.305,228.221,295.165,232.052z"/>
	<path fill="#AD3B3B" d="M334.458,232.052v26.819c0,0-8.874-3.719-18.759,0v-26.819
		C315.699,232.052,324.443,228.221,334.458,232.052z"/>
</g>
<g>
	<path fill="#233B48" d="M37.884,314.64c0,0.05-0.789,0.238-1.217-0.085c-0.32-0.241-0.204-0.689-0.741-0.972
		c-0.293-0.155-0.845-0.133-1.119-0.127c-0.226,0.004-0.393-0.002-0.621,0.139c-0.473,0.295-0.356,0.715-0.769,0.965
		c-0.486,0.293-1.305,0.129-1.305,0.08c0,0,0.024-0.521,0.027-1.197c0.003-0.676-0.027-1.24-0.027-1.24
		c0-0.049,0.04-0.09,0.089-0.09c0,0,0.821,0.252,2.849,0.229c2.385-0.026,2.743-0.229,2.743-0.229c0.05,0,0.089,0.041,0.089,0.09
		c0,0-0.04,0.473-0.04,1.236C37.844,314.203,37.884,314.64,37.884,314.64z"/>
	<path fill="#233B48" d="M9.623,315.189c0,0.07-0.057,0.128-0.127,0.128c0,0-0.92-0.07-0.999-0.08c-0.078-0.01-0.19-0.43-0.8-0.391
		c-0.613,0.041-0.493,0.306-0.684,0.343c-0.145,0.028-0.382-0.057-0.382-0.128v-3.31c0-0.07,0.057-0.126,0.127-0.126l2.609-0.256
		c0.071,0,0.127,0.057,0.127,0.127c0,0-0.045,1.082-0.016,1.879C9.509,314.171,9.623,315.189,9.623,315.189z"/>
	<path fill="#233B48" d="M60.48,315.189c0,0.07,0.057,0.128,0.126,0.128c0,0,0.919-0.07,0.998-0.08c0.078-0.01,0.19-0.43,0.8-0.391
		c0.613,0.041,0.493,0.306,0.684,0.343c0.145,0.028,0.382-0.057,0.382-0.128v-3.31c0-0.07-0.057-0.126-0.127-0.126l-2.609-0.256
		c-0.071,0-0.128,0.057-0.128,0.127c0,0,0.046,1.082,0.016,1.879C60.593,314.171,60.48,315.189,60.48,315.189z"/>
	<path fill="#233B48" d="M60.147,311.349c-0.019-0.83-2.122-2.291-10.312-2.29c-8.19,0-9.724,1.144-10.1,1.399
		c-0.7,0.477-1.289,1.143-1.273,1.909c0,0,0,4.18,0.382,5.601c0.382,1.423,4.752,2.165,10.927,2.164
		c7.279,0,9.993-1.461,9.993-2.164c0,0,0.202-1.155,0.323-3.416C60.206,312.423,60.147,311.349,60.147,311.349z M58.094,315.649
		c-0.204,0.203-0.534,0.203-0.737,0l-4.123-4.124c-0.204-0.204-0.204-0.533,0-0.737c0.203-0.203,0.535-0.203,0.738,0l4.122,4.123
		C58.298,315.114,58.298,315.444,58.094,315.649z M58.573,313.561c-0.204,0.204-0.535,0.204-0.737,0l-2.324-2.323
		c-0.204-0.203-0.204-0.533,0-0.736c0.204-0.205,0.534-0.205,0.738,0l2.323,2.322C58.776,313.026,58.776,313.356,58.573,313.561z"/>
	<path fill="#233B48" d="M30.374,310.458c-0.376-0.256-1.91-1.399-10.1-1.399c-8.19-0.001-10.293,1.46-10.312,2.29
		c0,0-0.059,1.074,0.058,3.203c0.123,2.262,0.325,3.418,0.325,3.418c0,0.701,2.714,2.162,9.993,2.163
		c6.175,0.001,10.545-0.741,10.926-2.163c0.383-1.423,0.383-5.602,0.383-5.602C31.662,311.601,31.073,310.935,30.374,310.458z
		 M29.324,315.649c-0.204,0.203-0.533,0.203-0.738,0l-4.123-4.124c-0.204-0.204-0.204-0.533,0-0.737
		c0.204-0.203,0.534-0.203,0.738,0l4.123,4.123C29.527,315.114,29.527,315.444,29.324,315.649z M29.803,313.561
		c-0.204,0.204-0.534,0.204-0.738,0l-2.322-2.323c-0.204-0.203-0.204-0.533,0-0.736c0.204-0.205,0.534-0.205,0.738,0l2.322,2.322
		C30.006,313.026,30.006,313.356,29.803,313.561z"/>
	<path fill="#233B48" d="M56.155,319.976c0.658,1.237,1.201,2.254,1.234,2.305c0.087,0.137,0.474,0.103,0.474,0.103
		c0.616,0,1.115-0.499,1.115-1.114l-0.913-1.781C57.555,319.663,56.922,319.83,56.155,319.976z"/>
	<path fill="#233B48" d="M13.659,319.848c-0.659,1.237-1.202,2.254-1.235,2.306c-0.087,0.137-0.474,0.104-0.474,0.104
		c-0.616,0-1.115-0.5-1.115-1.116l0.913-1.78C12.259,319.536,12.892,319.702,13.659,319.848z"/>
</g>
<g>
	<path fill="#C9A43D" d="M107.884,314.64c0,0.05-0.789,0.238-1.217-0.085c-0.32-0.241-0.204-0.689-0.741-0.972
		c-0.293-0.155-0.845-0.133-1.119-0.127c-0.226,0.004-0.393-0.002-0.621,0.139c-0.473,0.295-0.356,0.715-0.769,0.965
		c-0.486,0.293-1.305,0.129-1.305,0.08c0,0,0.024-0.521,0.027-1.197c0.003-0.676-0.027-1.24-0.027-1.24
		c0-0.049,0.04-0.09,0.089-0.09c0,0,0.821,0.252,2.849,0.229c2.385-0.026,2.743-0.229,2.743-0.229c0.05,0,0.089,0.041,0.089,0.09
		c0,0-0.04,0.473-0.04,1.236C107.844,314.203,107.884,314.64,107.884,314.64z"/>
	<path fill="#C9A43D" d="M79.623,315.189c0,0.07-0.057,0.128-0.127,0.128c0,0-0.92-0.07-0.999-0.08c-0.078-0.01-0.19-0.43-0.8-0.391
		c-0.613,0.041-0.493,0.306-0.684,0.343c-0.145,0.028-0.382-0.057-0.382-0.128v-3.31c0-0.07,0.057-0.126,0.127-0.126l2.609-0.256
		c0.071,0,0.127,0.057,0.127,0.127c0,0-0.045,1.082-0.016,1.879C79.509,314.171,79.623,315.189,79.623,315.189z"/>
	<path fill="#C9A43D" d="M130.48,315.189c0,0.07,0.057,0.128,0.126,0.128c0,0,0.919-0.07,0.998-0.08c0.078-0.01,0.19-0.43,0.8-0.391
		c0.613,0.041,0.493,0.306,0.684,0.343c0.145,0.028,0.382-0.057,0.382-0.128v-3.31c0-0.07-0.057-0.126-0.127-0.126l-2.609-0.256
		c-0.071,0-0.128,0.057-0.128,0.127c0,0,0.046,1.082,0.016,1.879C130.593,314.171,130.48,315.189,130.48,315.189z"/>
	<path fill="#C9A43D" d="M130.147,311.349c-0.019-0.83-2.122-2.291-10.312-2.29c-8.19,0-9.724,1.144-10.1,1.399
		c-0.7,0.477-1.289,1.143-1.273,1.909c0,0,0,4.18,0.382,5.601c0.382,1.423,4.752,2.165,10.927,2.164
		c7.279,0,9.993-1.461,9.993-2.164c0,0,0.202-1.155,0.323-3.416C130.206,312.423,130.147,311.349,130.147,311.349z M128.094,315.649
		c-0.204,0.203-0.534,0.203-0.737,0l-4.123-4.124c-0.204-0.204-0.204-0.533,0-0.737c0.203-0.203,0.535-0.203,0.738,0l4.122,4.123
		C128.298,315.114,128.298,315.444,128.094,315.649z M128.573,313.561c-0.204,0.204-0.535,0.204-0.737,0l-2.324-2.323
		c-0.204-0.203-0.204-0.533,0-0.736c0.204-0.205,0.534-0.205,0.738,0l2.323,2.322C128.776,313.026,128.776,313.356,128.573,313.561z
		"/>
	<path fill="#C9A43D" d="M100.374,310.458c-0.376-0.256-1.91-1.399-10.1-1.399c-8.19-0.001-10.293,1.46-10.312,2.29
		c0,0-0.059,1.074,0.058,3.203c0.123,2.262,0.325,3.418,0.325,3.418c0,0.701,2.714,2.162,9.993,2.163
		c6.175,0.001,10.545-0.741,10.926-2.163c0.383-1.423,0.383-5.602,0.383-5.602C101.662,311.601,101.073,310.935,100.374,310.458z
		 M99.324,315.649c-0.204,0.203-0.533,0.203-0.738,0l-4.123-4.124c-0.204-0.204-0.204-0.533,0-0.737
		c0.204-0.203,0.534-0.203,0.738,0l4.123,4.123C99.527,315.114,99.527,315.444,99.324,315.649z M99.803,313.561
		c-0.204,0.204-0.534,0.204-0.738,0l-2.322-2.323c-0.204-0.203-0.204-0.533,0-0.736c0.204-0.205,0.534-0.205,0.738,0l2.322,2.322
		C100.006,313.026,100.006,313.356,99.803,313.561z"/>
	<path fill="#C9A43D" d="M126.155,319.976c0.658,1.237,1.201,2.254,1.234,2.305c0.087,0.137,0.474,0.103,0.474,0.103
		c0.616,0,1.115-0.499,1.115-1.114l-0.913-1.781C127.555,319.663,126.922,319.83,126.155,319.976z"/>
	<path fill="#C9A43D" d="M83.659,319.848c-0.659,1.237-1.202,2.254-1.235,2.306c-0.087,0.137-0.474,0.104-0.474,0.104
		c-0.616,0-1.115-0.5-1.115-1.116l0.913-1.78C82.259,319.536,82.892,319.702,83.659,319.848z"/>
</g>
<g>
	<path fill="#359685" d="M177.884,314.64c0,0.05-0.788,0.238-1.217-0.085c-0.32-0.241-0.204-0.689-0.741-0.972
		c-0.293-0.155-0.845-0.133-1.118-0.127c-0.226,0.004-0.393-0.002-0.621,0.139c-0.473,0.295-0.356,0.715-0.769,0.965
		c-0.486,0.293-1.305,0.129-1.305,0.08c0,0,0.024-0.521,0.027-1.197c0.003-0.676-0.027-1.24-0.027-1.24
		c0-0.049,0.04-0.09,0.089-0.09c0,0,0.821,0.252,2.849,0.229c2.385-0.026,2.744-0.229,2.744-0.229c0.049,0,0.089,0.041,0.089,0.09
		c0,0-0.04,0.473-0.04,1.236C177.844,314.203,177.884,314.64,177.884,314.64z"/>
	<path fill="#359685" d="M149.623,315.189c0,0.07-0.057,0.128-0.127,0.128c0,0-0.92-0.07-0.999-0.08
		c-0.078-0.01-0.19-0.43-0.8-0.391c-0.613,0.041-0.493,0.306-0.684,0.343c-0.145,0.028-0.382-0.057-0.382-0.128v-3.31
		c0-0.07,0.057-0.126,0.127-0.126l2.609-0.256c0.071,0,0.127,0.057,0.127,0.127c0,0-0.045,1.082-0.016,1.879
		C149.509,314.171,149.623,315.189,149.623,315.189z"/>
	<path fill="#359685" d="M200.48,315.189c0,0.07,0.057,0.128,0.127,0.128c0,0,0.919-0.07,0.998-0.08
		c0.078-0.01,0.189-0.43,0.8-0.391c0.613,0.041,0.493,0.306,0.684,0.343c0.146,0.028,0.382-0.057,0.382-0.128v-3.31
		c0-0.07-0.057-0.126-0.127-0.126l-2.609-0.256c-0.07,0-0.127,0.057-0.127,0.127c0,0,0.046,1.082,0.016,1.879
		C200.594,314.171,200.48,315.189,200.48,315.189z"/>
	<path fill="#359685" d="M200.147,311.349c-0.019-0.83-2.122-2.291-10.312-2.29c-8.189,0-9.724,1.144-10.1,1.399
		c-0.7,0.477-1.289,1.143-1.273,1.909c0,0,0,4.18,0.383,5.601c0.382,1.423,4.752,2.165,10.927,2.164
		c7.278,0,9.993-1.461,9.993-2.164c0,0,0.201-1.155,0.323-3.416C200.206,312.423,200.147,311.349,200.147,311.349z M198.094,315.649
		c-0.204,0.203-0.533,0.203-0.737,0l-4.123-4.124c-0.204-0.204-0.204-0.533,0-0.737c0.203-0.203,0.534-0.203,0.738,0l4.122,4.123
		C198.298,315.114,198.298,315.444,198.094,315.649z M198.573,313.561c-0.204,0.204-0.534,0.204-0.737,0l-2.324-2.323
		c-0.203-0.203-0.203-0.533,0-0.736c0.204-0.205,0.535-0.205,0.738,0l2.323,2.322C198.776,313.026,198.776,313.356,198.573,313.561z
		"/>
	<path fill="#359685" d="M170.374,310.458c-0.376-0.256-1.91-1.399-10.1-1.399c-8.19-0.001-10.293,1.46-10.312,2.29
		c0,0-0.059,1.074,0.058,3.203c0.123,2.262,0.325,3.418,0.325,3.418c0,0.701,2.714,2.162,9.993,2.163
		c6.175,0.001,10.545-0.741,10.926-2.163c0.383-1.423,0.383-5.602,0.383-5.602C171.662,311.601,171.073,310.935,170.374,310.458z
		 M169.324,315.649c-0.204,0.203-0.533,0.203-0.738,0l-4.123-4.124c-0.204-0.204-0.204-0.533,0-0.737
		c0.204-0.203,0.534-0.203,0.738,0l4.123,4.123C169.527,315.114,169.527,315.444,169.324,315.649z M169.803,313.561
		c-0.204,0.204-0.534,0.204-0.738,0l-2.322-2.323c-0.204-0.203-0.204-0.533,0-0.736c0.204-0.205,0.534-0.205,0.738,0l2.322,2.322
		C170.006,313.026,170.006,313.356,169.803,313.561z"/>
	<path fill="#359685" d="M196.155,319.976c0.657,1.237,1.201,2.254,1.234,2.305c0.087,0.137,0.474,0.103,0.474,0.103
		c0.616,0,1.115-0.499,1.115-1.114l-0.912-1.781C197.555,319.663,196.922,319.83,196.155,319.976z"/>
	<path fill="#359685" d="M153.659,319.848c-0.659,1.237-1.202,2.254-1.235,2.306c-0.087,0.137-0.474,0.104-0.474,0.104
		c-0.616,0-1.115-0.5-1.115-1.116l0.913-1.78C152.259,319.536,152.892,319.702,153.659,319.848z"/>
</g>
<g>
	<path fill="#DD5F19" d="M247.884,314.64c0,0.05-0.788,0.238-1.217-0.085c-0.32-0.241-0.204-0.689-0.741-0.972
		c-0.293-0.155-0.845-0.133-1.118-0.127c-0.226,0.004-0.393-0.002-0.62,0.139c-0.474,0.295-0.357,0.715-0.77,0.965
		c-0.486,0.293-1.305,0.129-1.305,0.08c0,0,0.023-0.521,0.026-1.197c0.003-0.676-0.026-1.24-0.026-1.24
		c0-0.049,0.039-0.09,0.089-0.09c0,0,0.821,0.252,2.849,0.229c2.385-0.026,2.744-0.229,2.744-0.229c0.049,0,0.089,0.041,0.089,0.09
		c0,0-0.04,0.473-0.04,1.236C247.844,314.203,247.884,314.64,247.884,314.64z"/>
	<path fill="#DD5F19" d="M219.623,315.189c0,0.07-0.057,0.128-0.127,0.128c0,0-0.92-0.07-0.998-0.08s-0.19-0.43-0.801-0.391
		c-0.613,0.041-0.492,0.306-0.684,0.343c-0.145,0.028-0.383-0.057-0.383-0.128v-3.31c0-0.07,0.057-0.126,0.128-0.126l2.608-0.256
		c0.072,0,0.128,0.057,0.128,0.127c0,0-0.045,1.082-0.016,1.879C219.51,314.171,219.623,315.189,219.623,315.189z"/>
	<path fill="#DD5F19" d="M270.48,315.189c0,0.07,0.057,0.128,0.127,0.128c0,0,0.919-0.07,0.998-0.08
		c0.078-0.01,0.189-0.43,0.8-0.391c0.613,0.041,0.493,0.306,0.684,0.343c0.146,0.028,0.382-0.057,0.382-0.128v-3.31
		c0-0.07-0.057-0.126-0.127-0.126l-2.609-0.256c-0.07,0-0.127,0.057-0.127,0.127c0,0,0.046,1.082,0.016,1.879
		C270.594,314.171,270.48,315.189,270.48,315.189z"/>
	<path fill="#DD5F19" d="M270.147,311.349c-0.019-0.83-2.122-2.291-10.312-2.29c-8.189,0-9.724,1.144-10.1,1.399
		c-0.7,0.477-1.289,1.143-1.273,1.909c0,0,0,4.18,0.383,5.601c0.382,1.423,4.752,2.165,10.927,2.164
		c7.278,0,9.993-1.461,9.993-2.164c0,0,0.201-1.155,0.323-3.416C270.206,312.423,270.147,311.349,270.147,311.349z M268.094,315.649
		c-0.204,0.203-0.533,0.203-0.737,0l-4.123-4.124c-0.204-0.204-0.204-0.533,0-0.737c0.203-0.203,0.534-0.203,0.738,0l4.122,4.123
		C268.298,315.114,268.298,315.444,268.094,315.649z M268.573,313.561c-0.204,0.204-0.534,0.204-0.737,0l-2.324-2.323
		c-0.203-0.203-0.203-0.533,0-0.736c0.204-0.205,0.535-0.205,0.738,0l2.323,2.322C268.776,313.026,268.776,313.356,268.573,313.561z
		"/>
	<path fill="#DD5F19" d="M240.373,310.458c-0.376-0.256-1.909-1.399-10.1-1.399c-8.189-0.001-10.293,1.46-10.312,2.29
		c0,0-0.059,1.074,0.058,3.203c0.123,2.262,0.325,3.418,0.325,3.418c0,0.701,2.714,2.162,9.993,2.163
		c6.174,0.001,10.545-0.741,10.926-2.163c0.383-1.423,0.383-5.602,0.383-5.602C241.662,311.601,241.073,310.935,240.373,310.458z
		 M239.324,315.649c-0.204,0.203-0.533,0.203-0.738,0l-4.123-4.124c-0.203-0.204-0.203-0.533,0-0.737
		c0.204-0.203,0.535-0.203,0.738,0l4.123,4.123C239.527,315.114,239.527,315.444,239.324,315.649z M239.803,313.561
		c-0.203,0.204-0.534,0.204-0.738,0l-2.322-2.323c-0.203-0.203-0.203-0.533,0-0.736c0.203-0.205,0.533-0.205,0.738,0l2.322,2.322
		C240.006,313.026,240.006,313.356,239.803,313.561z"/>
	<path fill="#DD5F19" d="M266.155,319.976c0.657,1.237,1.201,2.254,1.234,2.305c0.087,0.137,0.474,0.103,0.474,0.103
		c0.616,0,1.115-0.499,1.115-1.114l-0.912-1.781C267.555,319.663,266.922,319.83,266.155,319.976z"/>
	<path fill="#DD5F19" d="M223.658,319.848c-0.658,1.237-1.201,2.254-1.234,2.306c-0.087,0.137-0.474,0.104-0.474,0.104
		c-0.616,0-1.115-0.5-1.115-1.116l0.913-1.78C222.259,319.536,222.892,319.702,223.658,319.848z"/>
</g>
<g>
	<path fill="#AD3B3B" d="M317.884,314.64c0,0.05-0.788,0.238-1.217-0.085c-0.32-0.241-0.204-0.689-0.741-0.972
		c-0.293-0.155-0.845-0.133-1.118-0.127c-0.226,0.004-0.393-0.002-0.62,0.139c-0.474,0.295-0.357,0.715-0.77,0.965
		c-0.486,0.293-1.305,0.129-1.305,0.08c0,0,0.023-0.521,0.026-1.197c0.003-0.676-0.026-1.24-0.026-1.24
		c0-0.049,0.039-0.09,0.089-0.09c0,0,0.821,0.252,2.849,0.229c2.385-0.026,2.744-0.229,2.744-0.229c0.049,0,0.089,0.041,0.089,0.09
		c0,0-0.04,0.473-0.04,1.236C317.844,314.203,317.884,314.64,317.884,314.64z"/>
	<path fill="#AD3B3B" d="M289.623,315.189c0,0.07-0.057,0.128-0.127,0.128c0,0-0.92-0.07-0.998-0.08s-0.19-0.43-0.801-0.391
		c-0.613,0.041-0.492,0.306-0.684,0.343c-0.145,0.028-0.383-0.057-0.383-0.128v-3.31c0-0.07,0.057-0.126,0.128-0.126l2.608-0.256
		c0.072,0,0.128,0.057,0.128,0.127c0,0-0.045,1.082-0.016,1.879C289.51,314.171,289.623,315.189,289.623,315.189z"/>
	<path fill="#AD3B3B" d="M340.48,315.189c0,0.07,0.057,0.128,0.127,0.128c0,0,0.919-0.07,0.998-0.08
		c0.078-0.01,0.189-0.43,0.8-0.391c0.613,0.041,0.493,0.306,0.684,0.343c0.146,0.028,0.382-0.057,0.382-0.128v-3.31
		c0-0.07-0.057-0.126-0.127-0.126l-2.609-0.256c-0.07,0-0.127,0.057-0.127,0.127c0,0,0.046,1.082,0.016,1.879
		C340.594,314.171,340.48,315.189,340.48,315.189z"/>
	<path fill="#AD3B3B" d="M340.147,311.349c-0.019-0.83-2.122-2.291-10.312-2.29c-8.189,0-9.724,1.144-10.1,1.399
		c-0.7,0.477-1.289,1.143-1.273,1.909c0,0,0,4.18,0.383,5.601c0.382,1.423,4.752,2.165,10.927,2.164
		c7.278,0,9.993-1.461,9.993-2.164c0,0,0.201-1.155,0.323-3.416C340.206,312.423,340.147,311.349,340.147,311.349z M338.094,315.649
		c-0.204,0.203-0.533,0.203-0.737,0l-4.123-4.124c-0.204-0.204-0.204-0.533,0-0.737c0.203-0.203,0.534-0.203,0.738,0l4.122,4.123
		C338.298,315.114,338.298,315.444,338.094,315.649z M338.573,313.561c-0.204,0.204-0.534,0.204-0.737,0l-2.324-2.323
		c-0.203-0.203-0.203-0.533,0-0.736c0.204-0.205,0.535-0.205,0.738,0l2.323,2.322C338.776,313.026,338.776,313.356,338.573,313.561z
		"/>
	<path fill="#AD3B3B" d="M310.373,310.458c-0.376-0.256-1.909-1.399-10.1-1.399c-8.189-0.001-10.293,1.46-10.312,2.29
		c0,0-0.059,1.074,0.058,3.203c0.123,2.262,0.325,3.418,0.325,3.418c0,0.701,2.714,2.162,9.993,2.163
		c6.174,0.001,10.545-0.741,10.926-2.163c0.383-1.423,0.383-5.602,0.383-5.602C311.662,311.601,311.073,310.935,310.373,310.458z
		 M309.324,315.649c-0.204,0.203-0.533,0.203-0.738,0l-4.123-4.124c-0.203-0.204-0.203-0.533,0-0.737
		c0.204-0.203,0.535-0.203,0.738,0l4.123,4.123C309.527,315.114,309.527,315.444,309.324,315.649z M309.803,313.561
		c-0.203,0.204-0.534,0.204-0.738,0l-2.322-2.323c-0.203-0.203-0.203-0.533,0-0.736c0.203-0.205,0.533-0.205,0.738,0l2.322,2.322
		C310.006,313.026,310.006,313.356,309.803,313.561z"/>
	<path fill="#AD3B3B" d="M336.155,319.976c0.657,1.237,1.201,2.254,1.234,2.305c0.087,0.137,0.474,0.103,0.474,0.103
		c0.616,0,1.115-0.499,1.115-1.114l-0.912-1.781C337.555,319.663,336.922,319.83,336.155,319.976z"/>
	<path fill="#AD3B3B" d="M293.658,319.848c-0.658,1.237-1.201,2.254-1.234,2.306c-0.087,0.137-0.474,0.104-0.474,0.104
		c-0.616,0-1.115-0.5-1.115-1.116l0.913-1.78C292.259,319.536,292.892,319.702,293.658,319.848z"/>
</g>
</svg>
