<?xml version="1.0" encoding="utf-8"?>
<!-- Generator: Adobe Illustrator 16.0.0, SVG Export Plug-In . SVG Version: 6.00 Build 0)  -->
<!DOCTYPE svg PUBLIC "-//W3C//DTD SVG 1.1//EN" "http://www.w3.org/Graphics/SVG/1.1/DTD/svg11.dtd">
<svg version="1.1" id="Layer_1" xmlns="http://www.w3.org/2000/svg" xmlns:xlink="http://www.w3.org/1999/xlink" x="0px" y="0px"
	 width="19.292px" height="38.541px" viewBox="0 0 19.292 38.541" enable-background="new 0 0 19.292 38.541" xml:space="preserve">
<g id="Layer_1_1_" display="none">
</g>
<g id="Layer_1_copy" display="none">
</g>
<g id="Layer_1_copy_2" display="none">
</g>
<g id="Layer_1_copy_3" display="none">
</g>
<path fill="none" stroke="#3DB29C" stroke-width="1.0588" stroke-miterlimit="10" d="M18.71,9.917c0,4.971-4.032,9-9,9
	c-4.974,0-9-4.029-9-9s4.026-9,9-9C14.678,0.917,18.71,4.946,18.71,9.917z"/>
<g>
	<path fill="none" stroke="#3DB29C" stroke-width="1.0588" stroke-miterlimit="10" d="M18.71,28.97c0,4.971-4.032,9-9,9
		c-4.974,0-9-4.029-9-9s4.026-9,9-9C14.678,19.97,18.71,23.999,18.71,28.97z"/>
	<circle fill="#3DB29C" cx="9.71" cy="28.97" r="4.5"/>
</g>
</svg>
