<?xml version="1.0" encoding="utf-8"?>
<!-- Generator: Adobe Illustrator 16.0.0, SVG Export Plug-In . SVG Version: 6.00 Build 0)  -->
<!DOCTYPE svg PUBLIC "-//W3C//DTD SVG 1.1//EN" "http://www.w3.org/Graphics/SVG/1.1/DTD/svg11.dtd">
<svg version="1.1" id="Layer_1" xmlns="http://www.w3.org/2000/svg" xmlns:xlink="http://www.w3.org/1999/xlink" x="0px" y="0px"
	 width="15.292px" height="15.625px" viewBox="0 0 19.292 19.625" enable-background="new 0 0 19.292 19.625" xml:space="preserve">
<g id="Layer_1_1_" display="none">
</g>
<g id="Layer_1_copy" display="none">
</g>
<g id="Layer_1_copy_2" display="none">
</g>
<g id="Layer_1_copy_3" display="none">
</g>
<path fill="none" stroke="#EAEAEA" stroke-width="1.0588" stroke-miterlimit="10" d="M18.71,9.917c0,4.972-4.032,9-9,9
	c-4.974,0-9-4.028-9-9c0-4.971,4.026-9,9-9C14.678,0.917,18.71,4.946,18.71,9.917z"/>
</svg>
