<?xml version="1.0" encoding="utf-8"?>
<!-- Generator: Adobe Illustrator 16.0.0, SVG Export Plug-In . SVG Version: 6.00 Build 0)  -->
<!DOCTYPE svg PUBLIC "-//W3C//DTD SVG 1.1//EN" "http://www.w3.org/Graphics/SVG/1.1/DTD/svg11.dtd">
<svg version="1.1" id="Layer_1" xmlns="http://www.w3.org/2000/svg" xmlns:xlink="http://www.w3.org/1999/xlink" x="0px" y="0px"
	 width="32px" height="32px" viewBox="0 0 32 32" enable-background="new 0 0 32 32" xml:space="preserve">
<circle fill="#F27E30" stroke="#DD5F19" stroke-width="0.7142" stroke-miterlimit="10" cx="16" cy="16" r="15.176"/>
<g>
	<path fill="#DD5F19" d="M6.538,9.17v12.509c0,0,3.874-0.646,9.29,0.061V9.17C15.828,9.17,11.493,7.349,6.538,9.17z"/>
	<path fill="#DD5F19" d="M25.426,9.17v12.388c0,0-4.238-0.896-9.041,0.182V9.17C16.385,9.17,20.533,7.349,25.426,9.17z"/>
</g>
<path fill="#DD5F19" stroke="#DD5F19" stroke-width="0.2477" stroke-linejoin="round" stroke-miterlimit="10" d="M26.678,10.215
	c-0.031-0.032-0.072-0.051-0.121-0.051h-0.434v12.513h-8.607c-0.053,0-0.098,0.023-0.131,0.061l-0.375,0.377h-1.77l-0.388-0.389
	c-0.001,0-0.001,0-0.001,0c-0.007-0.008-0.017-0.016-0.026-0.021c-0.001,0-0.002,0-0.002-0.002
	c-0.027-0.016-0.059-0.025-0.092-0.025H5.814V10.164H5.442c-0.048,0-0.09,0.02-0.121,0.051c-0.032,0.031-0.051,0.073-0.051,0.122
	v12.695c0,0.094,0.076,0.17,0.17,0.17c0,0,0,0,0.001,0h0.001h9.219l0.372,0.373c0.031,0.039,0.079,0.064,0.134,0.064h1.919
	c0.061,0,0.115-0.031,0.145-0.08l0.357-0.357h8.969h0.002l0,0c0.094,0,0.17-0.076,0.17-0.17V10.337
	C26.729,10.289,26.711,10.246,26.678,10.215z"/>
</svg>
