<?xml version="1.0" encoding="utf-8"?>
<!-- Generator: Adobe Illustrator 16.0.0, SVG Export Plug-In . SVG Version: 6.00 Build 0)  -->
<!DOCTYPE svg PUBLIC "-//W3C//DTD SVG 1.1//EN" "http://www.w3.org/Graphics/SVG/1.1/DTD/svg11.dtd">
<svg version="1.1" id="Layer_1" xmlns="http://www.w3.org/2000/svg" xmlns:xlink="http://www.w3.org/1999/xlink" x="0px" y="0px"
	 width="144px" height="152px" viewBox="6.667 0 144 152" enable-background="new 6.667 0 144 152" xml:space="preserve">
<g>
	<circle fill="#233B48" cx="78.357" cy="71.665" r="71.352"/>
	<g>
		<path fill="#EFB600" d="M38.278,27.205l-14.917,2.832c0,0-13.914,4.041-11.556,17.817c0,0,1.607,11.18,13.54,8.915
			c11.933-2.265,28.34-5.379,28.34-5.379L38.278,27.205z"/>
		<path fill="#EFCC3C" d="M23.356,57.146l26.352-5.002l-2.407-16.748l-24.114,4.577c0,0,7.317-0.802,8.702,5.14
			C31.89,45.113,34.257,53.513,23.356,57.146z"/>
		<path fill="#FFDD50" d="M109.504,13.685c0,0,35.607,8.476,18.702,56.467c0,0-11.129,37.706-5.162,51.5l2.212,15.725
			l-69.109,13.118c0,0-22.445,7.947-19.38-28.822c0,0,1.131-13.039,8.671-37.088c0,0,13.376-48.937-21.203-54.713L109.504,13.685z"
			/>
		<path fill="none" d="M109.504,13.685c0,0,35.607,8.476,18.702,56.467c0,0-11.129,37.706-5.162,51.5l2.212,15.725l-69.109,13.118
			c0,0-22.445,7.947-19.38-28.822c0,0,1.131-13.039,8.671-37.088c0,0,13.376-48.937-21.203-54.713L109.504,13.685z"/>
		<g>
			<g>
				<g>
					<path fill="#AF8100" d="M51.862,126.561c1.688-1.308,3.127-2.759,4.569-4.33c-0.785-0.102-1.57-0.202-2.356-0.304
						c0.046,0.497,0.093,0.995,0.139,1.492c-0.704,1.373,0.694,2.724,2.052,2.052c4.081-2.016,5.745-6.113,6.883-10.301
						c-0.982-0.133-1.964-0.266-2.946-0.398c-0.078,2.566-0.406,5.104-0.485,7.671c-0.033,1.062,1.33,1.971,2.257,1.295
						c0.896-0.652,1.761-1.195,2.563-1.963c-0.707,0-1.414,0-2.121,0c3.196,2.643,5.942,0.168,8.735-1.946
						c-0.684-0.684-1.368-1.368-2.052-2.052c-0.683,1.466-1.287,2.723-1.558,4.307c-0.188,1.095,0.658,2.168,1.845,1.845
						c2.146-0.585,3.329-1.638,4.207-3.699c-0.914-0.119-1.828-0.238-2.742-0.358c0.092,0.488,0.185,0.976,0.278,1.463
						c0.161,0.851,1.095,1.189,1.845,1.048c3.511-0.66,5.312-3.535,8.218-5.323c-0.734-0.564-1.469-1.129-2.203-1.693
						c-0.771,2.746-2.133,6.03,1.378,7.225c3.805,1.293,6.374-3.181,5.577-6.264c-0.272-1.054-1.75-1.507-2.507-0.662
						c-0.626,0.698-0.942,1.205-1.187,2.113c-0.233,0.867,0.455,2,1.446,1.898c3.219-0.329,5.448-1.997,8.445-3.098
						c-0.633-0.482-1.266-0.964-1.898-1.446c0.066,0.78,0.142,1.56,0.228,2.338c0.135,1.303,2.121,2.273,2.795,0.757
						c1.419-3.189,5.571-2.72,8.272-4.165c-0.684-0.684-1.368-1.368-2.052-2.052c-0.617,1.112-1.218,2.198-1.734,3.36
						c-0.497,1.117,0.314,2.628,1.693,2.203c1.866-0.574,2.746-1.261,4.093-2.769c-0.707,0-1.414,0-2.121,0
						c0.411,0.53,0.863,1.021,1.358,1.475c0.495,0.491,1.215,0.552,1.817,0.234c1.283-0.674,2.416-1.501,3.676-2.213
						c-0.684-0.179-1.368-0.358-2.052-0.538c0.287,0.379,0.575,0.757,0.863,1.135c0.446,0.587,1.345,1.075,2.052,0.538
						c1.304-0.99,2.516-2.021,4.014-2.71c-0.684-0.179-1.368-0.358-2.052-0.538c2.12,4.225,5.683,1.404,6.745-1.985
						c-0.964,0-1.929,0-2.893,0c0.384,1.26,0.864,2.219,1.579,3.336c1.038,1.624,3.636,0.121,2.59-1.514
						c-0.585-0.791-1.011-1.664-1.276-2.619c-0.438-1.439-2.447-1.422-2.893,0c-0.421,0.423-0.842,0.846-1.263,1.269
						c-0.392-0.781-1.349-0.862-2.052-0.538c-1.565,0.72-2.645,1.67-4.014,2.71c0.684,0.179,1.368,0.358,2.052,0.538
						c-0.287-0.379-0.575-0.757-0.863-1.135c-0.5-0.658-1.274-0.978-2.052-0.538c-1.261,0.712-2.393,1.538-3.676,2.213
						c0.605,0.078,1.212,0.156,1.817,0.234c-0.494-0.453-0.947-0.944-1.358-1.475c-0.509-0.599-1.608-0.575-2.121,0
						c-0.665,1-1.588,1.665-2.769,1.997c0.564,0.734,1.129,1.469,1.693,2.203c0.518-1.162,1.118-2.248,1.734-3.36
						c0.742-1.338-0.727-2.762-2.052-2.052c-3.744,2.003-7.389,0.835-9.349,5.241c0.932,0.252,1.863,0.505,2.795,0.757
						c-0.086-0.778-0.161-1.558-0.228-2.338c-0.081-0.892-0.91-1.81-1.898-1.446c-2.542,0.934-4.901,2.709-7.648,2.99
						c0.482,0.633,0.964,1.266,1.446,1.898c0.139-0.263,0.276-0.525,0.415-0.789c-0.836-0.221-1.671-0.441-2.507-0.662
						c-1.726,1.912-2.271,2.111-1.64,0.599c0.175-0.514,0.332-1.034,0.47-1.56c0.352-1.25-1.074-2.388-2.203-1.693
						c-2.571,1.581-4.431,4.442-7.501,5.021c0.615,0.349,1.23,0.698,1.845,1.048c-0.093-0.488-0.186-0.976-0.277-1.463
						c-0.229-1.208-2.237-1.544-2.742-0.358c-0.287,1.207-1.092,1.98-2.414,2.32c0.615,0.615,1.23,1.23,1.845,1.845
						c0.223-1.269,0.642-2.465,1.256-3.59c0.557-1.196-0.722-3.059-2.052-2.052c-1.047,0.792-3.63,3.63-5.1,2.415
						c-0.641-0.529-1.488-0.605-2.121,0c-0.635,0.521-1.287,1.02-1.957,1.494c0.752,0.432,1.505,0.863,2.257,1.295
						c0.079-2.566,0.407-5.104,0.485-7.671c0.052-1.711-2.506-2.02-2.946-0.398c-0.93,3.421-2.104,6.828-5.504,8.508
						c0.684,0.684,1.368,1.368,2.052,2.052c0.901-1.758,0.715-2.768-0.139-4.52c-0.417-0.854-1.734-0.981-2.356-0.304
						c-1.442,1.57-2.881,3.022-4.569,4.33C48.213,125.623,50.353,127.73,51.862,126.561L51.862,126.561z"/>
				</g>
			</g>
			<g>
				<g>
					<path fill="#AF8100" d="M46.448,34.017c0.454-0.346,0.908-0.691,1.363-1.038c-0.633-0.482-1.266-0.964-1.899-1.446
						c-0.582,0.88-1.163,1.761-1.745,2.641c-1.383,0.865-0.48,3.395,1.156,2.742c1.438-0.574,3.6-0.555,4.858-1.438
						c1.724-1.21,2.954-3.011,4.855-3.953c-0.734-0.299-1.469-0.598-2.203-0.896c0.289,0.583,0.477,1.197,0.565,1.841
						c0.191,0.873,1.444,1.472,2.203,0.896c0.424-0.321,3.404-3.066,3.625-2.002c0.152,0.735,1.12,1.34,1.845,1.047
						c3.729-1.502,7.521-2.701,11.299-4.093c-0.565-0.734-1.129-1.469-1.694-2.203c-0.851,1.552-1.093,2.59-0.845,4.318
						c0.141,0.983,1.446,1.333,2.203,0.896c1.747-1.008,3.013-2.232,4.225-3.835c-0.932-0.252-1.863-0.505-2.795-0.757
						c0.389,6.584,5.747,1.852,7.84-1.067c-0.932-0.252-1.863-0.505-2.795-0.757c-0.931,7.116,6.195,1.348,6.357,1.801
						c0.392,1.093,1.624,1.438,2.507,0.662c0.827-0.786,1.73-1.476,2.709-2.069c-0.684-0.18-1.368-0.359-2.052-0.539
						c2.779,4.656,5.603,1.426,8.521-1.3c-0.854-0.354-1.707-0.707-2.561-1.061c0.102,0.947,0.205,1.555,0.45,2.489
						c0.158,0.601,0.796,1.16,1.446,1.101c2.81-0.252,4.536-1.527,5.381-4.229c-0.615,0.349-1.23,0.698-1.845,1.047
						c1.228,0.215,2.294,0.734,3.199,1.556c-0.18-0.684-0.359-1.368-0.538-2.053c-0.328,0.409-0.656,0.818-0.984,1.228
						c-1.003,1.105-0.034,2.883,1.459,2.507c3.354-0.844,5.346-2.75,8.016-4.814c-0.836-0.486-1.671-0.973-2.507-1.459
						c-0.678,1.76-0.634,1.693-0.747,3.562c-0.056,0.915,1.012,1.786,1.898,1.446c2.124-0.812,2.94-2.199,4.127-4.117
						c-0.785,0.102-1.57,0.203-2.355,0.304c0.965,1.245,1.753,1.759,3.18,2.29c1.816,0.676,2.594-2.225,0.797-2.893
						c-0.834-0.253-1.453-0.759-1.855-1.518c-0.615-0.793-1.897-0.437-2.355,0.304c-0.561,1.084-1.339,1.997-2.334,2.738
						c0.633,0.482,1.266,0.964,1.898,1.446c0.213-0.921,0.427-1.843,0.64-2.764c0.608-1.581-1.477-2.256-2.507-1.459
						c-2.19,1.692-3.926,3.346-6.691,4.042c0.486,0.835,0.973,1.671,1.459,2.507c0.568-0.626,0.964-1.14,1.453-1.834
						c0.507-0.718,0.075-1.603-0.538-2.053c-1.299-0.953-2.377-1.467-3.916-1.858c-0.812-0.207-1.598,0.256-1.845,1.047
						c-0.829,0.676-1.659,1.352-2.488,2.027c0.482,0.367,0.964,0.734,1.446,1.101c-0.114-0.563-0.229-1.127-0.343-1.691
						c-0.137-1.277-1.538-2.016-2.561-1.061c-0.645,0.602-2.745,3.691-3.811,1.907c-0.405-0.679-1.359-0.984-2.052-0.539
						c-1.193,0.768-2.248,1.6-3.316,2.539c0.836,0.221,1.671,0.441,2.507,0.662c-0.506-1.413-1.51-2.687-3.207-2.314
						c-0.9,0.198-1.665,0.616-2.444,1.096c-1.83,1.125-0.781,1.612-0.599,0.215c0.215-1.641-2.037-1.814-2.795-0.757
						c-0.168,0.233-2.261,2.405-2.25,2.582c-0.093-1.579-1.907-1.931-2.795-0.757c-0.803,1.199-1.853,2.118-3.148,2.759
						c0.734,0.299,1.469,0.598,2.203,0.896c0.181-0.668,0.362-1.337,0.543-2.006c0.586-1.068-0.392-2.683-1.694-2.203
						c-3.804,1.401-7.542,2.58-11.299,4.093c0.615,0.349,1.23,0.698,1.845,1.047c-1.2-5.79-5.203-1.935-8.031,0.209
						c0.734,0.299,1.469,0.598,2.203,0.896c-0.088-0.645-0.276-1.258-0.565-1.841c-0.372-0.936-1.267-1.36-2.203-0.896
						c-1.16,0.575-1.357,0.739-2.33,1.593c-2.188,1.922-4.099,2.471-6.668,3.496c0.385,0.914,0.771,1.828,1.156,2.742
						c2.115-1.323,3.165-2.726,3.23-5.231c0.024-0.935-0.983-1.76-1.899-1.446c-1.493,0.511-2.28,1.125-3.156,2.417
						C42.768,34.109,45.369,35.608,46.448,34.017L46.448,34.017z"/>
				</g>
			</g>
			<g>
				<g>
					<path fill="#AF8100" d="M51.569,49.369c1.937-0.351,3.328-1.176,4.795-2.469c-0.854-0.354-1.707-0.707-2.561-1.061
						c-0.209,1.088-0.289,2.186-0.238,3.293c-0.012,0.828,0.692,1.486,1.5,1.5c3.602,0.06,7.106-1.187,8.047-4.953
						c0.311-1.245-1.05-2.401-2.203-1.694c-3.422,2.099-2.078,5.816,1.896,5.394c4.31-0.458,5.547-7.46,6.312-10.684
						c0.446-1.881-2.351-2.657-2.893-0.798c-0.771,2.646-2.018,8.34,1.009,10.156c3.84,2.305,6.925-0.88,6.754-4.826
						c-0.067-1.562-1.936-1.953-2.795-0.757c-3.942,5.491,8.928,7.272,9.169-0.886c0.048-1.636-1.967-1.852-2.795-0.757
						c-1.446,1.912-1.353,5.42,2.058,5.143c3.692-0.299,6.268-3.464,9.28-5.286c-0.605-0.786-1.212-1.571-1.817-2.356
						c-1.575,1.279-4.07,3.873-2.079,5.865c2.941,2.941,7.943-3.077,10.053-4.028c-0.605-0.786-1.212-1.571-1.817-2.356
						c-1.084,1.395-1.85,2.665-2.498,4.31c-0.533,1.353,1.156,2.192,2.203,1.694c1.604-0.763,2.355-1.715,3.265-3.222
						c-0.863,0-1.727,0-2.59,0c2.493,5.249,5.981-0.422,8.683-2.019c-0.684-0.684-1.368-1.368-2.052-2.053
						c-0.728,1.211-1.196,2.268-1.47,3.639c-0.237,1.186,0.687,2.044,1.845,1.845c2.395-0.411,3.62-1.602,4.621-3.778
						c-0.914-0.119-1.827-0.239-2.741-0.358c1.037,3.191,1.012,6.468-0.401,9.559c0.914,0.385,1.827,0.771,2.741,1.156
						c1.004-5.19,5.505-9.033,8.241-13.36c0.9-1.423-1.261-3.143-2.355-1.818c-1.34,1.62-1.865,2.775-2.093,4.839
						c-0.084,0.757,0.748,1.576,1.5,1.5c2.407-0.243,3.441-1.295,4.211-3.575c-0.982-0.133-1.964-0.266-2.946-0.399
						c0.008,1.267,0.216,1.915,0.851,3.018c0.508,0.882,1.638,0.928,2.355,0.303c0.379-0.326,0.754-0.657,1.126-0.992
						c0.223-0.192,0.444-0.385,0.667-0.577c1.257-1.013,1.389-1.058,0.396-0.133c0.982,0.133,1.964,0.266,2.946,0.399
						c0.079-0.936,2.848-1.488,3.608-1.912c1.689-0.942,0.178-3.533-1.514-2.591c-2.509,1.398-4.811,1.149-5.095,4.503
						c-0.143,1.679,2.663,2.064,2.946,0.399c1.176-6.919-4.005-4.001-7.203-1.217c0.785,0.101,1.57,0.202,2.355,0.303
						c-0.37-0.431-0.517-0.933-0.44-1.503c-0.011-1.744-2.414-1.977-2.946-0.399c-0.439,0.458-0.879,0.916-1.318,1.373
						c0.5,0.5,1,1,1.5,1.5c0.404-0.906,0.81-1.812,1.214-2.718c-0.785-0.606-1.57-1.212-2.355-1.818
						c-2.904,4.592-7.477,8.554-8.544,14.077c-0.303,1.566,1.992,2.795,2.741,1.156c1.74-3.805,2.003-7.878,0.704-11.871
						c-0.365-1.122-2.16-1.621-2.741-0.358c-0.943,0.8-1.886,1.6-2.828,2.399c0.614,0.615,1.229,1.23,1.845,1.845
						c0.152-1.08,0.541-2.054,1.167-2.922c0.777-1.294-0.763-2.815-2.052-2.053c-0.653,0.387-4.169,3.958-4.579,3.096
						c-0.5-1.053-2.048-0.897-2.59,0c-0.729,0.715-1.459,1.43-2.188,2.145c0.734,0.565,1.469,1.129,2.203,1.694
						c0.575-0.996,1.151-1.991,1.727-2.987c1.054-1.357-0.213-3.079-1.817-2.356c-1.38,0.622-2.351,1.411-3.446,2.428
						c-3.275,3.041-3.048,2.197-0.893,0.447c1.343-1.091-0.388-3.221-1.817-2.356c-1.132,0.685-2.164,1.496-3.214,2.297
						c-0.628,0.482-1.269,0.946-1.924,1.39c-0.584,0.609-1.282,0.796-2.097,0.561c-0.932-0.252-1.863-0.504-2.795-0.757
						c0.021,1.197-0.471,2.017-1.476,2.462c0.028-0.017-2.841,0.967-2.103-0.062c-0.932-0.252-1.864-0.505-2.795-0.757
						c-0.803,0.534-1.605,1.067-2.408,1.601c-0.189-0.924-0.235-1.854-0.138-2.788c0.049-1.13,0.359-2.264,0.674-3.345
						c-0.964-0.266-1.928-0.532-2.893-0.798c-0.644,2.713-1.225,7.099-3.802,8.679c-0.734-0.565-1.469-1.129-2.203-1.694
						c-0.65,2.6-3.187,2.783-5.154,2.75c0.5,0.5,1,1,1.5,1.5c-0.051-1.107,0.029-2.205,0.238-3.293
						c0.19-1.42-1.704-1.815-2.561-1.061c-0.935,1.017-2.092,1.583-3.472,1.697C48.87,46.821,49.678,49.712,51.569,49.369
						L51.569,49.369z"/>
				</g>
			</g>
			<g>
				<g>
					<path fill="#AF8100" d="M56.082,67.698c0.538-0.293,0.413-0.028-0.059-0.249c-0.323-0.151-0.21-0.339-0.165,0.022
						c0.064,0.521,0.021,1.06-0.021,1.581c-0.067,0.81,0.733,1.508,1.5,1.5c2.585-0.027,4.432-1.891,4.924-4.359
						c0.377-1.889-2.514-2.694-2.893-0.798c-0.227,1.135-0.752,2.144-2.032,2.157c0.5,0.5,1,1,1.5,1.5
						c0.095-1.143,0.117-2.44-0.528-3.44c-0.881-1.368-2.485-1.188-3.742-0.504C52.868,66.032,54.382,68.623,56.082,67.698
						L56.082,67.698z"/>
				</g>
			</g>
			<g>
				<g>
					<path fill="#AF8100" d="M59.617,65.564c-1.652,6.148,4.454,3.501,6.449,0.236c-0.914-0.386-1.828-0.771-2.742-1.156
						c-2.078,7.725,6.084,1.932,8.615,0.261c-0.734-0.565-1.469-1.129-2.203-1.694c-0.451,1.275-0.625,2.433-0.708,3.77
						c-0.064,1.046,1,1.609,1.899,1.446c2.102-0.381,3.554-1.259,5.211-2.548c-0.836-0.221-1.671-0.441-2.507-0.662
						c0.079,0.418,0.159,0.836,0.238,1.254c0.158,0.833,1.099,1.211,1.845,1.047c4.804-1.052,5.28-6.808,5.873-10.84
						c-0.982-0.133-1.964-0.266-2.946-0.399c0.03,2.443-0.781,6.666,1.57,8.379c3.4,2.478,6.857-1.259,9.019-3.647
						c-0.785-0.606-1.57-1.212-2.355-1.818c-1.216,1.582-1.611,2.673-1.403,4.666c0.102,0.974,0.879,1.699,1.898,1.446
						c2.722-0.674,4.515-2.315,4.71-5.162c0.11-1.598-2.022-1.896-2.795-0.757c-0.226,0.332-0.45,0.663-0.675,0.995
						c-0.614,0.905,0.188,2.346,1.295,2.257c1.03-0.083,1.979-0.368,2.965-0.67c1.299-0.397,3.181-1.676,2.517,0.053
						c-0.515,1.339,1.147,2.219,2.203,1.694c2.805-1.394,5.719-2.521,8.61-3.716c-0.614-0.349-1.229-0.698-1.845-1.047
						c0.102,0.494,0.203,0.988,0.305,1.481c0.145,1.285,1.528,2.005,2.561,1.061c1.024-1.046,2.179-1.928,3.462-2.646
						c-0.684-0.18-1.368-0.359-2.052-0.539c0.231,0.461,0.462,0.923,0.693,1.385c0.443,0.888,1.694,0.937,2.355,0.304
						c0.669-0.745,1.447-1.339,2.333-1.781c-0.684-0.18-1.368-0.359-2.052-0.538c0.181,0.342,0.362,0.684,0.544,1.025
						c0.359,0.941,1.277,1.356,2.203,0.896c1.788-0.889,3.382-1.972,5.014-3.117c-0.684-0.684-1.368-1.368-2.052-2.053
						c-0.623,1.152-1.215,2.263-1.717,3.47c-0.569,1.368,1.176,2.158,2.203,1.694c1.838-0.831,3.106-1.907,4.446-3.402
						c-0.836-0.221-1.671-0.441-2.507-0.662c0.066,0.348,0.132,0.696,0.198,1.044c0.168,0.886,1.458,1.457,2.203,0.896
						c1.185-0.892,2.352-1.688,3.639-2.422c-0.734-0.299-1.469-0.598-2.203-0.896c0.088,0.424,0.175,0.849,0.263,1.273
						c0.035,1.932,3.035,1.936,3,0c-0.018-0.948-0.02-1.217-0.37-2.071c-0.364-0.888-1.284-1.421-2.203-0.896
						c-1.288,0.735-2.455,1.531-3.639,2.422c0.734,0.299,1.469,0.598,2.203,0.896c-0.066-0.348-0.132-0.696-0.198-1.044
						c-0.207-1.092-1.786-1.466-2.507-0.662c-1.135,1.266-2.285,2.23-3.839,2.933c0.734,0.565,1.469,1.129,2.203,1.694
						c0.44-0.934,0.911-1.852,1.414-2.753c0.668-1.235-0.751-2.966-2.052-2.053c-1.632,1.146-3.226,2.229-5.014,3.117
						c0.734,0.299,1.469,0.598,2.203,0.896c-0.261-0.682-0.456-1.121-0.847-1.742c-0.435-0.692-1.328-0.959-2.052-0.538
						c-1.106,0.645-2.021,1.37-2.94,2.251c0.785,0.101,1.57,0.202,2.355,0.304c-0.23-0.462-0.462-0.924-0.693-1.385
						c-0.374-0.748-1.37-0.909-2.052-0.539c-1.58,0.858-2.734,1.893-4.069,3.115c0.854,0.354,1.707,0.707,2.561,1.061
						c-0.098-0.871-0.174-1.447-0.412-2.279c-0.204-0.712-1.082-1.362-1.845-1.047c-3.133,1.293-6.29,2.509-9.327,4.018
						c0.734,0.565,1.469,1.129,2.203,1.694c2.588-6.737-5.283-3.43-8.374-3.181c0.432,0.752,0.863,1.505,1.295,2.257
						c0.226-0.331,0.45-0.663,0.675-0.994c-0.932-0.252-1.863-0.505-2.795-0.757c-0.836,0.756-1.672,1.513-2.507,2.27
						c0.633,0.482,1.266,0.964,1.898,1.446c0.331-1.05,0.662-2.101,0.993-3.151c1.045-1.359-1.226-3.067-2.355-1.818
						c-0.623,0.688-4.518,5.313-5.377,2.543c-0.481-1.552-0.071-3.543-0.091-5.154c-0.02-1.636-2.693-2.118-2.946-0.399
						c-0.388,2.635-0.46,8.019-3.777,8.745c0.614,0.349,1.229,0.698,1.845,1.047c-0.079-0.418-0.159-0.836-0.238-1.254
						c-0.234-1.233-1.708-1.283-2.507-0.662c-1.12,1.065-2.416,1.657-3.888,1.777c0.633,0.482,1.266,0.964,1.899,1.446
						c-0.02-1.042,0.18-2.033,0.6-2.972c0.436-1.23-1.135-2.399-2.203-1.694c-0.669,0.442-1.293,0.95-1.929,1.438
						c-0.455,0.348-0.917,0.687-1.388,1.014c-0.235,0.156-0.47,0.312-0.706,0.468c-0.848,0.449-0.91,0.518-0.187,0.208
						c0.447-1.661-1.856-2.605-2.742-1.156c-0.648,1.062-0.76,1.31-0.966,2.076C63.013,64.491,60.119,63.698,59.617,65.564
						L59.617,65.564z"/>
				</g>
			</g>
			<g>
				<g>
					<path fill="#AF8100" d="M54.146,85.209c1.342-1.297,2.301-2.487,3.179-4.11c-0.914-0.385-1.828-0.771-2.742-1.155
						c-0.579,2.608-1.011,5.244-1.526,7.866c-0.316,1.607,1.876,2.713,2.742,1.155c1.474-2.654,4.927-2.086,6.098-5.383
						c0.431-1.212-1.142-2.428-2.204-1.693c-1.884,1.302-2.813,2.612-2.854,4.941c-0.018,0.999,0.968,1.674,1.899,1.446
						c2.378-0.581,4.266-2.015,6.59-2.766c-0.487-0.836-0.973-1.671-1.459-2.507c-0.92,1.166-1.371,2.063-1.783,3.525
						c-0.282,0.999,0.492,1.819,1.446,1.898c2.346,0.195,3.644-0.907,4.765-2.917c-0.864,0-1.727,0-2.591,0
						c-0.015,0.026-0.031,0.053-0.046,0.079c0.038,1.213,1.227,1.767,2.257,1.295c1.765-0.809,3.256-2.382,5.073-3.045
						c-0.633-0.482-1.266-0.964-1.898-1.446c0.111,0.792,0.118,1.584,0.02,2.378c-0.052,0.905,1.011,1.799,1.898,1.446
						c2.693-1.068,4.413,0.153,5.862-2.93c-0.914-0.119-1.827-0.238-2.741-0.358c0.136,0.335,0.271,0.67,0.406,1.005
						c0.285,0.707,1.014,1.353,1.845,1.048c0.781-0.286,2.653-1.567,3.424-1.021c0.396,0.281,1.117,0.286,1.514,0
						c0.949-0.685,1.897-1.369,2.846-2.055c-0.684-0.179-1.368-0.358-2.052-0.538c2.709,4.287,6.853,0.938,9.92-1.173
						c-0.684-0.684-1.368-1.368-2.052-2.052c-0.449,0.609-0.829,1.259-1.14,1.949c-0.683,1.33,0.696,2.797,2.052,2.052
						c1.843-1.013,3.538-0.34,5.298-2.161c2.174-2.249,2.941-5.622,4.348-8.333c-0.932-0.252-1.863-0.504-2.795-0.757
						c0.112,2.079-1.063,6.107,1.27,7.474c2.818,1.651,6.278-1.322,8.561-2.636c-0.734-0.565-1.469-1.129-2.203-1.694
						c-0.324,1.214-0.304,1.796-0.485,3.122c-0.12,0.875,0.369,1.994,1.446,1.898c2.634-0.234,3.803-1.612,3.77-4.312
						c-0.015-1.227-1.676-2.095-2.561-1.061c-0.3,0.35-0.539,0.636-0.74,1.049c-0.533,1.093,0.135,2.125,1.295,2.257
						c2.148,0.244,3.14-0.448,4.649-1.986c-0.836-0.221-1.671-0.441-2.507-0.662c0.907,2.328-0.127,4.443-0.98,6.534
						c0.964,0.266,1.929,0.531,2.893,0.797c1.091-3.295,3.972-4.776,6.085-7.278c-0.836-0.486-1.671-0.973-2.507-1.459
						c-0.513,3.358,1.102,6.165,4.553,3.846c1.597-1.072,0.098-3.672-1.514-2.59c-0.049-0.153-0.098-0.305-0.146-0.458
						c0.201-1.313-1.426-2.74-2.507-1.459c-2.537,3.003-5.572,4.721-6.856,8.603c-0.621,1.877,2.183,2.537,2.893,0.797
						c1.092-2.675,2.071-5.33,0.98-8.128c-0.395-1.012-1.652-1.532-2.507-0.662c-0.843,0.369-1.686,0.738-2.528,1.107
						c0.432,0.752,0.863,1.505,1.295,2.257c0.091-0.147,0.182-0.294,0.271-0.441c-0.854-0.354-1.707-0.707-2.561-1.061
						c-0.257,0.437-0.513,0.875-0.77,1.312c0.482,0.633,0.964,1.266,1.446,1.898c0.136-0.988,0.234-2.184,0.485-3.121
						c0.341-1.275-1.058-2.354-2.203-1.694c-1.142,0.657-2.242,1.375-3.39,2.023c-2.906,1.641-1.875-3.312-1.927-4.271
						c-0.076-1.403-2.068-2.159-2.795-0.757c-1.1,2.118-1.892,4.37-3.043,6.469c-1.058,1.928-3.622,1.902-5.526,2.949
						c0.684,0.684,1.368,1.368,2.052,2.052c0.312-0.689,0.691-1.339,1.14-1.949c0.807-1.231-0.812-2.905-2.052-2.052
						c-1.131,0.777-4.628,4.13-5.816,2.249c-0.404-0.64-1.372-1.029-2.052-0.538c-1.96,1.414-4.658,1.891-7.066,2.773
						c0.614,0.349,1.229,0.698,1.845,1.048c-0.136-0.335-0.271-0.67-0.406-1.005c-0.429-1.062-2.123-1.673-2.741-0.358
						c-0.591,1.255-2.931,1.099-4.07,1.551c0.633,0.482,1.266,0.964,1.899,1.446c0.098-0.794,0.092-1.586-0.02-2.378
						c-0.067-0.897-0.92-1.804-1.899-1.446c-2.182,0.796-3.698,2.389-5.79,3.348c0.752,0.432,1.504,0.863,2.257,1.295
						c-0.019-0.622-0.116-1.029-0.363-1.593c-0.461-1.052-2.086-0.905-2.591,0c-0.725,0.477-1.449,0.954-2.174,1.431
						c0.482,0.633,0.964,1.266,1.446,1.898c0.14-0.818,0.477-1.552,1.011-2.201c0.847-1.072,0.116-3.016-1.459-2.507
						c-2.295,0.741-4.234,2.19-6.59,2.766c0.633,0.482,1.266,0.964,1.899,1.446c0.456-0.784,0.912-1.567,1.369-2.352
						c-0.735-0.564-1.469-1.129-2.204-1.693c-0.799,2.25-4.511,2.352-5.796,4.666c0.914,0.385,1.828,0.771,2.742,1.155
						c0.515-2.622,0.947-5.257,1.526-7.866c0.358-1.612-1.903-2.706-2.742-1.155c-0.638,1.385-1.542,2.552-2.709,3.503
						C50.632,84.435,52.756,86.554,54.146,85.209L54.146,85.209z"/>
				</g>
			</g>
			<g>
				<g>
					<path fill="#AF8100" d="M52.635,106.106c0.777-0.172,1.25-0.362,1.983-0.675c-0.605-0.785-1.211-1.57-1.817-2.355
						c-1.144,0.931-1.622,1.752-2.071,3.146c-0.278,0.862,0.489,2,1.446,1.898c1.895-0.202,2.896-0.66,4.193-2.115
						c-0.785-0.102-1.57-0.202-2.356-0.304c0.192,0.252,0.384,0.504,0.575,0.756c0.404,0.531,0.996,0.905,1.694,0.689
						c1.877-0.58,3.416-1.512,5.076-2.562c-0.735-0.299-1.469-0.598-2.204-0.896c0.053,0.279,0.105,0.559,0.159,0.837
						c0.141,0.745,1.126,1.329,1.845,1.048c1.496-0.585,2.903-1.228,4.323-1.987c-0.752-0.432-1.505-0.863-2.257-1.295
						c0.124,1.028,0.229,1.695,0.491,2.697c0.188,0.719,1.094,1.357,1.845,1.048c1.912-0.789,3.534-1.786,5.204-3.02
						c-0.605-0.785-1.211-1.57-1.817-2.355c-1.012,1.103-1.515,2.048-1.783,3.525c-0.2,1.099,0.667,2.162,1.845,1.845
						c2.072-0.558,3.082-1.385,4.326-3.072c-0.914-0.119-1.828-0.238-2.742-0.358c0.625,2.784-0.029,4.996-2.141,6.815
						c0.835,0.486,1.671,0.973,2.507,1.459c0.668-4.948,7.793-6.272,8.581-11.589c0.191-1.287-0.946-2.347-2.203-1.693
						c-3.53,1.835-2.336,6.016,1.562,5.89c4.54-0.146,5.974-8.839,7.379-11.857c-0.932-0.252-1.863-0.505-2.795-0.757
						c-0.07,2.659-1.941,6.765,0.321,9.027c2.332,2.332,5.969-0.724,7.991-1.954c-0.605-0.785-1.212-1.57-1.817-2.355
						c-0.92,1.167-1.371,2.063-1.781,3.526c-0.25,0.891,0.466,1.967,1.446,1.898c1.996-0.139,3.124-0.651,4.647-1.987
						c-0.836-0.221-1.671-0.441-2.507-0.662c0.026,1.39,0.053,2.778,0.079,4.168c-0.405,1.72,1.771,2.519,2.741,1.155
						c1.991-2.797,3.731-5.674,6.407-7.885c-0.785-0.605-1.57-1.212-2.355-1.817c-1.264,1.703-1.731,2.711-1.821,4.743
						c-0.054,1.211,1.295,1.769,2.257,1.295c1.231-0.605,2.051-1.227,2.939-2.249c-0.836-0.221-1.671-0.441-2.507-0.662
						c0.201,0.684,0.403,1.367,0.604,2.05c0.332,1.127,1.665,1.409,2.507,0.662c2.585-2.293,3.286-5.558,4.242-8.756
						c-0.982-0.133-1.964-0.266-2.946-0.398c0.057,2.828-0.193,5.163,1.097,7.733c0.36,0.719,1.39,0.947,2.052,0.538
						c1.397-0.862,2.623-1.833,3.901-2.867c-0.707,0-1.414,0-2.121,0c0.209,0.277,0.419,0.555,0.629,0.832
						c0.522,0.756,1.664,1.065,2.355,0.304c0.476-0.523,0.95-1.047,1.426-1.57c-0.785-0.102-1.57-0.202-2.355-0.304
						c0.218,0.393,0.436,0.784,0.654,1.176c0.419,0.754,1.33,0.89,2.052,0.538c1.764-0.858,3.016-2.084,4.447-3.402
						c-0.836-0.486-1.671-0.973-2.507-1.459c-0.497,1.405-0.752,2.511-0.669,3.979c0.067,1.189,1.209,1.796,2.257,1.295
						c1.574-0.752,2.292-1.624,3.056-3.181c0.85-1.729-1.737-3.25-2.59-1.514c-0.66,0.701-1.32,1.402-1.979,2.104
						c0.752,0.432,1.505,0.863,2.257,1.295c-0.121-1.121,0.066-2.182,0.562-3.182c0.529-1.497-1.474-2.411-2.507-1.459
						c-1.223,1.126-2.336,2.201-3.84,2.934c0.684,0.179,1.368,0.358,2.052,0.538c-0.218-0.393-0.436-0.784-0.654-1.176
						c-0.455-0.818-1.71-1.015-2.355-0.304c-0.476,0.523-0.95,1.047-1.426,1.57c0.785,0.102,1.57,0.202,2.355,0.304
						c-0.355-0.514-0.694-0.966-1.098-1.439c-0.569-0.67-1.527-0.48-2.121,0c-1.034,0.885-2.132,1.685-3.294,2.398
						c0.684,0.179,1.368,0.358,2.052,0.538c-0.973-1.939-0.646-4.16-0.687-6.22c-0.034-1.704-2.459-2.028-2.946-0.398
						c-0.796,2.661-1.292,5.498-3.471,7.432c0.836,0.221,1.671,0.441,2.507,0.662c-0.201-0.684-0.402-1.367-0.604-2.05
						c-0.301-1.02-1.741-1.543-2.507-0.662c-0.604,0.841-1.381,1.435-2.332,1.78c0.752,0.432,1.505,0.863,2.257,1.295
						c0.033-1.279,0.504-2.356,1.411-3.229c1.088-1.467-1.142-2.82-2.355-1.817c-2.884,2.383-4.729,5.476-6.876,8.492
						c0.914,0.385,1.827,0.771,2.741,1.155c0.506-2.146,0.531-3.638-0.079-5.762c-0.326-1.136-1.667-1.398-2.507-0.662
						c-0.842,0.369-1.685,0.739-2.526,1.108c0.482,0.633,0.964,1.266,1.446,1.898c0.14-0.818,0.476-1.553,1.01-2.202
						c0.991-1.258-0.252-3.309-1.817-2.355c-1.721,1.046-4.897,3.289-4.338-0.553c0.191-1.316,0.504-2.597,0.539-3.931
						c0.038-1.429-2.153-2.136-2.795-0.757c-1.299,2.788-2.038,8.616-4.837,10.071c-0.734-0.564-1.469-1.129-2.203-1.693
						c-0.762,5.132-7.865,6.287-8.581,11.589c-0.199,1.473,1.293,2.504,2.507,1.459c2.912-2.507,3.736-6.069,2.913-9.733
						c-0.312-1.391-2.034-1.318-2.742-0.358c-0.844,0.564-1.688,1.129-2.533,1.693c0.615,0.615,1.23,1.23,1.845,1.845
						c0.337-0.733,0.674-1.467,1.011-2.201c1.1-1.198-0.39-3.41-1.817-2.355c-1.445,1.067-2.803,2.021-4.488,2.717
						c0.615,0.349,1.23,0.698,1.845,1.048c-0.127-0.634-0.255-1.267-0.383-1.9c-0.135-1.123-1.17-1.876-2.257-1.295
						c-1.154,0.661-2.356,1.223-3.606,1.685c0.615,0.349,1.23,0.698,1.845,1.048c-0.053-0.279-0.105-0.559-0.159-0.837
						c-0.178-0.941-1.429-1.387-2.204-0.896c-1.435,0.907-2.702,1.748-4.359,2.26c0.565,0.229,1.129,0.459,1.694,0.689
						c-0.192-0.252-0.384-0.504-0.575-0.756c-0.548-0.72-1.65-1.096-2.356-0.304c-0.69,0.412-1.381,0.824-2.072,1.236
						c0.482,0.633,0.964,1.266,1.446,1.898c0.433-0.606,0.866-1.214,1.299-1.821c1.443-1.174-0.398-2.961-1.817-2.355
						c-0.422,0.124-0.845,0.248-1.267,0.372C49.949,103.633,50.75,106.524,52.635,106.106L52.635,106.106z"/>
				</g>
			</g>
		</g>
		<path opacity="0.1" d="M121.927,118.792c-0.727-2.897-1.013-6.679-0.92-10.515c-39.222,32.146-43.141-13.29-43.141-13.29
			c-7.255-61.304-44.509-65.203-52.62-65.305c33.448,6.304,20.386,54.345,20.386,54.345c-7.477,23.921-8.493,37.433-8.493,37.433
			c-3.028,36.577,19.308,28.977,19.308,28.977l67.045-12.727L121.927,118.792z"/>
		<path fill="#EFB600" d="M52.469,124.587c0,0-7.705,2.705-6.58,9.99c0,0,1.614,9.737,8.881,7.316l12.091-2.297l-3.203-16.877
			L52.469,124.587z"/>
		<path fill="#EFCC3C" d="M55.151,150.683l90.986-17.271c0,0,5.58-4.527,3.827-13.762c-1.753-9.235-10.438-11.57-10.438-11.57
			l-87.259,16.562c0,0,9.312-1.145,10.486,11.821C62.754,136.464,62.973,147.112,55.151,150.683z"/>
		<path opacity="0.09" d="M62.743,136.4c0,0,0.201,8.738-5.451,13.002l-0.146,0.902l88.992-16.893c0,0,5.57-4.576,3.818-13.811
			c-0.354-1.868-0.988-3.408-1.794-4.82L61.63,131.207C62.168,132.669,62.556,134.338,62.743,136.4z"/>
	</g>
	<path opacity="0.2" d="M132.301,51.82l-0.333-0.668c0.022-0.04,0.333-0.334,0.333-0.334l-0.166-2.172c1.326-1.124,0-2.006,0-2.006
		s-4.901-0.415-5.349-0.167c-0.448,0.248,5.014-0.669,5.014-0.669c0.797-1.025-1.169-3.677-1.169-3.677
		c1.812-3.755-3.189-2.584-2.174-5.682c-2.59-3.736,7.561-12.593,4.322-15.765c-2.906,3.737-5.263,6.075-5.263,6.075
		c-0.317,1.541-0.927,10.651-0.927,10.651c-1.373-1.775-2.474-7.989-2.474-7.989c-4.945,5.857-7.051,6.633-7.051,6.633
		c-2.075,3.293-2.621,13.929-2.621,13.929c-1.24-2.238-1.563-8.103-1.563-8.103c-1.094,1.191-2.542,4.916-2.542,4.916
		c-0.634,3.081-2.344,5.977-2.344,5.977c-3.55,2.745-4.895,5.245-4.895,5.245c-2.148,7.038,3.686,16.87,3.686,16.87
		c-3.541-2.523-5.832-11.588-5.832-11.588c-0.237,3.445-1.171,8.447-1.171,8.447c-1.413,2.732-1.848,6.872-1.848,6.872
		c-0.984,3.859-1.947,4.587-1.947,4.587c-0.088,3.362,4.291,11.271,4.291,11.271c-4.221-2.343-5.603-9.766-5.603-9.766
		c-0.035,0.994-1.13,2.185-1.13,2.185c-0.931,1.491,2.175,8.156,2.175,8.156c-1.489-0.931-4.135-5.705-4.135-5.705
		c-0.749,2.169-1.799,4.506-1.799,4.506c0.071,7.174,8.498,18.888,8.498,18.888c-1.507,0.444-2.164,1.396-2.164,1.396
		c2.154-1.389,3.425,0.255,3.425,0.255c-1.393-0.399-2.146,0.81-2.146,0.81c1.275-0.47,2.484,0.317,3.242,1.014
		c-0.625,7.832-0.75,17.545,0.072,26.03c0.997-0.259,2.506-0.391,3.484-0.689c-0.035-0.235-0.699-2.121-0.699-2.363
		c0-0.001,0-0.002,0-0.003c0-3.171-0.762-6.933-0.894-11.248c-0.002-0.044,0.042-0.087,0.04-0.131
		c-0.014-0.484-0.003-0.975-0.012-1.472c0-0.078-0.062-0.156-0.064-0.235c-0.006-0.469-0.07-0.943-0.07-1.426
		c0-0.098,0-0.195,0-0.293c0-0.468,0.077-0.94,0.085-1.418c0.001-0.112,0.04-0.225,0.042-0.337c0.008-0.473,0.036-0.951,0.052-1.435
		c0.003-0.117,0.015-0.234,0.019-0.354c0.017-0.487,0.043-0.981,0.065-1.479c0.005-0.117,0.011-0.233,0.017-0.351
		c0.024-0.514,0.056-1.034,0.088-1.558c0.007-0.104,0.014-0.09,0.02-0.194c0.018-0.263,0.039-0.177,0.058-0.679l0,0
		c0.028,0,0.055-0.135,0.082-0.143c0.096-0.028,0.19-0.113,0.284-0.136c0.03-0.008,0.059-0.043,0.088-0.049
		c0.092-0.021,0.185-0.056,0.272-0.071c0.023-0.003,0.045-0.014,0.067-0.017c0.149-0.023,0.296-0.044,0.437-0.055
		c0.055-0.004,0.11-0.012,0.163-0.014c0.049-0.003,0.097-0.004,0.145-0.006c0.066-0.001,0.134-0.003,0.197-0.003
		c0.038,0.001,0.075,0.002,0.113,0.003c0.073,0.002,0.146,0.005,0.214,0.01c0.026,0.002,0.051,0.004,0.077,0.006
		c0.085,0.007,0.167,0.015,0.245,0.024c0.007,0.001,0.014,0.124,0.02,0.125c0.274,0.035,0.496,0.245,0.649,0.245
		c0.001,0,0.002,0,0.004,0c0.048,0,0.089-0.098,0.124-0.088c0.004,0.002,0.006,0.033,0.01,0.034
		c0.032,0.009,0.058,0.054,0.075,0.054c0.001,0,0.002,0,0.003,0c0.017,0,0.026-0.082,0.026-0.082l-0.743-1.391
		c0.882-0.608,3.267-1.246,3.267-1.246c-0.877-0.88-3.312,0.262-3.312,0.262c3.565-2.363,14.149-12.127,14.149-12.127
		c0.333-1.16,0.472-5.139,0.472-5.139c-1.114,0.112-5.433,2.288-6.601,2.886c-0.18,0.092-0.287,0.146-0.296,0.15
		c5.511-6.949,9.16-9.163,9.16-9.163l0.956-8.132c0.384-1.771,2.334-8.111,2.334-8.111c1.596-3.808,2.147-7.959,2.147-7.959
		s-0.274,0-0.274-0.001v-0.004c0-0.325-4.336,1.275-4.865,1.497c2.367-1.682,5.846-2.925,5.846-2.925
		C128.84,57.212,132.301,51.82,132.301,51.82z"/>
	<g>
		<path fill="#BC3535" d="M98.936,117.081c0,0-1.936-2.657-4.042-1.882c0,0,0.754-1.209,2.147-0.81c0,0-1.271-1.644-3.426-0.255
			c0,0,0.656-0.952,2.164-1.396c0,0-8.427-11.714-8.498-18.888c0,0,1.05-2.337,1.799-4.506c0,0,2.645,4.774,4.136,5.705
			c0,0-3.106-6.665-2.175-8.156c0,0,1.095-1.19,1.129-2.185c0,0,1.381,7.423,5.602,9.766c0,0-4.378-7.909-4.29-11.271
			c0,0,0.963-0.728,1.947-4.587c0,0,0.435-4.14,1.848-6.872c0,0,0.935-5.002,1.171-8.447c0,0,2.29,9.065,5.833,11.588
			c0,0-5.835-9.833-3.687-16.87c0,0,1.345-2.5,4.895-5.245c0,0,1.711-2.896,2.344-5.977c0,0,1.448-3.725,2.542-4.916
			c0,0,0.323,5.865,1.563,8.103c0,0,0.546-10.636,2.621-13.929c0,0,2.105-0.776,7.052-6.633c0,0,1.101,6.213,2.474,7.989
			c0,0,0.608-9.111,0.926-10.651c0,0,12.462-12.358,15.413-25.689c0,0,1.636,13.521,0.572,15.475c0,0,1.642-0.908,2.024-2.68
			c0,0-0.737,6.062-6.066,13.692c0,0,1.523-0.064,3.73-2.065c0,0-2.233,8.645-5.956,16.36c0,0-3.577,2.696-4.373,3.722
			c0,0,2.84-0.857,3.288-1.105s0.448-0.249,0.448-0.249s-2.086,2.925-3.413,4.049l1.382-0.318c0,0-5.592,9.266-5.951,17.068
			c0,0-3.397,1.261-5.768,2.964c0,0,4.418-1.878,5.197-1.53c0,0-0.822,4.151-2.418,7.959c0,0-1.951,6.34-2.334,8.111l-0.957,8.131
			c0,0-3.649,2.214-9.159,9.164c0,0,5.604-2.908,6.896-3.039c0,0-0.139,3.977-0.472,5.136c0,0-10.585,9.758-14.15,12.121
			c0,0,2.437-1.152,3.312-0.272c0,0-2.385,0.614-3.267,1.223l0.743,1.345C103.733,116.326,101.293,115.436,98.936,117.081z"/>
		<path opacity="0.2" d="M140.423,1.066c-0.412,8.417-1.74,13.051-1.74,13.051l-1.847,5.116l-2.013,4.818l-2.476,4.685l-2.689,5
			c0,0-2.625,4.767-4.22,6.819c-1.593,2.052-9.734,17.281-9.734,17.281c-13.975,28.987-16.352,56.038-16.352,56.038l0.768,2.579
			c1.934-0.746,3.613-0.128,3.613-0.128l-0.743-1.345c0.882-0.608,3.267-1.223,3.267-1.223c-0.876-0.88-3.329,0.283-3.329,0.283
			c3.565-2.364,14.157-12.128,14.157-12.128c0.333-1.158,0.476-5.136,0.476-5.136c-1.291,0.129-6.894,3.037-6.894,3.037
			c5.513-6.952,9.16-9.166,9.16-9.166l0.958-8.133c0.382-1.771,2.333-8.113,2.333-8.113c1.596-3.808,2.416-7.961,2.416-7.961
			c-0.779-0.349-5.2,1.523-5.2,1.523c2.371-1.703,5.76-2.977,5.76-2.977c0.359-7.802,5.939-17.093,5.939-17.093l-1.355,0.369
			c1.327-1.124,3.413-4.049,3.413-4.049s0,0-0.448,0.249s-3.288,1.105-3.288,1.105c0.796-1.026,4.4-3.672,4.4-3.672
			c3.724-7.715,5.942-16.385,5.942-16.385c-2.206,2.001-3.738,2.052-3.738,2.052c5.33-7.629,6.064-13.698,6.064-13.698
			c-0.383,1.772-2.028,2.678-2.028,2.678C142.061,14.59,140.423,1.066,140.423,1.066z"/>
		<path opacity="0.15" d="M98.343,112.095c0,0-2.057-3.734-2.054-5.492c0,0,0.606,1.615,1.946,2.628c0,0-3.596-6.588-3.526-8.577
			c0,0,3.224,7.184,4.151,7.451c0.927,0.267,1.208-4.179,1.208-4.179s-2.787-4.695-2.537-6.004c0,0,1.538,3.827,2.398,4.326
			c0,0-0.061-1.48-0.278-2.921c-0.028-0.193-0.06-0.387-0.097-0.576c0,0,0.282,1.209,0.896,1.26l0.782-3.163
			c0,0-3.107-4.908-3.931-8.156c0,0,3.336,6.73,4.429,7.295l0.053-2.368c0,0-2.248-2.654-3.087-6.284c0,0,2.395,4.329,3.188,5.058
			l0.368-2.152c0,0-0.613-0.051-1.074-1.94c0,0,0.362,1.359,1.424,1.162l0.764-1.788c0,0-3.27-6.963-3.597-9.316
			c0,0,2.64,6.531,4.013,8.306c1.373,1.775,0.451-2.004,0.451-2.004s-1.653-2.983-2.213-5.403c0,0,1.669,3.365,2.313,4.178
			c0.645,0.813,0.6-2.087,0.6-2.087s-0.992-1.79-1.04-2.933c0,0,0.743,1.343,1.522,1.692c0.778,0.348,1.328-2.882,1.328-2.882
			s-3.979-9.299-4.434-14.701c0,0,3.659,12.595,4.934,13.84c1.272,1.245,0.218-2.069,0.218-2.069s-2.244-6.167-2.506-8.752
			c0,0,2.26,6.547,2.988,7.51c0.728,0.962,0.697-1.556,0.697-1.556s-2.078-5.868-3-9.647c0,0,2.806,6.83,3.467,8.024l1.246-3.031
			c0,0-0.459-1.89-0.657-2.949c0,0,0.197,1.06,1.058,1.558c0,0-0.606-3.562-1.132-6.976c0,0,1.087,4.076,1.979,5.337l1.289-2.953
			c0,0-1.715-5.388-2.248-8.991c0,0,1.805,6.604,2.556,8.137l2.152-4.213c0,0-2.49-8.369-1.225-11.896c0,0-0.806,1.714,1.697,11.343
			l1.312-2.384c0,0-0.865-2.446-0.912-3.588c0,0,0.781,2.295,1.072,2.817c0.288,0.522,0.632-1.324,0.632-1.324
			s-0.815-3.936-0.73-5.543c0,0,0.641,3.448,1.194,4.799c0.553,1.351,1.262-1.771,1.262-1.771s-1.318-4.144-1.198-7.623
			c0,0,1.258,6.323,1.556,7.035l1.121-2.376c0,0-0.535-1.848-0.606-3.562c0,0,0.616,2.875,0.814,3.058
			c0.198,0.182,0.906-1.184,0.906-1.184s-0.851-2.942-0.518-4.101c0,0,0.494,2.652,0.865,3.323c0.372,0.672,0.905-1.184,0.905-1.184
			l0.938-1.299l1.195-1.539c0,0-0.164-6.636,0.238-9.783c0,0,0.213,6.901,0.467,8.417c0.256,1.517,0.583-0.711,0.583-0.711
			s0.629-6.783,0.395-8.796c0,0,0.511,6.736,0.509,7.613l1.662-3.162c0,0-0.147-1.673-0.319-3.041c0,0,0.577,1.923,0.669,2.263
			c0,0,1.245-3.03,0.313-6.121c0,0,0.966,2.975,0.765,4.548l1.188-1.731c0,0,0.297-0.163,0.369-4.786c0,0,0.287,2.279,0.22,3.389
			l1.888-3.288c0,0,0.004-4.388-0.821-6.759c0,0,0.921,4.657,1.145,5.412l1.138-2.873c0,0,0.434-1.507-0.01-3.894
			c0,0,0.718,1.649,0.924,2.022l-1.165,4.057l-1.578,3.312l-2.908,5.314l-2.233,4.063l-1.496,2.583l-2.017,2.872l-2.083,3.104
			l-1.935,3.021l-1.09,2.259l-2.15,3.335l-1.005,2.41l-1.727,2.515l-0.981,2.98l-2.471,5.754l-1.381,4.373l-2.162,5.778
			l-1.224,3.601l-1.215,3.792l-2.22,6.2l-1.026,5.54l-1.121,6.08l-1.485,6.671l-1.275,6.165L98.343,112.095z"/>
		<path opacity="0.2" d="M100.442,113.25c0,0,3.098-1.934,5.374-4.291c0,0-3.191,2.424-5.26,2.912c0,0,4.957-3.988,7.018-6.737
			c0,0-4.989,4.59-7.053,5.221l0.009-1.833l0.687-2.062c0,0,2.271-1.257,3.614-2.313c0.069-0.056,0.139-0.111,0.204-0.165
			c1.3-1.086-3.265,2.026-3.588,1.839l0.327-3.105c0,0,6.277-5.961,9.076-7.511c0,0-6.643,4.116-8.975,6.505l0.338-1.503
			c0,0,0.784-1.093,2.712-2.233c0,0-1.66,0.699-2.55,1.339l0.482-2.168c0,0,3.56-3.871,6.637-5.574c0,0-3.861,2.137-6.492,4.252
			l0.399-1.392c0,0,1.618-1.699,3.956-3.287c0,0-2.654,1.543-3.979,2.716l0.786-2.409c0,0-0.572,0.024,1.418-1.005
			c0,0-0.888-0.02-1.249,0.253c0,0-1.657-1.275,6.486-5.712c0,0-4.178,2.094-5.738,3.104l0.602-2.087c0,0,1.978-1.972,7.28-4.542
			c0,0-4.481,1.676-6.875,3.294l0.486-1.365c0,0-0.454,0.104,1.368-0.83c0,0-1.306,0.282-1.475,0.377l0.85-2.299
			c0,0,3.689-3.505,9.992-5.458c0,0-3.952,0.652-9.48,4.005l0.767-2.18c0,0,2.085-2.177,6.151-3.55c0,0-4.632,1.541-5.583,2.067
			l0.536-1.54c0,0,3.351-2.001,6.722-3.575c0,0-4.09,1.46-6.521,2.879l0.498-1.738l0.662-1.317c0,0,2.233-2.04,7.362-4.661
			c0,0-4.817,1.863-6.733,3.29l0.817-1.695c0,0-0.821,0.234,1.342-0.744c0,0-0.141-0.652-0.894-0.163c0,0,0.957-1.042,3.644-1.872
			c0,0-1.312-0.517-2.959,0.468l0.532-2.341c0,0,3.438-2.636,7.641-3.499c0,0-3.038-0.073-7.029,2.356l1.072-2.421
			c0,0,1.145-1.365,8.048-2.628c0,0-3.503-0.254-7.6,1.722l1.893-3.315c0,0,1.779-1.277,3.002-1.442c0,0-1.856,0.078-3.256,0.852
			l1.707-2.334c0,0-0.255-0.59,4.269-1.267c0,0-1.961-0.376-3.746,0.101l0.972-1.416c0,0,0.765-0.204,4.382-1.33
			c0,0-2.584,0.481-4.245,0.522l1.296-1.888c0,0,4.009-1.342,7.504-3.349c0,0-5.932,2.625-7.081,2.53l1.446-2.409
			c0,0,2.908-0.951,5.228-2.309c0,0-4.233,1.466-4.891,1.465l0.915-1.384c0,0,0.235,0.162,1.355-0.458c0,0-0.82,0.235-1.007-0.101
			l1.259-2.085c0,0,4.114-0.889,8.387-4.132c0,0-4.26,2.87-7.901,3.424l1.282-2.171c0,0,1.007,0.1,2.654-0.885
			c0,0-2.058,0.773-2.243,0.438l0.847-1.638c0,0,1.008,0.1,4.438-2.019c0,0-2.916,1.468-3.896,1.28l1.177-1.968
			c0,0,1.909-0.911,3.302-1.828c0,0-2.001,0.742-2.878,1.009l1.675-3.048c0,0,3.676-2.473,5.857-6.459c0,0-2.652,3.662-5.558,5.416
			l1.578-3.359c0,0,1.934-0.998,2.475-1.736c0,0-1.361,0.974-2.444,1.134l0.974-2.074c0,0,1.885-1.481,2.694-2.661
			c0,0-1.25,0.912-2.375,1.389c0,0,2.03-3.464,3.083-5.656c0,0-2.354,3.937-3.038,4.68l-1.229,2.8l-1.957,4.52l-2.137,3.668
			l-1.926,3.917l-2.255,3.589l-3.144,4.884l-2.354,3.277l-3.053,5.711l-3.919,7.581l-3.84,8.779l-3.504,8.593l-2.596,7.724
			L102.57,93.72l-1.649,6.396l-1.159,7.149l-0.553,3.888l0.144,2.722L100.442,113.25z"/>
		<path fill="#E58989" d="M104.135,151.392c0,0-18.244-43.515,23.21-112.671c0,0,14.176-18.766,13.078-37.654
			c0,0,1.389,13.074-14.335,36.791c0,0-34.828,46.966-27.362,106.586C98.726,144.443,99.515,148.685,104.135,151.392z"/>
		<path opacity="0.15" d="M126.563,38.453c0,0-34.26,47.381-26.077,106.907c0,0,0.082,0.411,0.337,1.059
			c-0.921-0.952-1.715-1.557-2.057-1.798c0.207,0.827,1.306,4.392,5.368,6.771c0,0-0.048-0.11-0.127-0.322
			c-0.061-0.131-0.122-0.257-0.186-0.385c0.022,0.021,0.043,0.041,0.065,0.062c-2.023-5.6-15.086-47.726,23.457-112.026
			c0,0,13.01-17.227,13.135-35.282C140.295,7.895,138.542,19.907,126.563,38.453z"/>
	</g>
</g>
</svg>
