<?xml version="1.0" encoding="utf-8"?>
<!-- Generator: Adobe Illustrator 16.0.0, SVG Export Plug-In . SVG Version: 6.00 Build 0)  -->
<!DOCTYPE svg PUBLIC "-//W3C//DTD SVG 1.1//EN" "http://www.w3.org/Graphics/SVG/1.1/DTD/svg11.dtd">
<svg version="1.1" id="Layer_1" xmlns="http://www.w3.org/2000/svg" xmlns:xlink="http://www.w3.org/1999/xlink" x="0px" y="0px"
	 width="144px" height="152px" viewBox="1.75 0 144 152" enable-background="new 1.75 0 144 152" xml:space="preserve">
<g>
	<g>
		<circle fill="#233B48" cx="73.78" cy="72.04" r="71.441"/>
		<g>
			<path fill="#264782" d="M38.81,139.454c0,0,0.458,11.105,18.501,2.043l80.934-21.656l-1.855-6.95l-79.404,21.138
				C56.986,134.028,45.562,128.336,38.81,139.454z"/>
			<path fill="#39579A" d="M39.455,138.334c0,0,0.509,11.092,18.141,2.14l79.197-21.191l-1.856-6.95l-77.698,20.682
				C57.238,133.014,46.012,127.268,39.455,138.334z"/>
			
				<rect x="43.412" y="130.433" transform="matrix(-0.9659 0.2588 -0.2588 -0.9659 212.3178 233.8292)" fill="#EFEDEA" width="94.71" height="0.915"/>
			
				<rect x="42.844" y="130.05" transform="matrix(-0.9659 0.2588 -0.2588 -0.9659 211.551 233.1635)" fill="#CCC7C0" width="95.167" height="0.915"/>
			
				<rect x="42.726" y="129.608" transform="matrix(-0.9659 0.2588 -0.2588 -0.9659 211.2054 232.3251)" fill="#EFEDEA" width="95.167" height="0.916"/>
			
				<rect x="42.157" y="129.226" transform="matrix(-0.9659 0.2588 -0.2588 -0.9659 210.4379 231.6609)" fill="#CCC7C0" width="95.625" height="0.915"/>
			
				<rect x="41.589" y="128.843" transform="matrix(-0.9659 0.2588 -0.2588 -0.9659 209.6707 230.9967)" fill="#EFEDEA" width="96.082" height="0.914"/>
			
				<rect x="41.471" y="128.401" transform="matrix(-0.9659 0.2588 -0.2588 -0.9659 209.3248 230.1582)" fill="#CCC7C0" width="96.082" height="0.915"/>
			
				<rect x="41.353" y="127.958" transform="matrix(-0.9659 0.2588 -0.2588 -0.9659 208.9782 229.32)" fill="#EFEDEA" width="96.082" height="0.916"/>
			
				<rect x="41.234" y="127.517" transform="matrix(-0.9659 0.2588 -0.2588 -0.9659 208.6288 228.4825)" fill="#CCC7C0" width="96.082" height="0.915"/>
			
				<rect x="41.115" y="127.075" transform="matrix(-0.9659 0.2588 -0.2588 -0.9659 208.2825 227.6434)" fill="#EFEDEA" width="96.083" height="0.915"/>
			
				<rect x="40.997" y="126.633" transform="matrix(-0.9659 0.2588 -0.2588 -0.9659 207.9351 226.8061)" fill="#CCC7C0" width="96.081" height="0.915"/>
			
				<rect x="42.235" y="136.493" transform="matrix(-0.9659 0.2589 -0.2589 -0.9659 134.6723 256.1681)" fill="#EFEDEA" width="16.471" height="0.915"/>
			<polygon fill="#CCC7C0" points="42.792,138.061 58.631,133.817 58.868,134.701 42.766,139.045 			"/>
			
				<rect x="42.48" y="135.788" transform="matrix(-0.9659 0.2588 -0.2588 -0.9659 132.7163 255.0165)" fill="#EFEDEA" width="14.183" height="0.914"/>
			<polygon fill="#CCC7C0" points="42.808,137.079 56.184,133.525 56.421,134.409 42.721,138.08 			"/>
			
				<rect x="42.684" y="134.785" transform="matrix(-0.9659 0.2588 -0.2588 -0.9659 132.8502 252.9991)" fill="#EFEDEA" width="14.183" height="0.914"/>
			
				<rect x="42.123" y="134.461" transform="matrix(-0.9659 0.2588 -0.2588 -0.9659 131.6723 252.5031)" fill="#CCC7C0" width="14.183" height="0.915"/>
			<path fill="#264782" d="M106.59,1.676c4.164,30.861,26.985,89.032-48.701,133.021l0.212,0.684l78.666-21.079L106.59,1.676z"/>
			
				<rect x="41.379" y="9.273" transform="matrix(0.9659 -0.2588 0.2588 0.9659 -14.7012 23.5532)" fill="#4972AD" width="81.442" height="116.671"/>
			<path fill="#39579A" d="M106.354,0.792c4.164,30.86,27.164,89.591-48.522,133.579l0.033,0.125l78.667-21.079L106.354,0.792z"/>
			<path fill="#EFBE45" d="M43.187,135.843c0,0-2.747,5.217,1.902,7.761l0.636-0.17c0,0-4.732-2.302-2.039-7.717L43.187,135.843z"/>
			<path fill="#264782" d="M28.253,22.574c0,0-11.105-2.911-19.356,5.187l30.201,112.711c0,0,7.724-8.519,19.122-5.094
				L28.253,22.574z"/>
			<path fill="#39579A" d="M28.017,21.691c0,0-11.105-2.911-19.356,5.187l30.201,112.711c0,0,7.868-8.57,19.266-5.146L28.017,21.691
				z"/>
			<path fill="#4972AD" d="M17.288,21.954c-2.851,0.772-5.896,2.243-8.627,4.924l30.201,112.71c0,0,3.24-3.522,8.568-5.147
				L17.288,21.954z"/>
			<path fill="#D8D8D8" d="M51.634,132.456c1.392-0.109,1.922,0.104,3.367,0.189L25.695,23.277c-0.961-0.054-1.931-0.136-3.33-0.053
				L51.634,132.456z"/>
			<polygon fill="#0450BC" points="67.031,144.178 76.022,147.458 72.039,132.593 57.013,136.619 60.975,151.407 			"/>
			<path fill="#063F84" d="M72.039,132.593l-0.516,0.139c-1.687,3.702-5.371,11.174-10.611,18.44l0.063,0.235l6.056-7.229
				l8.991,3.28L72.039,132.593z"/>
			
				<rect x="56.807" y="134.598" transform="matrix(0.9659 -0.2588 0.2588 0.9659 -32.6955 21.3104)" fill="#063F84" width="15.556" height="0.457"/>
			<path fill="#FFD96C" d="M33.417,27.574"/>
			<path fill="#39579A" d="M128.708,109.683l-0.355-1.327l-0.046,0.013l-26.328-98.257l-0.013,0.003l-0.012-0.046L37.816,27.254
				l0.012,0.046l-0.206,0.055l26.681,99.571l0.104-0.028l0.004,0.013L128.708,109.683z M49.146,30.417
				c0,4.07-3.232,7.377-7.268,7.517l-2.587-9.654l8.427-2.258C48.612,27.259,49.146,28.774,49.146,30.417z M50.987,30.417
				c0-1.798-0.517-3.472-1.396-4.897l39.992-10.716c0.491,4.713,4.476,8.389,9.319,8.389c1.758,0,3.396-0.494,4.802-1.338
				l20.244,75.552c-4.901,0.304-8.785,4.364-8.785,9.342c0,1.752,0.489,3.385,1.327,4.786l-39.902,10.692
				c-0.318-4.887-4.373-8.755-9.34-8.755c-1.748,0-3.376,0.487-4.775,1.32L42.366,39.75C47.189,39.368,50.987,35.339,50.987,30.417z
				 M91.397,14.317l9.598-2.572l2.21,8.247c-1.22,0.854-2.701,1.359-4.303,1.359C94.911,21.352,91.653,18.244,91.397,14.317z
				 M67.248,115.312c4.115,0,7.454,3.303,7.523,7.401l-9.494,2.543l-2.306-8.606C64.187,115.81,65.658,115.312,67.248,115.312z
				 M118.351,111.036c-0.846-1.218-1.347-2.693-1.347-4.288c0-4.125,3.318-7.473,7.431-7.525l2.546,9.501L118.351,111.036z"/>
			<path fill="#D8D8D8" d="M100.831,97.977c-0.018-0.016-0.022-0.033-0.036-0.049c-0.085-0.025-0.167-0.05-0.244-0.073
				c-0.076-0.023-0.139-0.06-0.188-0.103l-0.025,0.034c-1.159-1.156-7.661-3.119-7.661-3.119l-9.202-34.282l8.242-2.212
				l-1.562-5.818l-7.758,2.082l-3.51-13.075l10.699-0.323c-1.048-3.041-1.299-8.767-1.299-8.767l-10.8-0.036
				c-4.649,7.428-9.713,12.263-9.713,12.263l3.471,12.932l-4.848,1.301l1.561,5.818l5.333-1.431l8.236,30.679
				c1.334,4.971-1.573,8.842-1.573,8.842c11.752,1.48,15.75,4.887,15.75,4.887l6.224-8.542
				C101.557,98.657,101.202,98.31,100.831,97.977z"/>
			<path fill="#AAAAAA" d="M95.705,107.526l6.224-8.542c-0.372-0.327-0.727-0.675-1.098-1.008c-0.018-0.016-0.022-0.033-0.036-0.049
				c-0.085-0.025-0.167-0.05-0.244-0.073c-0.076-0.023-0.139-0.06-0.188-0.103l-0.025,0.034c-0.194-0.193-0.541-0.411-0.98-0.637
				c-1.907,2.938-4.061,5.863-6.483,8.767C94.875,106.822,95.705,107.526,95.705,107.526z"/>
			<path fill="#FFFFFF" d="M127.703,109.181l-0.355-1.327l-0.045,0.013L100.975,9.609l-0.013,0.003l-0.013-0.046L36.812,26.752
				l0.012,0.046l-0.206,0.055l26.68,99.571l0.104-0.028l0.003,0.013L127.703,109.181z M48.143,29.915
				c0,4.07-3.232,7.377-7.268,7.517l-2.587-9.654l8.427-2.258C47.608,26.757,48.143,28.272,48.143,29.915z M49.983,29.915
				c0-1.798-0.517-3.472-1.396-4.897l39.992-10.716c0.491,4.713,4.476,8.389,9.319,8.389c1.758,0,3.396-0.494,4.802-1.338
				l20.244,75.552c-4.901,0.304-8.785,4.364-8.785,9.342c0,1.752,0.489,3.385,1.327,4.786l-39.902,10.692
				c-0.318-4.887-4.373-8.756-9.34-8.756c-1.747,0-3.375,0.487-4.774,1.321L41.362,39.248
				C46.186,38.866,49.983,34.837,49.983,29.915z M90.394,13.815l9.598-2.572l2.21,8.247c-1.22,0.854-2.701,1.359-4.303,1.359
				C93.907,20.85,90.649,17.742,90.394,13.815z M66.244,114.81c4.115,0,7.455,3.304,7.524,7.401l-9.495,2.544l-2.306-8.606
				C63.183,115.308,64.653,114.81,66.244,114.81z M117.347,110.534c-0.846-1.218-1.348-2.693-1.348-4.288
				c0-4.125,3.319-7.473,7.432-7.525l2.546,9.501L117.347,110.534z"/>
			<path fill="#264782" d="M128.353,108.355l-0.046,0.013l-15.439-57.621c-0.018,1.561-0.068,3.133-0.157,4.715l11.238,41.944
				c-4.901,0.304-8.785,4.364-8.785,9.342c0,1.752,0.489,3.385,1.327,4.786l-39.902,10.692c-0.012-0.174-0.038-0.343-0.059-0.515
				c-1.265,1.006-2.572,2.007-3.92,3.002l56.099-15.031L128.353,108.355z M118.351,111.036c-0.846-1.218-1.347-2.693-1.347-4.288
				c0-4.125,3.318-7.473,7.431-7.525l2.546,9.501L118.351,111.036z"/>
			<path fill="#D8D8D8" d="M127.348,107.854l-0.045,0.013l-14.509-54.147c-0.056,1.433-0.143,2.875-0.263,4.323l10.413,38.862
				c-4.901,0.304-8.785,4.364-8.785,9.342c0,1.752,0.489,3.385,1.327,4.786l-38.508,10.318c-0.901,0.724-1.824,1.444-2.77,2.163
				l53.494-14.333L127.348,107.854z M117.347,110.534c-0.846-1.218-1.348-2.693-1.348-4.288c0-4.125,3.319-7.473,7.432-7.525
				l2.546,9.501L117.347,110.534z"/>
			<path fill="#FFFFFF" d="M99.827,97.977c-0.018-0.016-0.022-0.033-0.036-0.049c-0.085-0.025-0.167-0.05-0.244-0.073
				c-0.076-0.023-0.139-0.06-0.189-0.103l-0.024,0.034c-1.159-1.156-7.661-3.119-7.661-3.119L82.47,60.385l8.242-2.212l-1.562-5.818
				l-7.758,2.082l-3.51-13.075l10.699-0.323c-1.048-3.041-1.299-8.767-1.299-8.767l-10.8-0.036
				c-4.649,7.428-9.713,12.263-9.713,12.263l3.471,12.932l-4.848,1.301l1.562,5.818l5.333-1.431l8.236,30.679
				c1.334,4.971-1.573,8.842-1.573,8.842c11.752,1.48,15.75,4.887,15.75,4.887l6.224-8.542
				C100.553,98.657,100.198,98.31,99.827,97.977z"/>
			<path fill="#D8D8D8" d="M94.701,107.526l6.224-8.542c-0.372-0.327-0.727-0.675-1.098-1.008c-0.018-0.016-0.022-0.033-0.036-0.049
				c-0.085-0.025-0.167-0.05-0.244-0.073c-0.076-0.023-0.139-0.06-0.189-0.103l-0.024,0.034c-0.067-0.067-0.155-0.138-0.257-0.21
				c-1.913,2.909-4.066,5.806-6.488,8.68C94.072,106.992,94.701,107.526,94.701,107.526z"/>
			<path fill="#D8D8D8" d="M31.225,33.254c0,0-8.926-2.334-16.718,3.018l-4.024-2.905l3.545,13.177l1.129-6.008
				c6.72-4.841,14.403-3.798,16.508-3.388c0.025,0.002,0.047-0.004,0.073,0.001c0.043,0.009,0.083,0.028,0.125,0.039
				c0.233,0.049,0.365,0.083,0.365,0.083l0.009,0.032c0.024,0.009,0.05,0.014,0.074,0.023L31.225,33.254z"/>
			<path fill="#D8D8D8" d="M42.269,74.919c0,0-8.926-2.334-16.719,3.018l-4.023-2.905l3.545,13.177l1.129-6.008
				c6.72-4.842,14.402-3.799,16.508-3.389c0.026,0.002,0.047-0.005,0.073,0.001c0.042,0.01,0.083,0.028,0.125,0.039
				c0.233,0.049,0.365,0.082,0.365,0.082l0.008,0.032c0.024,0.009,0.051,0.015,0.075,0.023L42.269,74.919z"/>
			<path fill="#D8D8D8" d="M54.819,121.604c0,0-8.926-2.334-16.719,3.017l-4.024-2.904l3.545,13.177l1.129-6.008
				c6.721-4.842,14.403-3.799,16.508-3.389c0.025,0.002,0.047-0.004,0.073,0.002c0.042,0.009,0.083,0.027,0.125,0.038
				c0.233,0.049,0.365,0.083,0.365,0.083l0.008,0.031c0.024,0.009,0.05,0.015,0.074,0.023L54.819,121.604z"/>
			<path fill="#FFFFFF" d="M30.723,31.748c0,0-8.926-2.334-16.718,3.018l-4.024-2.905l3.545,13.177l1.129-6.008
				c6.72-4.841,14.403-3.799,16.508-3.388c0.025,0.002,0.047-0.004,0.073,0.001c0.043,0.009,0.083,0.028,0.125,0.039
				c0.233,0.048,0.365,0.083,0.365,0.083l0.008,0.032c0.025,0.009,0.051,0.014,0.075,0.023L30.723,31.748z"/>
			<path fill="#FFFFFF" d="M41.767,73.413c0,0-8.926-2.334-16.719,3.018l-4.023-2.905l3.545,13.177l1.129-6.008
				c6.721-4.842,14.403-3.799,16.508-3.389c0.026,0.002,0.047-0.005,0.073,0.001c0.042,0.01,0.083,0.028,0.125,0.039
				c0.233,0.049,0.365,0.082,0.365,0.082l0.008,0.032c0.024,0.009,0.05,0.015,0.075,0.023L41.767,73.413z"/>
			<path fill="#FFFFFF" d="M54.317,120.098c0,0-8.926-2.334-16.719,3.018l-4.024-2.904l3.545,13.177l1.129-6.008
				c6.721-4.842,14.403-3.799,16.508-3.389c0.025,0.002,0.047-0.004,0.073,0.002c0.042,0.009,0.083,0.027,0.125,0.038
				c0.233,0.049,0.365,0.083,0.365,0.083l0.008,0.031c0.024,0.009,0.05,0.015,0.074,0.023L54.317,120.098z"/>
			<path fill="#AAAAAA" d="M21.465,37.543c4.625-1.264,8.745-0.68,10.2-0.396c0.025,0.002,0.047-0.004,0.073,0.001
				c0.043,0.009,0.083,0.028,0.125,0.039c0.233,0.049,0.365,0.083,0.365,0.083l0.009,0.032c0.024,0.009,0.05,0.014,0.074,0.023
				l-1.087-4.071c0,0-5.027-1.314-10.831,0.292L21.465,37.543z"/>
			<g>
				<path fill="#AAAAAA" d="M32.622,79.178c4.579-1.225,8.644-0.646,10.087-0.365c0.026,0.002,0.047-0.005,0.073,0.001
					c0.042,0.01,0.083,0.028,0.125,0.039c0.233,0.049,0.365,0.082,0.365,0.082l0.008,0.032c0.024,0.009,0.051,0.015,0.075,0.023
					l-1.087-4.071c0,0-4.963-1.295-10.718,0.262L32.622,79.178z"/>
			</g>
			<path fill="#AAAAAA" d="M54.819,121.604c0,0-4.985-1.303-10.757,0.271l1.071,3.996c4.595-1.238,8.679-0.656,10.126-0.375
				c0.025,0.002,0.047-0.004,0.073,0.002c0.042,0.009,0.083,0.027,0.125,0.038c0.233,0.049,0.365,0.083,0.365,0.083l0.008,0.031
				c0.024,0.009,0.05,0.015,0.074,0.023L54.819,121.604z"/>
			<g>
				<path fill="#D8D8D8" d="M54.317,120.098c0,0-4.932-1.286-10.665,0.249l1.071,3.996c4.557-1.205,8.596-0.632,10.034-0.352
					c0.025,0.002,0.047-0.004,0.073,0.002c0.042,0.009,0.083,0.027,0.125,0.038c0.233,0.049,0.365,0.083,0.365,0.083l0.008,0.031
					c0.024,0.009,0.05,0.015,0.074,0.023L54.317,120.098z"/>
			</g>
			<g>
				<path fill="#D8D8D8" d="M32.211,77.648c4.542-1.192,8.562-0.621,9.996-0.342c0.026,0.002,0.047-0.005,0.073,0.001
					c0.042,0.01,0.083,0.028,0.125,0.039c0.233,0.049,0.365,0.082,0.365,0.082l0.008,0.032c0.024,0.009,0.05,0.015,0.075,0.023
					l-1.087-4.071c0,0-4.911-1.281-10.626,0.239L32.211,77.648z"/>
			</g>
			<g>
				<path fill="#D8D8D8" d="M21.055,36.012c4.587-1.231,8.663-0.652,10.108-0.37c0.025,0.002,0.047-0.004,0.073,0.001
					c0.043,0.009,0.083,0.028,0.125,0.039c0.233,0.048,0.365,0.083,0.365,0.083l0.008,0.032c0.025,0.009,0.051,0.014,0.075,0.023
					l-1.087-4.071c0,0-4.975-1.299-10.739,0.268L21.055,36.012z"/>
			</g>
			<polygon fill="#7C7C7C" points="119.806,50.996 120.579,50.115 119.585,50.17 			"/>
			<polygon fill="#7C7C7C" points="122.61,61.465 123.353,60.643 122.41,60.715 			"/>
			<polygon fill="#D8D8D8" points="118.75,47.121 109.733,49.396 107.227,47.9 104.294,52.812 109.206,55.744 110.703,53.236 
				119.777,50.946 			"/>
			<polygon fill="#D8D8D8" points="121.573,57.636 112.374,59.958 109.867,58.461 106.935,63.373 111.847,66.305 113.343,63.797 
				122.6,61.461 			"/>
			<path fill="#AAAAAA" d="M119.777,50.946l-1.027-3.825l-5.88,1.484c0.011,1.356-0.001,2.722-0.041,4.095L119.777,50.946z"/>
			<path fill="#AAAAAA" d="M113.343,63.797l9.257-2.336l-1.026-3.825l-9.199,2.322l-0.02-0.012c-0.21,2.04-0.487,4.094-0.844,6.158
				l0.336,0.201L113.343,63.797z"/>
			<polygon fill="#FFFFFF" points="119.569,46.285 109.231,48.895 106.725,47.398 103.792,52.31 108.704,55.242 110.201,52.734 
				120.579,50.115 			"/>
			<polygon fill="#FFFFFF" points="122.344,56.812 111.872,59.456 109.365,57.959 106.433,62.871 111.345,65.803 112.841,63.295 
				123.353,60.643 			"/>
			<path fill="#D8D8D8" d="M120.579,50.115l-1.01-3.83l-6.706,1.693c0.019,1.354,0.013,2.717-0.019,4.089L120.579,50.115z"/>
			<path fill="#D8D8D8" d="M123.353,60.643l-1.009-3.831l-9.926,2.506c-0.19,1.982-0.446,3.978-0.773,5.983l1.196-2.005
				L123.353,60.643z"/>
		</g>
	</g>
</g>
</svg>
