<?xml version="1.0" encoding="utf-8"?>
<!-- Generator: Adobe Illustrator 16.0.0, SVG Export Plug-In . SVG Version: 6.00 Build 0)  -->
<!DOCTYPE svg PUBLIC "-//W3C//DTD SVG 1.1//EN" "http://www.w3.org/Graphics/SVG/1.1/DTD/svg11.dtd">
<svg version="1.1" id="Layer_1" xmlns="http://www.w3.org/2000/svg" xmlns:xlink="http://www.w3.org/1999/xlink" x="0px" y="0px"
	 width="145.25px" height="152px" viewBox="-7 0 145.25 152" enable-background="new -7 0 145.25 152" xml:space="preserve">
<g>
	<circle fill="#364F5E" cx="65.754" cy="72.188" r="71.816"/>
	<g>
		<g>
			<rect x="11.809" y="116.067" fill="#FFFFFF" width="107.309" height="16.091"/>
			<path fill="#044470" d="M37.138,112.536c0,6.311-5.67,11.423-12.665,11.423l0,0c-6.994,0-10.551,2.089-12.665,7.154V18.206
				c0-6.308,5.67-11.422,12.665-11.422l0,0c6.995,0,12.665,5.114,12.665,11.422V112.536z"/>
			<rect x="23.758" y="6.75" fill="#1C75BA" width="95.36" height="117.212"/>
			<path fill="#043049" d="M24.474,6.783c-1.179,0-2.316,0.159-3.399,0.429v116.953c1.033-0.138,2.16-0.206,3.399-0.206
				c6.995,0,12.665-5.112,12.665-11.423V18.206C37.138,11.897,31.468,6.783,24.474,6.783z"/>
			<rect x="23.758" y="6.75" fill="#1C75BA" width="44.997" height="117.212"/>
		</g>
		<g>
			<path fill="#FFFFFF" d="M119.118,123.962H18.365c-3.62,0-6.556,3.403-6.556,7.6s2.936,7.6,6.556,7.6h100.753V123.962z"/>
			<path fill="#044470" d="M115.28,137.93v-8.901h0.373v-3.873h3.465v-1.193H18.365c-3.62,0-6.556,3.403-6.556,7.6
				s2.936,7.6,6.556,7.6h100.753v-1.231H115.28z"/>
			<path fill="#FFFFFF" d="M119.118,125.155H18.365c-2.958,0-5.364,2.874-5.364,6.406c0,3.534,2.407,6.406,5.364,6.406h100.753
				V125.155z"/>
			<path fill="#F0ECDA" d="M13.014,131.711c0.067,3.463,2.436,6.257,5.351,6.257h100.753v-6.257H13.014z"/>
		</g>
	</g>
	<g>
		<path fill="#FFA91B" d="M11.77,29.38v11.51c1.846-2.744,4.958-4.501,9.321-5.25v-9.652C17.629,26.537,14.501,27.718,11.77,29.38z"
			/>
	</g>
	<g>
		<path fill="#FFA91B" d="M11.77,102.092v11.51c1.846-2.742,4.958-4.501,9.321-5.25v-9.652
			C17.629,99.25,14.501,100.431,11.77,102.092z"/>
	</g>
	<polygon fill="#BC1E2D" points="31.07,131.113 30.776,151.674 42.024,139.085 52.913,151.65 53.206,131.113 	"/>
	<circle fill="#29235C" cx="68.755" cy="64.831" r="28.936"/>
	<path opacity="0.2" d="M23.758,6.75c0,0,30.056,95.373,95.36,117.212l-98.043,0.203L23.758,6.75z"/>
	<g id="_x34_22L6d.tif_2_">
		<g>
			<path fill="#FFEC00" d="M96.232,57.42c-2.864,0.214-5.594,0.688-7.17,3.603c-1.339-0.065-2.558-0.218-3.773-0.138
				c-0.54,0.035-1.069,0.542-1.679,0.875c0.826,0.388,1.644,0.528,2.126,1.062c0.5,0.553,0.795,1.451,0.963,2.263
				c0.227,1.102-0.371,1.593-1.269,1.329c-0.551-0.162-1.236-0.456-1.496-0.948c-0.644-1.223-1.231-2.541-1.545-3.918
				c-0.233-1.023-0.176-2.171,1.144-2.719c0.924-0.383,1.098-1.719,0.58-2.641c-0.445-0.796-1.574-1.051-2.275-0.516
				c-0.795,0.606-1.074,1.884-0.401,2.71c0.661,0.808,0.371,1.364-0.093,2.029c-2.929,4.202-8.599,3.525-10.317-1.269
				c-0.25-0.698-0.173-1.557-0.251-2.382c3.243,0.038,4.314-0.63,4.21-2.46c-0.088-1.606-1.194-2.312-3.186-1.946
				c1.365-3.607-0.224-6.388-1.717-9.51c-1.557,3.104-3.389,5.846-2.103,9.544c-1.14-0.241-2.371-0.493-2.96,0.96
				c-0.282,0.697-0.329,1.798-0.038,2.441c0.738,1.627,2.178,1.078,3.667,0.837c-0.016,0.738,0.078,1.419-0.063,2.04
				c-0.686,3.011-3.661,5.198-6.253,4.376c-1.436-0.456-2.785-1.361-4.049-2.281c-0.66-0.479-1.012-1.318-0.187-2.341
				c0.685-0.846,0.517-1.928-0.314-2.554c-0.773-0.582-1.65-0.542-2.307,0.405c-0.578,0.834-0.437,2.34,0.413,2.677
				c1.307,0.52,1.323,1.687,1.01,2.688c-0.481,1.538-1.153,3.086-2.054,4.345c-0.384,0.536-1.551,0.353-2.362,0.495
				c0.055-0.872-0.162-1.974,0.229-2.562c0.593-0.896,1.607-1.434,2.426-2.111c-0.802-1.087-1.757-1.218-4.874-0.353
				c-1.535-3.094-4.248-3.578-6.994-3.862c1.903,2.566,3.927,5.027,5.672,7.727c1.783,2.754,2.729,6.005,3.172,9.518
				c11.44-0.062,22.851-0.121,34.339-0.183C87.763,67.527,91.457,62.112,96.232,57.42z"/>
			<path fill="#FFEC00" d="M69.568,76.642c-5.389,0.03-10.779,0.077-16.167,0.07c-1.087-0.001-1.927,0.337-2.147,1.631
				c-0.156,0.912,0.954,1.815,2.105,1.811C64.181,80.1,75.002,80.029,85.822,80c1.115-0.004,1.64-0.623,1.674-1.75
				c0.037-1.183-0.562-1.717-1.632-1.707C80.432,76.596,74.999,76.611,69.568,76.642z"/>
		</g>
	</g>
	<g>
		<path fill="#FFFFFF" d="M83.571,64.274c3.006,3.578,4.056,1.731,4.476-7.873c-0.42,9.604,0.408,11.562,3.529,8.342
			c-3.121,3.22-1.041,3.647,8.871,1.822c-9.912,1.825-11.517,3.217-6.843,5.934c-4.674-2.717-4.438-0.606,1.007,8.999
			c-5.445-9.605-7.265-10.701-7.757-4.674c0.492-6.027-1.442-5.15-8.247,3.74c6.805-8.89,7.285-10.959,2.047-8.822
			c5.238-2.138,3.807-3.707-6.105-6.69C84.461,68.035,86.577,67.852,83.571,64.274z"/>
	</g>
</g>
</svg>
