<?xml version="1.0" encoding="utf-8"?>
<!-- Generator: Adobe Illustrator 16.0.0, SVG Export Plug-In . SVG Version: 6.00 Build 0)  -->
<!DOCTYPE svg PUBLIC "-//W3C//DTD SVG 1.1//EN" "http://www.w3.org/Graphics/SVG/1.1/DTD/svg11.dtd">
<svg version="1.1" id="Layer_1" xmlns="http://www.w3.org/2000/svg" xmlns:xlink="http://www.w3.org/1999/xlink" x="0px" y="0px"
	 width="145.25px" height="152px" viewBox="-7 0 145.25 152" enable-background="new -7 0 145.25 152" xml:space="preserve">
<g>
	<circle fill="#364F5E" cx="65.431" cy="71.974" r="71.493"/>
	<g>
		<g>
			<g>
				<g>
					<polygon fill="#CCC7C0" points="124.838,119.047 94.056,148.652 94.018,149.948 124.799,120.344 					"/>
				</g>
				<g>
					<polygon fill="#EFEDEA" points="124.878,117.751 94.096,147.355 94.056,148.652 124.838,119.047 					"/>
				</g>
				<g>
					<polygon fill="#CCC7C0" points="124.917,116.454 94.135,146.06 94.096,147.355 124.878,117.751 					"/>
				</g>
				<g>
					<polygon fill="#EFEDEA" points="124.957,115.157 94.174,144.763 94.135,146.06 124.917,116.454 					"/>
				</g>
				<g>
					<polygon fill="#CCC7C0" points="124.996,113.861 94.213,143.467 94.174,144.763 124.957,115.157 					"/>
				</g>
				<g>
					<polygon fill="#EFEDEA" points="125.034,112.565 94.252,142.171 94.213,143.467 124.996,113.861 					"/>
				</g>
				<g>
					<polygon fill="#CCC7C0" points="125.074,111.269 94.292,140.874 94.252,142.171 125.034,112.565 					"/>
				</g>
				<g>
					<polygon fill="#EFEDEA" points="125.114,109.972 94.331,139.578 94.292,140.874 125.074,111.269 					"/>
				</g>
				<g>
					<polygon fill="#CCC7C0" points="125.153,108.676 94.37,138.282 94.331,139.578 125.114,109.972 					"/>
				</g>
				<g>
					<polygon fill="#00B5B8" points="126.459,106.09 94.409,136.984 94.37,138.282 126.42,107.387 					"/>
				</g>
				<polygon fill="#068484" points="126.073,118.82 93.88,149.945 94.858,151.543 125.995,121.414 				"/>
				<path fill="#00A099" d="M95.148,136.166l-80.14-2.428l-3.763-0.114l-0.94-0.028c0,0-4.811,8.86-0.185,15.552l0.654,0.02
					l3.598,0.109l80.377,2.435C93.688,144.31,94.31,140.234,95.148,136.166z"/>
				<path fill="#CAAC68" d="M29.08,134.164l-9.557-0.289c-1.188,4.058-2.242,9.757,0.453,15.57l9.276,0.281
					C28.245,146.831,26.991,141.061,29.08,134.164z"/>
				<path fill="#CAAC68" d="M69.795,135.398l-4.036-0.123c-0.898,4.067-1.535,9.779,0.471,15.571l3.917,0.118
					C68.893,148.062,67.698,142.703,69.795,135.398z"/>
				<path fill="#CAAC68" d="M77.574,135.633l-4.037-0.122c-0.898,4.067-1.533,9.779,0.472,15.571l3.917,0.119
					C76.671,148.298,75.477,142.939,77.574,135.633z"/>
				<path opacity="0.2" d="M8.133,141.718c-0.01,0-0.019,0.304-0.022,0.593c-0.001,0.069,0.236,0.013,0.237,0.082
					c0,0.291,0.262,0.459,0.262,0.755v0.001c0,0.293-0.184,0.581-0.145,0.876c0.01,0.072-0.098,0.141-0.087,0.213
					c0.044,0.297,0.037,0.591,0.103,0.887c0,0.003-0.028,0.003-0.028,0.006c0.065,0.295,0.134,0.588,0.224,0.882
					c0.022,0.072,0.258,0.146,0.283,0.219c0.097,0.293-0.459,0.585,0.541,0.875c0,0.003,0,0.005,0,0.008
					c0,0.289,0.048,0.573,0.2,0.857c0.038,0.071-0.034,0.201,0.008,0.272c0.16,0.284,0.278,0.489,0.468,0.904l0.626,0.02
					l3.585,0.109l80.371,2.435c-0.433-3.288-0.585-5.749-0.568-7.387L8.133,141.718z"/>
			</g>
			<g>
				<g>
					<polygon fill="#CCC7C0" points="133.992,100.663 99.401,134.37 99.356,135.845 133.948,102.139 					"/>
				</g>
				<g>
					<polygon fill="#EFEDEA" points="134.038,99.188 99.446,132.895 99.401,134.37 133.992,100.663 					"/>
				</g>
				<g>
					<polygon fill="#CCC7C0" points="134.082,97.713 99.491,131.419 99.446,132.895 134.038,99.188 					"/>
				</g>
				<g>
					<polygon fill="#EFEDEA" points="134.127,96.239 99.536,129.943 99.491,131.419 134.082,97.713 					"/>
				</g>
				<g>
					<polygon fill="#CCC7C0" points="134.171,94.763 99.58,128.468 99.536,129.943 134.127,96.239 					"/>
				</g>
				<g>
					<polygon fill="#EFEDEA" points="134.217,93.287 99.626,126.993 99.58,128.468 134.171,94.763 					"/>
				</g>
				<g>
					<polygon fill="#CCC7C0" points="134.262,91.812 99.67,125.518 99.626,126.993 134.217,93.287 					"/>
				</g>
				<g>
					<polygon fill="#EFEDEA" points="134.306,90.337 99.715,124.043 99.67,125.518 134.262,91.812 					"/>
				</g>
				<g>
					<polygon fill="#EFEDEA" points="134.387,87.664 99.795,121.369 99.751,122.846 134.342,89.139 					"/>
				</g>
				<g>
					<polygon fill="#EFEDEA" points="134.468,84.99 99.876,118.696 99.832,120.172 134.424,86.465 					"/>
				</g>
				<g>
					<polygon fill="#CCC7C0" points="134.351,88.86 99.759,122.567 99.715,124.043 134.306,90.337 					"/>
				</g>
				<g>
					<polygon fill="#CCC7C0" points="134.431,86.188 99.84,119.895 99.795,121.369 134.387,87.664 					"/>
				</g>
				<polygon fill="#70081C" points="136.067,99.778 99.274,135.193 101.63,136.177 135.978,102.729 				"/>
				<polygon fill="#E84E1B" points="138.056,80.561 41.349,77.631 41.367,77.036 4.879,112.619 4.71,113.628 4.903,113.372 
					101.025,116.284 101.602,115.799 101.578,116.602 138.26,81.448 138.304,79.973 				"/>
				<path fill="#E5332A" d="M102.218,115.91l-91.907-2.784l-4.329-0.131l-1.083-0.033c0,0-5.596,12.112-0.29,20.461l0.753,0.022
					l4.142,0.126l91.718,2.778C97.78,128.467,100.433,120.359,102.218,115.91z"/>
				<path fill="#CAAC68" d="M11.15,133.621c-1.574-3.323-3.198-10.332,1.211-20.433l-2.05-0.062l-1.427-0.043
					c-1.767,4.45-4.392,12.558-0.993,20.439l1.612,0.049L11.15,133.621z"/>
				<path fill="#CAAC68" d="M17.707,113.351l-3.478-0.105c-1.767,4.449-4.392,12.559-0.992,20.439l3.259,0.099
					C14.923,130.461,13.297,123.451,17.707,113.351z"/>
				<path fill="#CAAC68" d="M91.216,115.577l-3.479-0.105c-1.766,4.45-4.392,12.559-0.991,20.439l3.259,0.1
					C88.431,132.688,86.807,125.679,91.216,115.577z"/>
				<path fill="#CAAC68" d="M96.562,115.739l-3.479-0.105c-1.768,4.449-4.391,12.559-0.991,20.439l3.259,0.099
					C93.777,132.849,92.151,125.841,96.562,115.739z"/>
				<path opacity="0.2" d="M99.568,127.293l-97.232-2.945c-0.004,0-0.002,0.083-0.009,0.217c-0.023,3.023,0.535,6.377,2.281,8.887
					l0.715,0.049h0.038l4.058,0.096l0.084-0.011l91.788,2.773l-0.135-0.007C99.932,133.039,99.488,129.747,99.568,127.293z"/>
			</g>
			<g>
				<g>
					<polygon fill="#CCC7C0" points="115.335,81.402 89.605,106.373 89.572,107.465 115.302,82.496 					"/>
				</g>
				<g>
					<polygon fill="#CCC7C0" points="115.315,82.051 89.586,107.021 89.553,108.114 115.282,83.144 					"/>
				</g>
				<g>
					<polygon fill="#EFEDEA" points="115.368,80.311 89.639,105.279 89.605,106.373 115.335,81.402 					"/>
				</g>
				<g>
					<polygon fill="#CCC7C0" points="115.401,79.217 89.672,104.188 89.639,105.279 115.368,80.311 					"/>
				</g>
				<g>
					<polygon fill="#EFEDEA" points="115.435,78.125 89.705,103.094 89.672,104.188 115.401,79.217 					"/>
				</g>
				<g>
					<polygon fill="#CCC7C0" points="115.468,77.031 89.738,102 89.705,103.094 115.435,78.125 					"/>
				</g>
				<g>
					<polygon fill="#EFEDEA" points="115.501,75.938 89.771,100.906 89.738,102 115.468,77.031 					"/>
				</g>
				<g>
					<polygon fill="#CCC7C0" points="115.534,74.845 89.804,99.814 89.771,100.906 115.501,75.938 					"/>
				</g>
				<g>
					<polygon fill="#EFEDEA" points="115.566,73.752 89.838,98.721 89.804,99.814 115.534,74.845 					"/>
				</g>
				<g>
					<polygon fill="#EFEDEA" points="115.627,71.771 89.897,96.74 89.864,97.834 115.594,72.864 					"/>
				</g>
				<g>
					<polygon fill="#EFEDEA" points="115.688,69.792 89.957,94.761 89.925,95.853 115.654,70.884 					"/>
				</g>
				<g>
					<polygon fill="#CCC7C0" points="115.6,72.658 89.871,97.628 89.838,98.721 115.566,73.752 					"/>
				</g>
				<g>
					<polygon fill="#CCC7C0" points="115.66,70.678 89.931,95.647 89.897,96.74 115.627,71.771 					"/>
				</g>
				<g>
					<polygon fill="#CCC7C0" points="115.719,68.734 89.989,93.703 89.956,94.795 115.687,69.827 					"/>
				</g>
				<polygon fill="#124F09" points="116.569,81.217 89.518,107.463 91.114,108 116.502,83.403 				"/>
				<polygon fill="#124F09" points="116.999,68.573 49.112,66.628 19.893,90.34 19.754,91.052 19.82,90.897 91.237,93.062 
					91.232,93.208 				"/>
				<path fill="#2A6622" d="M91.921,92.673L23.83,90.609l-3.208-0.097l-0.801-0.024c0,0-4.129,8.473-0.24,15.959l0.558,0.017
					l3.069,0.093l67.953,2.06C88.622,102.397,90.613,95.499,91.921,92.673z"/>
				<path fill="#F9D62B" d="M34.496,90.933l-1.296-0.039l-1.281-0.039l-0.663-0.021l-0.634-0.019l-1.312-0.04l-0.632-0.02
					l-1.312-0.039l-0.634-0.02l-1.383-0.042l-0.561-0.017l-0.958-0.029l-1.058-0.032c-1.294,2.827-3.266,9.727-0.758,15.943
					l1.193,0.036l0.822,0.025l0.399,0.012l1.545,0.047l0.471,0.015l1.474,0.045l0.47,0.014l1.475,0.045l0.471,0.014l0.826,0.025
					l1.119,0.034l1.296,0.039C32.434,103.561,31.222,98.612,34.496,90.933z"/>
				<path fill="#F9D62B" d="M40.33,91.109l-2.578-0.078c-1.293,2.826-3.266,9.727-0.759,15.943l2.415,0.073
					C38.267,103.738,37.056,98.789,40.33,91.109z"/>
				<path fill="#F9D62B" d="M87.731,92.546l-2.577-0.079c-1.295,2.827-3.265,9.728-0.759,15.944l2.416,0.073
					C85.67,105.174,84.459,100.225,87.731,92.546z"/>
				<path opacity="0.2" d="M89.969,100.801l-72.037-2.182c-0.003,0-0.019,0.614-0.024,0.712c-0.017,2.242,0.4,4.64,1.673,7.134
					l0.53,0.035h0.027l3.007,0.074l0.062-0.009l67.95,2.055l-0.166-0.762C90.081,105.735,89.889,103.255,89.969,100.801z"/>
				<path opacity="0.2" d="M101.05,68.158l-51.938-1.53L20.457,89.852c0.995,0.05,1.992,0.097,2.996,0.127
					C57.517,91.011,83.737,81.742,101.05,68.158z"/>
			</g>
		</g>
		<g>
			<path fill="#3A2313" d="M53.714,77.02c-0.046,0.059-0.089,0.119-0.129,0.182c0.042-0.01,0.09-0.018,0.13-0.027l-0.201,1.24
				l1.967-1.015l0.923,3.585l1.23-3.076l2.031,2.156v-2.156l2.69,0.82l-0.624-1.899C59.06,74.627,56.387,76.059,53.714,77.02z"/>
			<path fill="#D74525" d="M79.179,28.818c-8.231-1.386-15.124,1.97-18.481,4.067c0.069-0.008,0.138-0.025,0.209-0.025
				c-0.071,0-0.14,0.017-0.209,0.025c-0.292,0.182-0.565,0.357-0.801,0.516c0.003-0.079,0.007-0.16,0.011-0.239
				c-0.675,0.399-1.192,1.14-1.192,1.89c-1.555,0.777-1.458-1.199-2.053-2.416c0,0.142,0,0.288,0,0.427
				c-2.778-1.853-8.647-4.88-16.917-4.489C28.319,29.115,20.829,37.51,21.04,49.963c0.212,17.264,15.537,31.847,26.224,31.847
				c2.564,0,4.67-0.32,6.321-0.719c0.041-0.062,0.083-0.122,0.129-0.182c-0.159,0.058-0.319,0.114-0.478,0.167
				c0.159-0.053,0.319-0.109,0.478-0.167c0.422-0.541,1.065-0.929,1.713-0.929c-0.648,0-1.292,0.388-1.713,0.929
				c2.672-0.962,5.346-2.392,8.018-0.189l-0.011-0.037c1.724,0.586,4.29,1.16,7.73,1.16c10.684,0,26.062-11.56,26.277-28.828
				C95.942,40.559,90.836,30.778,79.179,28.818z"/>
			<path fill="#3A2313" d="M58.715,36.511c0-0.75,0.517-1.491,1.192-1.89c0.118-2.542,0.247-5.294,0.31-6.918
				c0.092-2.256,4.061-3.44,5.975-5.272c1.129-1.077-0.042-3.939-0.042-3.939s-9.903,4.389-9.634,8.634
				c0.122,1.952,0.148,4.633,0.146,6.97C57.257,35.312,57.16,37.289,58.715,36.511z"/>
		</g>
		<path opacity="0.2" d="M95.157,49.386c0,0-15.479,30.971-35.492,30.678c0,0,10.319,4.763,21.088-1.738
			C80.754,78.326,97.953,69.146,95.157,49.386z"/>
		<path fill="#FFFFFF" d="M40.786,33.134c0,0-13.042,1.172-14.98,12.894L40.786,33.134z"/>
	</g>
</g>
</svg>
