<?xml version="1.0" encoding="utf-8"?>
<!-- Generator: Adobe Illustrator 16.0.0, SVG Export Plug-In . SVG Version: 6.00 Build 0)  -->
<!DOCTYPE svg PUBLIC "-//W3C//DTD SVG 1.1//EN" "http://www.w3.org/Graphics/SVG/1.1/DTD/svg11.dtd">
<svg version="1.1" id="Layer_1" xmlns="http://www.w3.org/2000/svg" xmlns:xlink="http://www.w3.org/1999/xlink" x="0px" y="0px"
	 width="12.917px" height="13px" viewBox="0 0 12.917 13" enable-background="new 0 0 12.917 13" xml:space="preserve">
<polyline fill="none" stroke="#3DB29C" stroke-width="2" stroke-linecap="round" stroke-linejoin="round" stroke-miterlimit="10" points="
	11.845,1 7.001,6.466 11.845,11.928 "/>
<polyline fill="none" stroke="#3DB29C" stroke-width="2" stroke-linecap="round" stroke-linejoin="round" stroke-miterlimit="10" points="
	5.918,1 1.074,6.466 5.918,11.928 "/>
</svg>
