<?xml version="1.0" encoding="utf-8"?>
<!-- Generator: Adobe Illustrator 16.0.0, SVG Export Plug-In . SVG Version: 6.00 Build 0)  -->
<!DOCTYPE svg PUBLIC "-//W3C//DTD SVG 1.1//EN" "http://www.w3.org/Graphics/SVG/1.1/DTD/svg11.dtd">
<svg version="1.1" id="Layer_1" xmlns="http://www.w3.org/2000/svg" xmlns:xlink="http://www.w3.org/1999/xlink" x="0px" y="0px"
	 width="60.688px" height="50px" viewBox="0 0 60.688 50" enable-background="new 0 0 60.688 50" xml:space="preserve">
<rect x="2.188" y="2" fill="#233B48" stroke="#233B48" stroke-width="4" stroke-linecap="round" stroke-linejoin="round" stroke-miterlimit="10" width="8" height="46"/>
<rect x="16.188" y="15" fill="#233B48" stroke="#233B48" stroke-width="4" stroke-linecap="round" stroke-linejoin="round" stroke-miterlimit="10" width="8" height="33"/>
<rect x="30.188" y="10" fill="#233B48" stroke="#233B48" stroke-width="4" stroke-linecap="round" stroke-linejoin="round" stroke-miterlimit="10" width="8" height="38"/>
<rect x="46.135" y="2.457" transform="matrix(0.9777 -0.2101 0.2101 0.9777 -4.1383 11.0766)" fill="#233B48" stroke="#233B48" stroke-width="4" stroke-linecap="round" stroke-linejoin="round" stroke-miterlimit="10" width="7.845" height="45.112"/>
</svg>
