<?xml version="1.0" encoding="utf-8"?>
<!-- Generator: Adobe Illustrator 16.0.0, SVG Export Plug-In . SVG Version: 6.00 Build 0)  -->
<!DOCTYPE svg PUBLIC "-//W3C//DTD SVG 1.1//EN" "http://www.w3.org/Graphics/SVG/1.1/DTD/svg11.dtd">
<svg version="1.1" id="Layer_1" xmlns="http://www.w3.org/2000/svg" xmlns:xlink="http://www.w3.org/1999/xlink" x="0px" y="0px"
	 width="17.016px" height="15.969px" viewBox="0 0 17.016 15.969" enable-background="new 0 0 17.016 15.969" xml:space="preserve">
<g>
	<path fill="#FFFFFF" d="M16.059,1.062c0.389,0.389,0.389,1.025,0,1.414L3.314,15.221c-0.389,0.389-1.025,0.389-1.414,0
		l-0.355-0.355c-0.389-0.389-0.389-1.025,0-1.414L14.289,0.707c0.389-0.389,1.025-0.389,1.414,0L16.059,1.062z"/>
</g>
<g>
	<path fill="#FFFFFF" d="M1.545,1.062c-0.389,0.389-0.389,1.025,0,1.414l12.744,12.744c0.389,0.389,1.025,0.389,1.414,0l0.355-0.355
		c0.389-0.389,0.389-1.025,0-1.414L3.314,0.707c-0.389-0.389-1.025-0.389-1.414,0L1.545,1.062z"/>
</g>
</svg>
