<?xml version="1.0" encoding="utf-8"?>
<!-- Generator: Adobe Illustrator 16.0.0, SVG Export Plug-In . SVG Version: 6.00 Build 0)  -->
<!DOCTYPE svg PUBLIC "-//W3C//DTD SVG 1.1//EN" "http://www.w3.org/Graphics/SVG/1.1/DTD/svg11.dtd">
<svg version="1.1" id="Layer_1" xmlns="http://www.w3.org/2000/svg" xmlns:xlink="http://www.w3.org/1999/xlink" x="0px" y="0px"
	 width="34px" height="27px" viewBox="0 0 34 27" enable-background="new 0 0 34 27" xml:space="preserve">
<path fill="#FFFFFF" d="M22.698,4.339v19.877c0,0.367,0.298,0.666,0.667,0.666h3.109c0.367,0,0.666-0.299,0.666-0.666V4.339
	c0-0.367-0.299-0.666-0.666-0.666h-3.109C22.996,3.673,22.698,3.972,22.698,4.339z M23.309,8.947h3.221v0.694h-3.221V8.947z
	 M23.309,7.394h3.221v0.692h-3.221V7.394z M23.309,5.838h3.221v0.694h-3.221V5.838z"/>
<path fill="#FFFFFF" d="M17.146,4.339v19.877c0,0.367,0.297,0.666,0.666,0.666h3.108c0.369,0,0.666-0.299,0.666-0.666V4.339
	c0-0.367-0.297-0.666-0.666-0.666h-3.108C17.443,3.673,17.146,3.972,17.146,4.339z M17.757,8.947h3.22v0.694h-3.22V8.947z
	 M17.757,7.394h3.22v0.692h-3.22V7.394z M17.757,5.838h3.22v0.694h-3.22V5.838z"/>
<path fill="#FFFFFF" d="M11.594,4.339v19.877c0,0.367,0.297,0.666,0.668,0.666h3.107c0.367,0,0.667-0.299,0.667-0.666V4.339
	c0-0.367-0.299-0.666-0.667-0.666h-3.107C11.891,3.673,11.594,3.972,11.594,4.339z M12.205,8.947h3.221v0.694h-3.221V8.947z
	 M12.205,7.394h3.221v0.692h-3.221V7.394z M12.205,5.838h3.221v0.694h-3.221V5.838z"/>
<path fill="#FFFFFF" d="M1.914,5.352l4.133,19.441c0.076,0.36,0.432,0.59,0.791,0.514l3.041-0.647
	c0.359-0.076,0.588-0.431,0.514-0.789L6.258,4.428c-0.074-0.36-0.428-0.59-0.789-0.514L2.428,4.562
	C2.066,4.638,1.838,4.991,1.914,5.352z M3.471,9.731l3.15-0.669l0.143,0.68l-3.15,0.669L3.471,9.731z M3.146,8.211l3.15-0.669
	l0.145,0.68l-3.15,0.669L3.146,8.211z M2.822,6.69l3.15-0.669l0.145,0.678L2.967,7.37L2.822,6.69z"/>
<path fill="#FFFFFF" d="M0.65,25.937c0,0.338,0.176,0.61,0.395,0.61H32.99c0.219,0,0.395-0.272,0.395-0.61l0,0
	c0-0.337-0.176-0.611-0.395-0.611H1.045C0.826,25.325,0.65,25.6,0.65,25.937L0.65,25.937z"/>
<path fill="#FFFFFF" d="M1.225,0.453c-0.338,0-0.609,0.141-0.609,0.312v25.371c0,0.173,0.271,0.312,0.609,0.312l0,0
	c0.338,0,0.611-0.14,0.611-0.312V0.766C1.836,0.594,1.562,0.453,1.225,0.453L1.225,0.453z"/>
</svg>
