<?xml version="1.0" encoding="utf-8"?>
<!-- Generator: Adobe Illustrator 16.0.0, SVG Export Plug-In . SVG Version: 6.00 Build 0)  -->
<!DOCTYPE svg PUBLIC "-//W3C//DTD SVG 1.1//EN" "http://www.w3.org/Graphics/SVG/1.1/DTD/svg11.dtd">
<svg version="1.1" id="Layer_1" xmlns="http://www.w3.org/2000/svg" xmlns:xlink="http://www.w3.org/1999/xlink" x="0px" y="0px"
	 width="375px" height="227px" viewBox="0 0 375 227" enable-background="new 0 0 375 227" xml:space="preserve">
<rect fill="#3DB29C" width="374.667" height="227"/>
<text transform="matrix(1 0 0 1 55.2383 185.9072)" fill="#359685" font-family="'Montserrat-Light'" font-size="24.5237">Imagen no disponible</text>
<path fill="#359685" d="M96.93,35.673v105.836h174.866V35.673H96.93z M269.306,139.034H99.401V38.149h169.904V139.034z"/>
<polygon fill="#359685" points="270.361,42.464 270.361,44.941 275.247,44.941 275.247,145.825 105.344,145.825 105.344,140.287 
	102.871,140.287 102.871,148.3 277.738,148.3 277.738,42.464 "/>
<line fill="none" stroke="#359685" stroke-width="4.0873" stroke-miterlimit="10" x1="98.115" y1="37.229" x2="269.306" y2="139.034"/>
<g>
	<path fill="#359685" d="M222.062,66.884c0,0.862-0.7,1.561-1.562,1.561h-15.474c-0.859,0-1.561-0.698-1.561-1.561V58.69
		c0-0.86,0.701-1.56,1.561-1.56H220.5c0.862,0,1.562,0.699,1.562,1.56V66.884z"/>
	<g>
		<path fill="#359685" d="M168.699,73.158c4.053-3.686,9.418-5.95,15.329-5.95c12.603,0,22.818,10.217,22.818,22.821
			c0,1.839-0.239,3.618-0.652,5.332l25.229,15.006V68.963c0-4.31-3.493-7.801-7.803-7.801h-75.127L168.699,73.158z"/>
		<path fill="#359685" d="M201.687,104.479c-4.186,5.106-10.54,8.368-17.658,8.368c-12.604,0-22.82-10.215-22.82-22.817
			c0-3.01,0.597-5.873,1.655-8.504l-25.741-15.262c-0.312,0.842-0.489,1.748-0.489,2.699v42.129c0,4.31,3.49,7.804,7.801,7.804
			h79.186c0.663,0,1.302-0.092,1.915-0.247L201.687,104.479z"/>
	</g>
	<g>
		<path fill="#359685" d="M178.741,79.12v-0.086l21.796,12.961c0.036-0.455,0.069-0.915,0.069-1.381
			c0-9.157-7.423-16.578-16.578-16.578c-3.395,0-6.549,1.024-9.178,2.774L178.741,79.12z"/>
		<path fill="#359685" d="M188.164,96.444v0.085l-19.672-11.664c-0.662,1.792-1.043,3.725-1.043,5.749
			c0,9.156,7.421,16.578,16.578,16.578c5.016,0,9.501-2.236,12.538-5.756L188.164,96.444z"/>
	</g>
</g>
</svg>
