<?xml version="1.0" encoding="utf-8"?>
<!-- Generator: Adobe Illustrator 16.0.0, SVG Export Plug-In . SVG Version: 6.00 Build 0)  -->
<!DOCTYPE svg PUBLIC "-//W3C//DTD SVG 1.1//EN" "http://www.w3.org/Graphics/SVG/1.1/DTD/svg11.dtd">
<svg version="1.1" id="Layer_1" xmlns="http://www.w3.org/2000/svg" xmlns:xlink="http://www.w3.org/1999/xlink" x="0px" y="0px"
	 width="376px" height="80px" viewBox="0 0 376 80" enable-background="new 0 0 376 80" xml:space="preserve">
<g>
	<path fill="#E54A30" d="M319.336,79.334c0,0,19.317-5.585,54.432,0c0,0-11.459-15.209-14.841-28.357
		c0,0,4.336-12.561,15.062-29.821c0,0-27.402-5.218-54.14-0.811L319.336,79.334z"/>
	<g>
		<path fill="#FFE14F" d="M369.92,73.83c0.828,1.239,1.356,1.978,1.356,1.978c-33.509-5.585-51.94,0-51.94,0l0.016-1.766
			C319.656,73.948,337.562,68.665,369.92,73.83z"/>
	</g>
	<path fill="#BF3725" d="M354.177,54.377c0,0-24.177,7.622-35.177,24.792V37.022L354.177,54.377z"/>
	<path fill="#E54A30" d="M56.652,79.334c0,0-19.318-5.585-54.432,0c0,0,11.46-15.209,14.84-28.357c0,0-4.334-12.561-15.06-29.821
		c0,0,27.401-5.218,54.139-0.811L56.652,79.334z"/>
	<g>
		<path fill="#FFE14F" d="M6.07,73.83c-0.829,1.239-1.356,1.978-1.356,1.978c33.506-5.585,51.939,0,51.939,0l-0.016-1.766
			C56.331,73.948,38.428,68.665,6.07,73.83z"/>
	</g>
	<g>
		<path fill="#FFE14F" d="M56.153,25.921c0.005,0,0.011-0.003,0.015-0.003l-0.017-2.047c-25.655-4.407-51.946,0.811-51.946,0.811
			c0.323,0.541,0.621,1.061,0.931,1.591c4.846-0.859,28.175-4.562,51.015-0.639L56.153,25.921z"/>
	</g>
	<g>
		<path fill="#FFE14F" d="M319.835,25.921c-0.005,0-0.01-0.003-0.016-0.003l0.02-2.047c25.763-4.407,52.166,0.811,52.166,0.811
			c-0.323,0.541-0.623,1.061-0.934,1.591c-4.868-0.859-28.297-4.562-51.232-0.639L319.835,25.921z"/>
	</g>
	<path fill="#BF3725" d="M21.823,54.377c0,0,24.177,7.622,35.177,24.792V37.022L21.823,54.377z"/>
	<path fill="#E5C53C" d="M23.573,49.816l-2.098,1.034c0,0,24.599,7.622,35.177,24.792V73.88
		C47.941,59.74,29.732,52.08,23.573,49.816z"/>
	<path fill="#E5C53C" d="M352.493,49.816l2.103,1.034c0,0-24.651,7.622-35.249,24.792V73.88
		C328.075,59.74,346.321,52.08,352.493,49.816z"/>
	<rect x="21" fill="#E54A30" width="334" height="55"/>
	<rect x="21" y="49" fill="#FFE14F" width="334" height="2"/>
	<rect x="21" y="4" fill="#FFE14F" width="334" height="1"/>
</g>
</svg>
