<?xml version="1.0" encoding="utf-8"?>
<!-- Generator: Adobe Illustrator 16.0.0, SVG Export Plug-In . SVG Version: 6.00 Build 0)  -->
<!DOCTYPE svg PUBLIC "-//W3C//DTD SVG 1.1//EN" "http://www.w3.org/Graphics/SVG/1.1/DTD/svg11.dtd">
<svg version="1.1" id="Layer_1" xmlns="http://www.w3.org/2000/svg" xmlns:xlink="http://www.w3.org/1999/xlink" x="0px" y="0px"
	 width="232px" height="245px" viewBox="0 0 232 245" enable-background="new 0 0 232 245" xml:space="preserve">
<circle fill="#3DB29C" cx="116.064" cy="115.793" r="115.154"/>
<path fill="#E19E00" d="M38.716,72.293c0,0-2.161,0-2.161,2.007c0,0,0.077,1.93,2.238,1.93c0,0,5.713,0.309,8.801-5.095
	c0,0,3.937-7.488-0.772-14.977c0,0-6.021-9.804-22.464-7.179c0,0-13.509,2.702-18.759,15.44c0,0-6.407,20.38,5.944,33.658
	c0,0,9.495,12.198,30.725,14.36c0,0,16.057,0,19.068,5.712c0,0,3.397,5.867-2.548,10.499c0,0-3.242,2.625-8.491,1.544
	c0,0-2.007-0.618-2.934-1.776c0,0-1.621-1.312-2.779,0.31c0,0-1.235,1.853,0.849,2.779c0,0,4.169,2.934,8.569,2.779
	c0,0,7.488,0.386,11.734-7.488c0,0,4.401-8.724-1.775-13.896c0,0-3.474-4.323-14.05-6.253c0,0-17.601-2.315-23.623-6.716
	c0,0-13.973-8.492-13.741-23.005c0,0-0.077-14.205,11.193-18.605c0,0,7.025-3.01,15.285,0.232c0,0,4.246,1.853,3.938,8.337
	C42.963,66.89,43.117,71.598,38.716,72.293z"/>
<path fill="#FFD96C" d="M182.65,46.664l-18.913-6.716l-24.396-2.934L119,36.833v-0.051l-3,0.025l-3-0.025v0.051l-20.873,0.181
	l-24.814,2.934l-18.969,6.716l-2.267,3.165c0,0,9.714,82.988,51.4,99.509l17.999-0.298l18,0.298
	c41.688-16.521,51.415-99.509,51.415-99.509L182.65,46.664z"/>
<path fill="#FFD96C" d="M133.301,148.95c-1.082-1.803-14.822-1.634-17.832-1.575c-3.009-0.059-16.75-0.228-17.832,1.575
	c0,0-2.983,13.606,10.68,19.512c0,0,2.683-0.848,6.683-0.803V167c1,0,0.393,0,0.413,0c0.02,0,0.587,0,0.587,0v0.659
	c4-0.045,6.652,0.721,6.652,0.721C136.314,162.474,133.301,148.95,133.301,148.95z"/>
<path fill="#FFD96C" d="M116,213.097c14-0.098,27.291-1.095,27.291-1.095c-18.004-5.152-20.859-43.54-20.859-43.54
	c-0.746-0.905-6.105-0.88-6.954-0.87c-0.848-0.01-6.204-0.035-6.95,0.87c0,0-2.842,38.388-20.848,43.54
	c0,0,13.321,0.997,27.321,1.095V213c0,0,0.144,0,0.298,0s0.702,0,0.702,0V213.097z"/>
<path fill="#FFD96C" d="M145.402,217.85l-0.059-6.657c-0.917-1.24-26.427-1.192-29.949-1.18c-3.504-0.013-28.883-0.061-29.799,1.18
	l-0.058,6.657l29.992-0.115L145.402,217.85z"/>
<path fill="#97481D" d="M115,217.485c-7.191-0.073-38-0.292-41,1.291v24.433c0,0,30.251,0.838,41,0.771
	c10.749,0.066,41-0.771,41-0.771v-24.433C153,217.193,122.192,217.412,115,217.485z"/>
<path fill="#E19E00" d="M192.223,72.293c0,0,2.161,0,2.161,2.007c0,0-0.077,1.93-2.238,1.93c0,0-5.713,0.309-8.802-5.095
	c0,0-3.937-7.488,0.773-14.977c0,0,6.021-9.804,22.464-7.179c0,0,13.509,2.702,18.759,15.44c0,0,6.407,20.38-5.944,33.658
	c0,0-9.495,12.198-30.725,14.36c0,0-16.057,0-19.067,5.712c0,0-3.397,5.867,2.548,10.499c0,0,3.241,2.625,8.491,1.544
	c0,0,2.007-0.618,2.934-1.776c0,0,1.621-1.312,2.779,0.31c0,0,1.235,1.853-0.85,2.779c0,0-4.168,2.934-8.568,2.779
	c0,0-7.488,0.386-11.734-7.488c0,0-4.4-8.724,1.776-13.896c0,0,3.474-4.323,14.05-6.253c0,0,17.601-2.315,23.622-6.716
	c0,0,13.973-8.492,13.741-23.005c0,0,0.077-14.205-11.193-18.605c0,0-7.025-3.01-15.286,0.232c0,0-4.245,1.853-3.937,8.337
	C187.977,66.89,187.822,71.598,192.223,72.293z"/>
<path fill="#E19E00" d="M181.957,41.028c-18.23-9.213-55.845-9.787-66.543-9.755c-10.686-0.031-48.259,0.542-66.489,9.755
	c0,0-8.511,4.401-2.393,11.851c0,0-2.007-2.915,3.474-6.08c0,0,14.993-9.918,62.993-9.497V37.4c1-0.024,2.046-0.044,3-0.06
	c0.953,0.016,2,0.036,3,0.06v-0.098c48-0.422,62.463,9.497,62.463,9.497c5.48,3.165,3.116,6.08,3.116,6.08
	C190.697,45.429,181.957,41.028,181.957,41.028z"/>
<path fill="none" stroke="#E19E00" stroke-width="2" stroke-linecap="round" stroke-miterlimit="10" d="M97.464,149.337
	c0,0,17.945-6.215,36.011,0"/>
<path fill="none" stroke="#E19E00" stroke-width="2" stroke-linecap="round" stroke-miterlimit="10" d="M108.526,168.462
	c0,0,6.042-1.794,13.904,0"/>
<path fill="none" stroke="#E19E00" stroke-width="2" stroke-linecap="round" stroke-miterlimit="10" d="M86.348,211.192
	c0,0,24.716-4.517,58.243,0"/>
<path fill="#FCECA9" d="M136.141,38.712c0,0,34.044,2.084,46.318,10.653c0,0-10.19,83.837-49.098,98.196
	c0,0-2.548-1.158-7.643-2.085C125.719,145.477,163.005,103.327,136.141,38.712z"/>
<path fill="#FCECA9" d="M124.908,148.487c0,0,6.542,1.101,7.7,2.085c0,0,1.505,11.695-9.38,16.79c0,0-0.983-0.521-2.084-0.637
	C121.145,166.726,128.961,156.709,124.908,148.487z"/>
<path fill="#FCECA9" d="M120.623,169.447c0,0,1.043,0.058,1.39,0.231c0,0,1.911,27.965,14.302,39.081c0,0-5.848-0.695-9.438-0.811
	C126.877,207.949,120.623,199.496,120.623,169.447z"/>
<path fill="#FCECA9" d="M127.186,210.863c0,0,0.54,4.4,0.077,6.254c0,0,12.621-0.116,17.562,0.27c0,0,0.154-4.4-0.154-4.748
	C144.671,212.639,137.568,211.52,127.186,210.863z"/>
</svg>
