<?xml version="1.0" encoding="utf-8"?>
<!-- Generator: Adobe Illustrator 16.0.0, SVG Export Plug-In . SVG Version: 6.00 Build 0)  -->
<!DOCTYPE svg PUBLIC "-//W3C//DTD SVG 1.1//EN" "http://www.w3.org/Graphics/SVG/1.1/DTD/svg11.dtd">
<svg version="1.1" id="Layer_1" xmlns="http://www.w3.org/2000/svg" xmlns:xlink="http://www.w3.org/1999/xlink" x="0px" y="0px"
	 width="74px" height="74px" viewBox="0 0 74 74" enable-background="new 0 0 74 74" xml:space="preserve">
<circle fill="#DEDDDD" stroke="#DEDDDD" stroke-width="3" stroke-miterlimit="10" cx="37.118" cy="37.318" r="32.479"/>
<circle fill="none" stroke="#DEDDDD" stroke-miterlimit="10" cx="37.118" cy="37.338" r="35.904"/>
<g>
	<path fill="#898989" stroke="#898989" stroke-miterlimit="10" d="M26.743,35.391c0.153-0.043,0.288-0.128,0.413-0.23
		c0.742,2.384,1.416,3.974,1.416,3.974c2.104,1.169,1.401,7.948,1.401,7.948c-0.262,0.526-1.111,1.563-1.809,2.374
		c1.945,2.395,4.914,3.93,8.242,3.93c3.528,0,6.646-1.729,8.576-4.376c-0.598-0.717-1.211-1.494-1.428-1.928
		c0,0-0.701-6.78,1.4-7.949c0,0,0.675-1.588,1.418-3.973c0.124,0.103,0.258,0.186,0.411,0.229c0.994,0.28,2.187-0.85,2.661-2.526
		c0.476-1.677,0.058-3.265-0.937-3.546c-0.224-0.064-0.46-0.046-0.697,0.025c0.95-5.322,0.879-11.365-3.23-14.162
		c-0.491-1.041-1.204-1.754-2.214-2c-2.171-0.528-4.031-0.702-5.603-0.667c-1.57-0.034-3.431,0.139-5.603,0.667
		c-1.009,0.247-1.723,0.96-2.212,2c-4.11,2.797-4.181,8.84-3.233,14.162c-0.234-0.071-0.47-0.089-0.695-0.025
		c-0.996,0.282-1.414,1.871-0.937,3.546C24.558,34.541,25.75,35.671,26.743,35.391z"/>
	<path fill="#898989" stroke="#898989" stroke-miterlimit="10" d="M48.818,50.962c-2.664,4.021-7.227,6.676-12.414,6.676
		c-4.85,0-9.145-2.327-11.863-5.916c-4.892,1.496-9.444,3.763-13.49,6.702c6.198,7.497,15.567,12.275,26.054,12.275
		c10.876,0,20.543-5.145,26.722-13.127C59.333,54.521,54.26,52.266,48.818,50.962z"/>
</g>
</svg>
