<?xml version="1.0" encoding="utf-8"?>
<!-- Generator: Adobe Illustrator 16.0.0, SVG Export Plug-In . SVG Version: 6.00 Build 0)  -->
<!DOCTYPE svg PUBLIC "-//W3C//DTD SVG 1.1//EN" "http://www.w3.org/Graphics/SVG/1.1/DTD/svg11.dtd">
<svg version="1.1" id="Layer_1" xmlns="http://www.w3.org/2000/svg" xmlns:xlink="http://www.w3.org/1999/xlink" x="0px" y="0px"
	 width="44.625px" height="44.625px" viewBox="0 0 44.625 44.625" enable-background="new 0 0 44.625 44.625" xml:space="preserve">
<circle fill="#DEDDDD" cx="22.305" cy="22.514" r="19.08"/>
<circle fill="none" stroke="#DEDDDD" stroke-miterlimit="10" cx="22.305" cy="22.525" r="21.091"/>
<g>
	<path fill="#898989" stroke="#898989" stroke-miterlimit="10" d="M16.21,20.382c0.09-0.026,0.169-0.075,0.243-0.135
		c0.436,1.4,0.832,2.334,0.832,2.334c1.236,0.687,0.823,4.669,0.823,4.669c-0.154,0.309-0.653,0.918-1.062,1.395
		c1.143,1.407,2.886,2.309,4.841,2.309c2.073,0,3.904-1.016,5.038-2.571c-0.352-0.421-0.712-0.877-0.839-1.132
		c0,0-0.412-3.983,0.823-4.669c0,0,0.396-0.933,0.833-2.334c0.073,0.061,0.152,0.109,0.242,0.135
		c0.583,0.165,1.285-0.499,1.562-1.484c0.28-0.985,0.034-1.918-0.55-2.083c-0.131-0.038-0.27-0.027-0.409,0.015
		c0.558-3.126,0.516-6.676-1.897-8.319c-0.289-0.612-0.708-1.03-1.3-1.175c-1.275-0.31-2.368-0.412-3.292-0.392
		c-0.922-0.02-2.015,0.082-3.291,0.392c-0.593,0.145-1.012,0.564-1.3,1.175c-2.414,1.643-2.456,5.193-1.899,8.319
		c-0.138-0.042-0.276-0.052-0.408-0.015c-0.585,0.166-0.831,1.099-0.55,2.083C14.927,19.882,15.627,20.546,16.21,20.382z"/>
	<path fill="#898989" stroke="#898989" stroke-miterlimit="10" d="M28.801,29.528c-1.477,2.363-4.006,3.922-6.881,3.922
		c-2.688,0-5.069-1.367-6.576-3.476c-2.711,0.879-5.235,2.21-7.477,3.938c3.436,4.404,8.628,7.211,14.441,7.211
		c6.028,0,11.387-3.022,14.811-7.711C34.629,31.62,31.817,30.294,28.801,29.528z"/>
</g>
</svg>
