<?xml version="1.0" encoding="utf-8"?>
<!-- Generator: Adobe Illustrator 16.0.0, SVG Export Plug-In . SVG Version: 6.00 Build 0)  -->
<!DOCTYPE svg PUBLIC "-//W3C//DTD SVG 1.1//EN" "http://www.w3.org/Graphics/SVG/1.1/DTD/svg11.dtd">
<svg version="1.1" xmlns="http://www.w3.org/2000/svg" xmlns:xlink="http://www.w3.org/1999/xlink" x="0px" y="0px"
	 width="49.125px" height="62.922px" viewBox="0 0 49.125 62.922" enable-background="new 0 0 49.125 62.922" xml:space="preserve">
<g id="Layer_1">
	<g>
		<circle fill="#EFC84E" stroke="#C9A43D" stroke-width="0.6131" stroke-miterlimit="10" cx="35.147" cy="18.728" r="13.028"/>
		<path fill="#EFC84E" d="M36.219,34.363c-8.549,0-15.48-6.932-15.48-15.482c0-7.009,4.662-12.923,11.052-14.83
			c-3.139-2.118-6.867-3.426-10.895-3.592V0.452c-0.031,0.001-0.06,0.002-0.089,0.003c-0.028-0.001-0.058-0.002-0.088-0.003v0.007
			C9.461,0.922,0.474,10.191,0.474,21.562c0,4.004,1.114,7.747,3.047,10.936c0.11,0.202,0.215,0.393,0.317,0.566
			c0.092,0.156,0.245,0.361,0.45,0.609c0.932,1.33,2.014,2.547,3.221,3.628c4.331,4.963,11.181,13.729,13.209,25.05l0.109,0.555
			c0.008-0.005,0.068-0.555,0.068-0.555c2.026-11.321,8.879-20.087,13.208-25.05c1-0.895,1.889-1.902,2.701-2.968
			C36.609,34.34,36.418,34.363,36.219,34.363z"/>
		<g>
			<path fill="#C9A43D" d="M26.197,26.061h17.9c0.33,0,0.6-0.269,0.6-0.6v-2.8c0-0.332-0.27-0.6-0.6-0.6h-17.9
				c-0.332,0-0.6,0.269-0.6,0.6v2.8C25.598,25.792,25.865,26.061,26.197,26.061z M30.348,25.511v-2.9h0.625v2.9H30.348z
				 M28.947,25.511v-2.9h0.625v2.9H28.947z M27.547,25.511v-2.9h0.625v2.9H27.547z"/>
			<path fill="#C9A43D" d="M29.42,14.645c-0.039,0.239-0.061,0.484-0.061,0.733c0,2.761,2.107,5,5.201,5c3.092,0,5-2.238,5-5
				c0-0.25,0.016-0.475,0.004-0.729L29.42,14.645z"/>
			<path fill="#C9A43D" d="M39.559,14.646l-0.076,0.563c0.127,0.048,0.977,0.406,0.828,1.515c-0.223,1.642-1.402,1.425-2.15,1.492
				l-0.078,0.563c1.039,0.159,2.734-0.511,2.844-2.088C41.035,15.113,39.836,14.69,39.559,14.646z"/>
			<g>
				<path fill="#C9A43D" d="M32.32,13.685c0.008-0.208-0.139-0.481-0.176-0.673c-0.172-0.881,0.053-1.294,0.383-1.686
					c0.221-0.269,0.307-0.55,0.232-0.904c-0.109-0.55-0.342-0.905-0.867-1.027c0.086,0.281,0.305,0.513,0.342,0.819
					c0.061,0.55-0.023,0.978-0.354,1.406C31.404,12.242,32.32,13.685,32.32,13.685z"/>
			</g>
			<g>
				<path fill="#C9A43D" d="M34.52,13.685c0.01-0.208-0.139-0.481-0.176-0.673c-0.172-0.881,0.055-1.294,0.385-1.686
					c0.219-0.269,0.305-0.55,0.232-0.904c-0.111-0.55-0.344-0.905-0.869-1.027c0.086,0.281,0.307,0.513,0.342,0.819
					c0.062,0.55-0.023,0.978-0.354,1.406C33.604,12.242,34.52,13.685,34.52,13.685z"/>
			</g>
			<g>
				<path fill="#C9A43D" d="M36.721,13.685c0.008-0.208-0.139-0.481-0.176-0.673c-0.172-0.881,0.053-1.294,0.383-1.686
					c0.221-0.269,0.305-0.55,0.232-0.904c-0.109-0.55-0.342-0.905-0.867-1.027c0.084,0.281,0.305,0.513,0.342,0.819
					c0.061,0.55-0.025,0.978-0.355,1.406C35.803,12.242,36.721,13.685,36.721,13.685z"/>
			</g>
		</g>
	</g>
</g>
<g id="Layer_2" display="none">
	
		<circle display="inline" fill="#354F5E" stroke="#233B48" stroke-width="0.6131" stroke-miterlimit="10" cx="80.398" cy="44.395" r="13.029"/>
	<path display="inline" fill="#354F5E" d="M81.47,60.029c-8.55,0-15.48-6.932-15.48-15.481c0-7.009,4.662-12.923,11.052-14.83
		c-3.138-2.118-6.866-3.426-10.895-3.592v-0.007c-0.031,0.001-0.06,0.002-0.089,0.003C66.029,26.121,66,26.12,65.97,26.119v0.007
		c-11.258,0.463-20.245,9.732-20.245,21.104c0,4.004,1.113,7.747,3.047,10.936c0.109,0.202,0.215,0.393,0.317,0.566
		c0.092,0.155,0.245,0.36,0.45,0.608c0.932,1.33,2.014,2.547,3.221,3.629c4.332,4.963,11.182,13.729,13.21,25.05V89
		c0.008-0.005,0.015-0.028,0.021-0.068c0.02-0.132,0.046-0.264,0.066-0.392c0.021,0.128,0.047,0.26,0.066,0.392
		c0.007,0.04,0.014,0.063,0.022,0.068v-0.981c2.026-11.321,8.879-20.087,13.208-25.05c0.999-0.895,1.888-1.902,2.701-2.969
		C81.859,60.008,81.668,60.029,81.47,60.029z"/>
	
		<text transform="matrix(1 0 0 1 54.7402 52.7803)" display="inline" fill="#FFFFFF" font-family="'MyriadPro-Regular'" font-size="16">4</text>
	<g display="inline">
		<path fill="#233B48" d="M81.125,39.318c0,0.015-0.24,0.072-0.37-0.026c-0.098-0.073-0.062-0.209-0.226-0.295
			c-0.089-0.047-0.257-0.04-0.34-0.039C80.121,38.96,80.07,38.958,80.001,39c-0.145,0.09-0.108,0.218-0.233,0.293
			c-0.148,0.089-0.397,0.039-0.397,0.024c0,0,0.008-0.158,0.008-0.364c0.001-0.206-0.008-0.377-0.008-0.377
			c0-0.015,0.013-0.027,0.027-0.027c0,0,0.249,0.076,0.866,0.069c0.725-0.008,0.834-0.069,0.834-0.069
			c0.015,0,0.027,0.012,0.027,0.027c0,0-0.013,0.144-0.013,0.376C81.112,39.186,81.125,39.318,81.125,39.318z"/>
		<path fill="#233B48" d="M72.534,39.485c0,0.021-0.018,0.039-0.039,0.039c0,0-0.278-0.021-0.303-0.024
			c-0.023-0.003-0.059-0.13-0.243-0.119c-0.187,0.012-0.15,0.093-0.209,0.104c-0.043,0.009-0.115-0.017-0.115-0.039v-1.006
			c0-0.021,0.018-0.039,0.039-0.039l0.793-0.078c0.021,0,0.038,0.017,0.038,0.039c0,0-0.014,0.329-0.005,0.571
			C72.5,39.176,72.534,39.485,72.534,39.485z"/>
		<path fill="#233B48" d="M87.993,39.485c0,0.021,0.018,0.039,0.039,0.039c0,0,0.278-0.021,0.303-0.024
			c0.023-0.003,0.059-0.13,0.243-0.119c0.187,0.012,0.15,0.093,0.208,0.104c0.044,0.009,0.116-0.017,0.116-0.039v-1.006
			c0-0.021-0.018-0.039-0.039-0.039l-0.793-0.078c-0.021,0-0.038,0.017-0.038,0.039c0,0,0.014,0.329,0.004,0.571
			C88.027,39.176,87.993,39.485,87.993,39.485z"/>
		<path fill="#233B48" d="M87.892,38.318c-0.005-0.252-0.645-0.697-3.134-0.697c-2.489,0-2.956,0.348-3.069,0.426
			c-0.214,0.145-0.393,0.348-0.388,0.58c0,0,0,1.271,0.116,1.703s1.444,0.658,3.321,0.658c2.212,0,3.038-0.444,3.038-0.658
			c0,0,0.061-0.351,0.098-1.039C87.909,38.645,87.892,38.318,87.892,38.318z M87.023,39.741c-0.062,0.062-0.162,0.062-0.225,0
			l-1.253-1.253c-0.062-0.062-0.062-0.162,0-0.224c0.062-0.062,0.162-0.062,0.225,0l1.253,1.253
			C87.085,39.579,87.085,39.679,87.023,39.741z M87.169,39.106c-0.062,0.062-0.162,0.062-0.224,0L86.238,38.4
			c-0.062-0.062-0.062-0.162,0-0.224c0.062-0.062,0.162-0.062,0.225,0l0.706,0.706C87.23,38.944,87.23,39.044,87.169,39.106z"/>
		<path fill="#233B48" d="M78.842,38.047c-0.114-0.078-0.58-0.425-3.07-0.426c-2.489,0-3.128,0.444-3.134,0.697
			c0,0-0.018,0.326,0.018,0.973c0.037,0.688,0.099,1.039,0.099,1.039c0,0.213,0.824,0.658,3.037,0.658
			c1.877,0,3.205-0.226,3.321-0.658c0.116-0.433,0.116-1.703,0.116-1.703C79.233,38.395,79.055,38.192,78.842,38.047z
			 M78.292,39.767c-0.062,0.062-0.163,0.062-0.225,0l-1.254-1.253c-0.062-0.062-0.062-0.162,0-0.224
			c0.062-0.062,0.163-0.062,0.225,0l1.254,1.253C78.354,39.604,78.354,39.705,78.292,39.767z M78.438,39.132
			c-0.062,0.062-0.162,0.062-0.225,0l-0.706-0.706c-0.062-0.062-0.062-0.163,0-0.225c0.062-0.062,0.163-0.062,0.224,0l0.707,0.706
			C78.499,38.969,78.499,39.07,78.438,39.132z"/>
		<polygon fill="#233B48" points="80.354,44.455 72.351,42.159 72.351,49.787 80.354,51.727 88.269,49.787 88.269,42.159 		"/>
	</g>
	
		<circle display="inline" fill="#CC4242" stroke="#AD3B3B" stroke-width="0.6131" stroke-miterlimit="10" cx="144.065" cy="41.395" r="13.029"/>
	<path display="inline" fill="#CC4242" d="M145.137,57.029c-8.55,0-15.48-6.932-15.48-15.481c0-7.009,4.662-12.923,11.052-14.83
		c-3.138-2.118-6.866-3.426-10.895-3.592v-0.007c-0.031,0.001-0.06,0.002-0.089,0.003c-0.028-0.001-0.058-0.002-0.088-0.003v0.007
		c-11.258,0.463-20.245,9.732-20.245,21.104c0,4.004,1.114,7.747,3.047,10.936c0.11,0.202,0.215,0.393,0.317,0.566
		c0.092,0.155,0.245,0.36,0.45,0.608c0.933,1.33,2.014,2.547,3.222,3.629c4.331,4.963,11.181,13.729,13.209,25.05V86
		c0.008-0.005,0.015-0.028,0.021-0.068c0.02-0.132,0.046-0.264,0.066-0.392c0.021,0.128,0.047,0.26,0.066,0.392
		c0.007,0.04,0.014,0.063,0.022,0.068v-0.981c2.026-11.321,8.879-20.087,13.208-25.05c0.999-0.895,1.888-1.902,2.701-2.969
		C145.526,57.008,145.335,57.029,145.137,57.029z"/>
	
		<text transform="matrix(1 0 0 1 118.4072 49.7803)" display="inline" fill="#FFFFFF" font-family="'MyriadPro-Regular'" font-size="16">6</text>
	<g display="inline">
		<path fill="#AD3B3B" d="M151.419,47.197c0,0.154-0.124,0.277-0.277,0.277h-12.591c-0.153,0-0.277-0.123-0.277-0.277v-1
			c0-0.152,0.124-0.277,0.277-0.277h12.591c0.153,0,0.277,0.125,0.277,0.277V47.197z"/>
		<path fill="#AD3B3B" d="M149.753,44.976c0,0.153-0.125,0.278-0.278,0.278h-9.812c-0.153,0-0.278-0.125-0.278-0.278v-1.944
			c0-0.154,0.125-0.278,0.278-0.278h9.812c0.153,0,0.278,0.125,0.278,0.278V44.976z"/>
		<path fill="#AD3B3B" d="M137.848,48.771c-0.635,0-1.147-0.514-1.147-1.148v-6.036c0-0.634,0.513-1.147,1.147-1.147l0,0
			c0.634,0,1.148,0.513,1.148,1.147v6.036C138.996,48.258,138.481,48.771,137.848,48.771L137.848,48.771z"/>
		<path fill="#AD3B3B" d="M138.996,41.569c0,0.633-0.515,1.055-1.148,1.055h-1.407c-0.635,0-1.148-0.421-1.148-1.055l0,0
			c0-0.634,0.514-1.148,1.148-1.148h1.407C138.481,40.421,138.996,40.935,138.996,41.569L138.996,41.569z"/>
		<path fill="#AD3B3B" d="M153.845,41.569c0,0.633-0.515,1.055-1.147,1.055h-1.408c-0.634,0-1.147-0.421-1.147-1.055l0,0
			c0-0.634,0.514-1.148,1.147-1.148h1.408C153.33,40.421,153.845,40.935,153.845,41.569L153.845,41.569z"/>
		<path fill="#AD3B3B" d="M151.289,48.771c-0.634,0-1.147-0.514-1.147-1.148v-6.036c0-0.634,0.514-1.147,1.147-1.147l0,0
			c0.634,0,1.148,0.513,1.148,1.147v6.036C152.438,48.258,151.923,48.771,151.289,48.771L151.289,48.771z"/>
		<path fill="#AD3B3B" d="M149.845,41.997v-7.63c0-1.023-0.828-1.852-1.852-1.852h-6.851c-1.022,0-1.852,0.829-1.852,1.852v7.541
			c0,0,0.044,0.226,0.327,0.234c0.265,0.009,8.896,0.02,10.09,0.001C149.861,42.141,149.845,41.997,149.845,41.997z"/>
	</g>
	
		<circle display="inline" fill="#3DB29C" stroke="#359685" stroke-width="0.6131" stroke-miterlimit="10" cx="205.398" cy="39.728" r="13.029"/>
	<path display="inline" fill="#3DB29C" d="M206.47,55.363c-8.55,0-15.48-6.932-15.48-15.482c0-7.009,4.662-12.923,11.052-14.83
		c-3.138-2.118-6.866-3.426-10.895-3.592v-0.007c-0.031,0.001-0.06,0.002-0.089,0.003c-0.028-0.001-0.058-0.002-0.088-0.003v0.007
		c-11.258,0.463-20.245,9.732-20.245,21.104c0,4.003,1.113,7.747,3.047,10.935c0.109,0.203,0.215,0.393,0.317,0.566
		c0.092,0.156,0.245,0.361,0.45,0.609c0.932,1.33,2.014,2.547,3.221,3.628c4.332,4.964,11.182,13.729,13.21,25.05v0.982
		c0.008-0.006,0.015-0.029,0.021-0.068c0.02-0.133,0.046-0.264,0.066-0.393c0.021,0.129,0.047,0.26,0.066,0.393
		c0.007,0.039,0.014,0.062,0.022,0.068v-0.982c2.026-11.32,8.879-20.086,13.208-25.05c0.999-0.895,1.888-1.901,2.701-2.968
		C206.859,55.341,206.668,55.363,206.47,55.363z"/>
	
		<text transform="matrix(1 0 0 1 172.7402 48.1133)" display="inline" fill="#FFFFFF" font-family="'MyriadPro-Regular'" font-size="16">11</text>
	<g display="inline">
		<path fill="#359685" d="M209.089,34.772v10.917c0,0.202,0.164,0.365,0.365,0.365h1.709c0.201,0,0.365-0.163,0.365-0.365V34.772
			c0-0.203-0.164-0.366-0.365-0.366h-1.709C209.253,34.406,209.089,34.57,209.089,34.772z M209.425,37.304h1.768v0.381h-1.768
			V37.304z M209.425,36.45h1.768v0.381h-1.768V36.45z M209.425,35.596h1.768v0.381h-1.768V35.596z"/>
		<path fill="#359685" d="M206.038,34.772v10.917c0,0.202,0.165,0.365,0.367,0.365h1.708c0.201,0,0.365-0.163,0.365-0.365V34.772
			c0-0.203-0.164-0.366-0.365-0.366h-1.708C206.203,34.406,206.038,34.57,206.038,34.772z M206.374,37.304h1.77v0.381h-1.77V37.304z
			 M206.374,36.45h1.77v0.381h-1.77V36.45z M206.374,35.596h1.77v0.381h-1.77V35.596z"/>
		<path fill="#359685" d="M202.989,34.772v10.917c0,0.202,0.164,0.365,0.365,0.365h1.709c0.202,0,0.365-0.163,0.365-0.365V34.772
			c0-0.203-0.163-0.366-0.365-0.366h-1.709C203.153,34.406,202.989,34.57,202.989,34.772z M203.326,37.304h1.767v0.381h-1.767
			V37.304z M203.326,36.45h1.767v0.381h-1.767V36.45z M203.326,35.596h1.767v0.381h-1.767V35.596z"/>
		<path fill="#359685" d="M197.674,35.328l2.269,10.679c0.042,0.198,0.237,0.323,0.435,0.282l1.671-0.355
			c0.198-0.042,0.322-0.236,0.281-0.434l-2.271-10.679c-0.041-0.198-0.236-0.324-0.434-0.282l-1.67,0.355
			C197.757,34.936,197.63,35.13,197.674,35.328z M198.527,37.734l1.729-0.368l0.08,0.373l-1.729,0.368L198.527,37.734z
			 M198.35,36.898l1.73-0.367l0.078,0.373l-1.729,0.367L198.35,36.898z M198.171,36.064l1.731-0.368l0.079,0.373l-1.73,0.368
			L198.171,36.064z"/>
		<path fill="#359685" d="M196.979,46.635c0,0.186,0.097,0.336,0.217,0.336h17.547c0.12,0,0.217-0.15,0.217-0.336l0,0
			c0-0.186-0.097-0.336-0.217-0.336h-17.547C197.075,46.299,196.979,46.449,196.979,46.635L196.979,46.635z"/>
		<path fill="#359685" d="M197.295,32.638c-0.185,0-0.336,0.077-0.336,0.172v13.936c0,0.095,0.151,0.172,0.336,0.172l0,0
			c0.186,0,0.335-0.077,0.335-0.172V32.81C197.63,32.714,197.48,32.638,197.295,32.638L197.295,32.638z"/>
	</g>
	
		<circle display="inline" fill="#F27E30" stroke="#DD5F19" stroke-width="0.6131" stroke-miterlimit="10" cx="265.064" cy="40.395" r="13.029"/>
	<path display="inline" fill="#F27E30" d="M266.136,56.029c-8.55,0-15.48-6.932-15.48-15.481c0-7.009,4.662-12.923,11.052-14.83
		c-3.138-2.118-6.866-3.426-10.895-3.592v-0.007c-0.031,0.001-0.06,0.002-0.089,0.003c-0.028-0.001-0.058-0.002-0.088-0.003v0.007
		c-11.258,0.463-20.245,9.732-20.245,21.104c0,4.004,1.113,7.747,3.047,10.936c0.109,0.202,0.215,0.393,0.317,0.566
		c0.092,0.155,0.245,0.36,0.45,0.608c0.932,1.33,2.014,2.547,3.221,3.629c4.332,4.963,11.182,13.729,13.21,25.05V85
		c0.008-0.005,0.015-0.028,0.021-0.068c0.02-0.132,0.046-0.264,0.066-0.392c0.021,0.128,0.047,0.26,0.066,0.392
		c0.007,0.04,0.014,0.063,0.022,0.068v-0.981c2.026-11.321,8.879-20.087,13.208-25.05c0.999-0.895,1.888-1.902,2.701-2.969
		C266.525,56.008,266.334,56.029,266.136,56.029z"/>
	<g display="inline">
		<path fill="#DD5F19" d="M256.829,34.697v10.994c0,0,3.404-0.566,8.164,0.053V34.697C264.993,34.697,261.185,33.096,256.829,34.697
			z"/>
		<path fill="#DD5F19" d="M273.431,34.697v10.889c0,0-3.727-0.787-7.947,0.158V34.697C265.484,34.697,269.129,33.096,273.431,34.697
			z"/>
	</g>
	<path display="inline" fill="#DD5F19" stroke="#DD5F19" stroke-width="0.2177" stroke-linejoin="round" stroke-miterlimit="10" d="
		M274.53,35.615c-0.027-0.027-0.063-0.043-0.106-0.043h-0.379v10.996h-7.568c-0.047,0-0.088,0.022-0.113,0.056l-0.331,0.33h-1.556
		l-0.341-0.34l0,0c-0.007-0.008-0.014-0.014-0.023-0.02c0-0.002,0-0.002-0.002-0.002c-0.023-0.014-0.051-0.024-0.081-0.024h-7.838
		V35.571h-0.326c-0.042,0-0.079,0.017-0.106,0.043c-0.027,0.029-0.045,0.066-0.045,0.108v11.158c0,0.082,0.067,0.148,0.15,0.148l0,0
		l0,0h8.104l0.326,0.328c0.028,0.035,0.071,0.059,0.117,0.059h1.689c0.055,0,0.1-0.029,0.125-0.072l0.315-0.314h7.883
		c0,0,0,0,0.001,0l0,0c0.084,0,0.151-0.068,0.151-0.15V35.723C274.576,35.681,274.559,35.644,274.53,35.615z"/>
	
		<text transform="matrix(1 0 0 1 232.4062 48.7803)" display="inline" fill="#FFFFFF" font-family="'MyriadPro-Regular'" font-size="16">15</text>
</g>
</svg>
